Lab01/02_REPORT/WAVEFORM.vcd
$date
	Sat Aug 24 18:26:41 2024
$end
$version
	Icarus Verilog
$end
$timescale
	1ps
$end
$scope module TESTBED $end
$var wire 5 ! out_num1 [4:0] $end
$var wire 5 " out_num0 [4:0] $end
$var wire 4 # in_num3 [3:0] $end
$var wire 4 $ in_num2 [3:0] $end
$var wire 4 % in_num1 [3:0] $end
$var wire 4 & in_num0 [3:0] $end
$scope module I_Comb $end
$var wire 4 ' num_and [3:0] $end
$var wire 4 ( num_or [3:0] $end
$var wire 4 ) num_xnor [3:0] $end
$var wire 4 * num_xor [3:0] $end
$var wire 5 + out_num1 [4:0] $end
$var wire 5 , out_num0 [4:0] $end
$var wire 5 - num_add2 [4:0] $end
$var wire 5 . num_add1 [4:0] $end
$var wire 4 / in_num3 [3:0] $end
$var wire 4 0 in_num2 [3:0] $end
$var wire 4 1 in_num1 [3:0] $end
$var wire 4 2 in_num0 [3:0] $end
$upscope $end
$scope module I_PATTERN $end
$var wire 5 3 out_num0 [4:0] $end
$var wire 5 4 out_num1 [4:0] $end
$var reg 4 5 in_num0 [3:0] $end
$var reg 4 6 in_num1 [3:0] $end
$var reg 4 7 in_num2 [3:0] $end
$var reg 4 8 in_num3 [3:0] $end
$var reg 5 9 num_add0 [4:0] $end
$var reg 5 : num_add1 [4:0] $end
$var reg 5 ; out_ans0 [4:0] $end
$var reg 5 < out_ans1 [4:0] $end
$var integer 32 = patcount [31:0] $end
$scope task YOU_PASS_task $end
$upscope $end
$scope task check_ans $end
$upscope $end
$scope task fail $end
$upscope $end
$scope task input_task $end
$upscope $end
$scope task pass_ans $end
$upscope $end
$upscope $end
$upscope $end
$enddefinitions $end
$comment Show the parameter values. $end
$dumpall
$end
#0
$dumpvars
b0 =
b1001 <
b11 ;
b11 :
b1001 9
b11 8
b0 7
b100 6
b1001 5
b1001 4
b11 3
b1001 2
b100 1
b0 0
b11 /
b1001 .
b11 -
b11 ,
b1001 +
b11 *
b10 )
b111 (
b0 '
b1001 &
b100 %
b0 $
b11 #
b11 "
b1001 !
$end
#1000
b10111 !
b10111 +
b10111 4
b1101 (
b10111 .
b1010 )
b10111 <
b10111 9
b0 #
b0 /
b0 8
b11 $
b11 0
b11 7
b1101 %
b1101 1
b1101 6
b1000 &
b1000 2
b1000 5
b1 =
#2000
b1110 "
b1110 ,
b1110 3
b11001 !
b11001 +
b11001 4
b110 *
b1110 -
b1000 '
b1010 (
b11001 .
b1111 )
b11001 <
b1110 ;
b1110 :
b11001 9
b1010 #
b1010 /
b1010 8
b1100 $
b1100 0
b1100 7
b1000 %
b1000 1
b1000 6
b10 =
#3000
b110 "
b110 ,
b110 3
b10001 !
b10001 +
b10001 4
b1111 (
b110 -
b0 '
b10001 .
b10 )
b10001 <
b110 ;
b110 :
b10001 9
b110 #
b110 /
b110 8
b0 $
b0 0
b0 7
b1101 %
b1101 1
b1101 6
b0 &
b0 2
b0 5
b11 =
#4000
b11 "
b11 ,
b11 3
b10011 !
b10011 +
b10011 4
b11 -
b11 *
b111 (
b10011 .
b1100 )
b10011 <
b11 ;
b11 :
b10011 9
b11 #
b11 /
b11 8
b101 %
b101 1
b101 6
b110 &
b110 2
b110 5
b100 =
#5000
b110 "
b110 ,
b110 3
b10001 !
b10001 +
b10001 4
b110 -
b110 *
b1111 (
b10001 .
b10 )
b10001 <
b110 ;
b110 :
b10001 9
b110 #
b110 /
b110 8
b1101 %
b1101 1
b1101 6
b0 &
b0 2
b0 5
b101 =
#6000
b10000 "
b10000 ,
b10000 3
b10100 !
b10100 +
b10100 4
b1101 *
b110 (
b10000 -
b11 '
b10100 .
b1110 )
b10100 <
b10000 ;
b10000 :
b10100 9
b1011 $
b1011 0
b1011 7
b110 %
b110 1
b110 6
b111 &
b111 2
b111 5
b110 =
#7000
b1100 "
b1100 ,
b1100 3
b11000 !
b11000 +
b11000 4
b1011 *
b1011 (
b1100 -
b1 '
b11000 .
b1101 )
b11000 <
b1100 ;
b1100 :
b11000 9
b1000 #
b1000 /
b1000 8
b11 $
b11 0
b11 7
b11 %
b11 1
b11 6
b1 &
b1 2
b1 5
b111 =
#8000
b1111 "
b1111 ,
b1111 3
b1111 !
b1111 +
b1111 4
b1101 (
b1111 -
b100 '
b1111 .
b10 )
b1111 <
b1111 ;
b1111 :
b1111 9
b101 #
b101 /
b101 8
b1110 $
b1110 0
b1110 7
b1001 %
b1001 1
b1001 6
b100 &
b100 2
b100 5
b1000 =
#9000
b10 "
b10 ,
b10 3
b1101 !
b1101 +
b1101 4
b10 *
b10 -
b0 '
b10 (
b1101 .
b1011 )
b1101 <
b10 ;
b10 :
b1101 9
b10 #
b10 /
b10 8
b0 $
b0 0
b0 7
b0 %
b0 1
b0 6
b1001 =
#10000
b101 "
b101 ,
b101 3
b1011 !
b1011 +
b1011 4
b101 -
b101 *
b111 (
b1011 .
b100 )
b1011 <
b101 ;
b101 :
b1011 9
b101 #
b101 /
b101 8
b111 %
b111 1
b111 6
b1100 &
b1100 2
b1100 5
b1010 =
#11000
b1010 "
b1010 ,
b1010 3
b1110 !
b1110 +
b1110 4
b1 *
b1110 (
b1010 -
b1001 '
b1110 .
b0 )
b1110 <
b1010 ;
b1010 :
b1110 9
b1000 #
b1000 /
b1000 8
b1001 $
b1001 0
b1001 7
b110 %
b110 1
b110 6
b1001 &
b1001 2
b1001 5
b1011 =
#12000
b1101 "
b1101 ,
b1101 3
b11010 !
b11010 +
b11010 4
b1101 *
b1111 (
b1101 -
b0 '
b11010 .
b1011 )
b11010 <
b1101 ;
b1101 :
b11010 9
b1101 #
b1101 /
b1101 8
b0 $
b0 0
b0 7
b10 %
b10 1
b10 6
b110 &
b110 2
b110 5
b1100 =
#13000
b1001 "
b1001 ,
b1001 3
b10000 !
b10000 +
b10000 4
b1000 *
b111 (
b10000 -
b1000 '
b1001 .
b10 )
b10000 <
b1001 ;
b10000 :
b1001 9
b100 #
b100 /
b100 8
b1100 $
b1100 0
b1100 7
b111 %
b111 1
b111 6
b1010 &
b1010 2
b1010 5
b1101 =
#14000
b1111 !
b1111 +
b1111 4
b1 "
b1 ,
b1 3
b1 *
b1110 (
b1 -
b0 '
b1111 .
b1 )
b1111 <
b1 ;
b1 :
b1111 9
b1110 #
b1110 /
b1110 8
b1111 $
b1111 0
b1111 7
b1110 %
b1110 1
b1110 6
b0 &
b0 2
b0 5
b1110 =
#15000
b11 "
b11 ,
b11 3
b1011 !
b1011 +
b1011 4
b11 -
b11 *
b1011 (
b1011 .
b0 )
b1011 <
b11 ;
b11 :
b1011 9
b11 #
b11 /
b11 8
b0 $
b0 0
b0 7
b1001 %
b1001 1
b1001 6
b110 &
b110 2
b110 5
b1111 =
#16000
b1011 "
b1011 ,
b1011 3
b10011 !
b10011 +
b10011 4
b1011 -
b1011 *
b10011 .
b1000 )
b10011 <
b1011 ;
b1011 :
b10011 9
b1010 #
b1010 /
b1010 8
b1 $
b1 0
b1 7
b1011 %
b1011 1
b1011 6
b1100 &
b1100 2
b1100 5
b10000 =
#17000
b1111 "
b1111 ,
b1111 3
b10001 !
b10001 +
b10001 4
b1111 -
b1111 *
b1111 (
b10001 .
b10 )
b10001 <
b1111 ;
b1111 :
b10001 9
b1111 #
b1111 /
b1111 8
b0 $
b0 0
b0 7
b1001 %
b1001 1
b1001 6
b100 &
b100 2
b100 5
b10001 =
#18000
b1001 "
b1001 ,
b1001 3
b11110 !
b11110 +
b11110 4
b0 *
b1001 -
b1001 '
b11110 .
b1111 )
b11110 <
b1001 ;
b1001 :
b11110 9
b1101 #
b1101 /
b1101 8
b1101 $
b1101 0
b1101 7
b1011 %
b1011 1
b1011 6
b1011 &
b1011 2
b1011 5
b10010 =
#19000
b110 "
b110 ,
b110 3
b10000 !
b10000 +
b10000 4
b110 *
b111 (
b110 -
b0 '
b10000 .
b1001 )
b10000 <
b110 ;
b110 :
b10000 9
b11 #
b11 /
b11 8
b101 $
b101 0
b101 7
b110 %
b110 1
b110 6
b0 &
b0 2
b0 5
b10011 =
#20000
b100 *
b1111 (
b110 -
b10 '
b10000 .
b1 )
b110 #
b110 /
b110 8
b10 $
b10 0
b10 7
b1101 %
b1101 1
b1101 6
b11 &
b11 2
b11 5
b10100 =
#21000
b1010 "
b1010 ,
b1010 3
b10100 !
b10100 +
b10100 4
b101 *
b1010 (
b1010 -
b101 '
b10100 .
b1010 )
b10100 <
b1010 ;
b1010 :
b10100 9
b1000 #
b1000 /
b1000 8
b1101 $
b1101 0
b1101 7
b10 %
b10 1
b10 6
b111 &
b111 2
b111 5
b10101 =
#22000
b1011 "
b1011 ,
b1011 3
b10101 !
b10101 +
b10101 4
b1001 *
b1111 (
b1011 -
b10 '
b10101 .
b110 )
b10101 <
b1011 ;
b1011 :
b10101 9
b1010 #
b1010 /
b1010 8
b11 $
b11 0
b11 7
b1111 %
b1111 1
b1111 6
b110 &
b110 2
b110 5
b10110 =
#23000
b1110 "
b1110 ,
b1110 3
b10000 !
b10000 +
b10000 4
b110 *
b1110 (
b1110 -
b1000 '
b10000 .
b10 )
b10000 <
b1110 ;
b1110 :
b10000 9
b1100 $
b1100 0
b1100 7
b100 %
b100 1
b100 6
b1001 &
b1001 2
b1001 5
b10111 =
#24000
b1000 "
b1000 ,
b1000 3
b10111 !
b10111 +
b10111 4
b10111 -
b1111 *
b111 (
b1000 .
b1 )
b10111 <
b1000 ;
b10111 :
b1000 9
b11 #
b11 /
b11 8
b111 %
b111 1
b111 6
b11000 =
#25000
b11001 !
b11001 +
b11001 4
b1101 "
b1101 ,
b1101 3
b1011 *
b1011 (
b1101 -
b10 '
b11001 .
b1110 )
b11001 <
b1101 ;
b1101 :
b11001 9
b1001 #
b1001 /
b1001 8
b10 $
b10 0
b10 7
b1010 %
b1010 1
b1010 6
b1011 &
b1011 2
b1011 5
b11001 =
#26000
b1 "
b1 ,
b1 3
b101 !
b101 +
b101 4
b1 *
b1 -
b0 '
b101 (
b101 .
b0 )
b101 <
b1 ;
b1 :
b101 9
b101 #
b101 /
b101 8
b100 $
b100 0
b100 7
b100 %
b100 1
b100 6
b11010 =
#27000
b1001 "
b1001 ,
b1001 3
b10011 !
b10011 +
b10011 4
b1001 -
b1001 *
b10011 .
b1110 )
b10011 <
b1001 ;
b1001 :
b10011 9
b1100 $
b1100 0
b1100 7
b1 %
b1 1
b1 6
b0 &
b0 2
b0 5
b11011 =
#28000
b1010 "
b1010 ,
b1010 3
b11010 !
b11010 +
b11010 4
b1111 (
b1010 -
b1 '
b11010 .
b1011 )
b11010 <
b1010 ;
b1010 :
b11010 9
b1010 #
b1010 /
b1010 8
b11 $
b11 0
b11 7
b101 %
b101 1
b101 6
b1 &
b1 2
b1 5
b11100 =
#29000
b1100 "
b1100 ,
b1100 3
b11000 !
b11000 +
b11000 4
b1100 *
b1100 -
b0 '
b11000 .
b1001 )
b11000 <
b1100 ;
b1100 :
b11000 9
b1011 #
b1011 /
b1011 8
b111 $
b111 0
b111 7
b110 %
b110 1
b110 6
b0 &
b0 2
b0 5
b11101 =
#30000
b101 "
b101 ,
b101 3
b1000 !
b1000 +
b1000 4
b100 *
b111 (
b101 -
b1 '
b1000 .
b1 )
b1000 <
b101 ;
b101 :
b1000 9
b11 #
b11 /
b11 8
b111 %
b111 1
b111 6
b1001 &
b1001 2
b1001 5
b11110 =
#31000
b1010 "
b1010 ,
b1010 3
b11101 !
b11101 +
b11101 4
b1111 (
b110 *
b1010 -
b100 '
b11101 .
b1110 )
b11101 <
b1010 ;
b1010 :
b11101 9
b1010 #
b1010 /
b1010 8
b1100 $
b1100 0
b1100 7
b110 &
b110 2
b110 5
b11111 =
#32000
b1001 "
b1001 ,
b1001 3
b1100 !
b1100 +
b1100 4
b1100 -
b110 '
b1001 (
b1001 .
b0 )
b1100 <
b1001 ;
b1100 :
b1001 9
b1000 #
b1000 /
b1000 8
b1110 $
b1110 0
b1110 7
b1001 %
b1001 1
b1001 6
b100000 =
#33000
b1100 "
b1100 ,
b1100 3
b10110 !
b10110 +
b10110 4
b1110 *
b111 (
b10110 -
b1000 '
b1100 .
b101 )
b10110 <
b1100 ;
b10110 :
b1100 9
b110 #
b110 /
b110 8
b1000 $
b1000 0
b1000 7
b101 %
b101 1
b101 6
b1111 &
b1111 2
b1111 5
b100001 =
#34000
b11010 !
b11010 +
b11010 4
b110 "
b110 ,
b110 3
b11 *
b1011 (
b110 -
b11 '
b11010 .
b1111 )
b11010 <
b110 ;
b110 :
b11010 9
b0 #
b0 /
b0 8
b11 $
b11 0
b11 7
b1011 %
b1011 1
b1011 6
b1011 &
b1011 2
b1011 5
b100010 =
#35000
b111 "
b111 ,
b111 3
b10110 !
b10110 +
b10110 4
b1010 *
b111 (
b10110 -
b1100 '
b111 .
b0 )
b10110 <
b111 ;
b10110 :
b111 9
b110 #
b110 /
b110 8
b1100 $
b1100 0
b1100 7
b1 %
b1 1
b1 6
b1110 &
b1110 2
b1110 5
b100011 =
#36000
b11110 !
b11110 +
b11110 4
b10 "
b10 ,
b10 3
b10 *
b1111 (
b10 -
b0 '
b11110 .
b1111 )
b11110 <
b10 ;
b10 :
b11110 9
b10 #
b10 /
b10 8
b0 $
b0 0
b0 7
b1101 %
b1101 1
b1101 6
b1101 &
b1101 2
b1101 5
b100100 =
#37000
b101 "
b101 ,
b101 3
b11011 !
b11011 +
b11011 4
b1100 *
b11 (
b11011 -
b1111 '
b101 .
b10 )
b11011 <
b101 ;
b11011 :
b101 9
b11 #
b11 /
b11 8
b1111 $
b1111 0
b1111 7
b10 %
b10 1
b10 6
b1111 &
b1111 2
b1111 5
b100101 =
#38000
b10010 !
b10010 +
b10010 4
b11 *
b1111 (
b101 -
b10 '
b10010 .
b11 )
b10010 <
b101 :
b10010 9
b1101 #
b1101 /
b1101 8
b1110 $
b1110 0
b1110 7
b1111 %
b1111 1
b1111 6
b11 &
b11 2
b11 5
b100110 =
#39000
b1011 "
b1011 ,
b1011 3
b10000 !
b10000 +
b10000 4
b1011 *
b1011 (
b1011 -
b0 '
b10000 .
b101 )
b10000 <
b1011 ;
b1011 :
b10000 9
b1011 #
b1011 /
b1011 8
b0 $
b0 0
b0 7
b1000 %
b1000 1
b1000 6
b10 &
b10 2
b10 5
b100111 =
#40000
b1000 "
b1000 ,
b1000 3
b10001 !
b10001 +
b10001 4
b1000 -
b1000 *
b1101 (
b10001 .
b100 )
b10001 <
b1000 ;
b1000 :
b10001 9
b1 #
b1 /
b1 8
b1001 $
b1001 0
b1001 7
b1101 %
b1101 1
b1101 6
b110 &
b110 2
b110 5
b101000 =
#41000
b1001 "
b1001 ,
b1001 3
b1001 -
b1001 *
b1001 (
b10001 .
b1000 )
b1001 ;
b1001 :
b1001 #
b1001 /
b1001 8
b0 $
b0 0
b0 7
b1 %
b1 1
b1 6
b101001 =
#42000
b1100 "
b1100 ,
b1100 3
b11011 !
b11011 +
b11011 4
b1100 -
b1100 *
b1101 (
b11011 .
b1110 )
b11011 <
b1100 ;
b1100 :
b11011 9
b1100 #
b1100 /
b1100 8
b1001 %
b1001 1
b1001 6
b1000 &
b1000 2
b1000 5
b101010 =
#43000
b1011 "
b1011 ,
b1011 3
b1101 !
b1101 +
b1101 4
b1000 *
b11 (
b1011 -
b11 '
b1101 .
b1010 )
b1101 <
b1011 ;
b1011 :
b1101 9
b11 #
b11 /
b11 8
b1011 $
b1011 0
b1011 7
b10 %
b10 1
b10 6
b111 &
b111 2
b111 5
b101011 =
#44000
b1110 "
b1110 ,
b1110 3
b10000 !
b10000 +
b10000 4
b1110 -
b1011 *
b1110 (
b10000 .
b10 )
b10000 <
b1110 ;
b1110 :
b10000 9
b0 #
b0 /
b0 8
b1110 %
b1110 1
b1110 6
b11 &
b11 2
b11 5
b101100 =
#45000
b1010 "
b1010 ,
b1010 3
b10010 !
b10010 +
b10010 4
b1100 *
b1010 (
b10010 -
b110 '
b1010 .
b0 )
b10010 <
b1010 ;
b10010 :
b1010 9
b1010 #
b1010 /
b1010 8
b110 $
b110 0
b110 7
b0 %
b0 1
b0 6
b1111 &
b1111 2
b1111 5
b101101 =
#46000
b11000 "
b11000 ,
b11000 3
b11010 !
b11010 +
b11010 4
b1111 *
b1110 (
b11000 -
b1001 '
b11010 .
b1100 )
b11010 <
b11000 ;
b11000 :
b11010 9
b110 #
b110 /
b110 8
b1001 $
b1001 0
b1001 7
b1110 %
b1110 1
b1110 6
b1101 &
b1101 2
b1101 5
b101110 =
#47000
b1100 "
b1100 ,
b1100 3
b11011 !
b11011 +
b11011 4
b0 *
b11011 .
b1111 (
b1100 -
b1100 '
b11011 <
b1100 ;
b1100 :
b11011 9
b1100 #
b1100 /
b1100 8
b1100 $
b1100 0
b1100 7
b1111 %
b1111 1
b1111 6
b1100 &
b1100 2
b1100 5
b101111 =
#48000
b1110 "
b1110 ,
b1110 3
b10011 !
b10011 +
b10011 4
b1010 *
b1110 -
b100 '
b10011 .
b100 )
b10011 <
b1110 ;
b1110 :
b10011 9
b110 $
b110 0
b110 7
b111 %
b111 1
b111 6
b110000 =
#49000
b10100 !
b10100 +
b10100 4
b1011 "
b1011 ,
b1011 3
b1100 *
b1011 .
b111 (
b10100 -
b1000 '
b10100 <
b1011 ;
b10100 :
b1011 9
b101 #
b101 /
b101 8
b1001 $
b1001 0
b1001 7
b11 %
b11 1
b11 6
b1000 &
b1000 2
b1000 5
b110001 =
#50000
b100 !
b100 +
b100 4
b1 "
b1 ,
b1 3
b1 *
b11 (
b1 -
b0 '
b100 .
b1 )
b100 <
b1 ;
b1 :
b100 9
b1 #
b1 /
b1 8
b0 $
b0 0
b0 7
b10 %
b10 1
b10 6
b1100 &
b1100 2
b1100 5
b110010 =
#51000
b11 "
b11 ,
b11 3
b1111 !
b1111 +
b1111 4
b11 -
b11 *
b1111 (
b1111 .
b0 )
b1111 <
b11 ;
b11 :
b1111 9
b101 #
b101 /
b101 8
b110 $
b110 0
b110 7
b1110 %
b1110 1
b1110 6
b1 &
b1 2
b1 5
b110011 =
#52000
b110 "
b110 ,
b110 3
b1110 !
b1110 +
b1110 4
b111 (
b110 -
b11 '
b1110 .
b111 )
b1110 <
b110 ;
b110 :
b1110 9
b100 #
b100 /
b100 8
b111 $
b111 0
b111 7
b11 %
b11 1
b11 6
b1011 &
b1011 2
b1011 5
b110100 =
#53000
b10101 !
b10101 +
b10101 4
b1011 *
b10101 -
b1010 '
b101 (
b110 .
b1 )
b10101 <
b10101 :
b110 9
b101 #
b101 /
b101 8
b1110 $
b1110 0
b1110 7
b101 %
b101 1
b101 6
b110101 =
#54000
b1111 !
b1111 +
b1111 4
b1100 "
b1100 ,
b1100 3
b1100 *
b1111 (
b1100 -
b0 '
b1111 .
b0 )
b1111 <
b1100 ;
b1100 :
b1111 9
b1001 #
b1001 /
b1001 8
b101 $
b101 0
b101 7
b111 %
b111 1
b111 6
b1000 &
b1000 2
b1000 5
b110110 =
#55000
b111 "
b111 ,
b111 3
b10101 !
b10101 +
b10101 4
b101 (
b10101 -
b1001 '
b111 .
b10 )
b10101 <
b111 ;
b10101 :
b111 9
b1 #
b1 /
b1 8
b1101 $
b1101 0
b1101 7
b100 %
b100 1
b100 6
b1001 &
b1001 2
b1001 5
b110111 =
#56000
b10011 !
b10011 +
b10011 4
b1010 "
b1010 ,
b1010 3
b110 *
b1111 (
b1010 -
b100 '
b10011 .
b100 )
b10011 <
b1010 ;
b1010 :
b10011 9
b1001 #
b1001 /
b1001 8
b1111 $
b1111 0
b1111 7
b1111 %
b1111 1
b1111 6
b100 &
b100 2
b100 5
b111000 =
#57000
b1100 "
b1100 ,
b1100 3
b0 *
b1110 (
b1100 -
b1100 '
b10011 .
b101 )
b1100 ;
b1100 :
b1110 #
b1110 /
b1110 8
b1110 $
b1110 0
b1110 7
b110 %
b110 1
b110 6
b1100 &
b1100 2
b1100 5
b111001 =
#58000
b10101 "
b10101 ,
b10101 3
b11101 !
b11101 +
b11101 4
b1000 *
b1111 (
b10101 -
b1101 '
b11101 .
b1110 )
b11101 <
b10101 ;
b10101 :
b11101 9
b101 #
b101 /
b101 8
b1101 $
b1101 0
b1101 7
b1110 %
b1110 1
b1110 6
b1111 &
b1111 2
b1111 5
b111010 =
#59000
b1000 "
b1000 ,
b1000 3
b10011 !
b10011 +
b10011 4
b1100 (
b1000 -
b0 '
b10011 .
b111 )
b10011 <
b1000 ;
b1000 :
b10011 9
b1000 #
b1000 /
b1000 8
b0 $
b0 0
b0 7
b100 %
b100 1
b100 6
b1100 &
b1100 2
b1100 5
b111011 =
#60000
b1010 "
b1010 ,
b1010 3
b1011 *
b111 (
b10011 -
b1000 '
b1010 .
b11 )
b1010 ;
b10011 :
b1010 9
b111 #
b111 /
b111 8
b1100 $
b1100 0
b1100 7
b110 %
b110 1
b110 6
b1010 &
b1010 2
b1010 5
b111100 =
#61000
b1101 "
b1101 ,
b1101 3
b11101 !
b11101 +
b11101 4
b1000 *
b1111 (
b1101 -
b101 '
b11101 .
b1110 )
b11101 <
b1101 ;
b1101 :
b11101 9
b1101 #
b1101 /
b1101 8
b101 $
b101 0
b101 7
b1110 %
b1110 1
b1110 6
b1111 &
b1111 2
b1111 5
b111101 =
#62000
b1000 "
b1000 ,
b1000 3
b10110 !
b10110 +
b10110 4
b1000 -
b0 '
b10110 .
b111 )
b10110 <
b1000 ;
b1000 :
b10110 9
b1111 #
b1111 /
b1111 8
b111 $
b111 0
b111 7
b0 %
b0 1
b0 6
b1000 &
b1000 2
b1000 5
b111110 =
#63000
b10101 !
b10101 +
b10101 4
b10101 .
b110 )
b10101 <
b10101 9
b1100 #
b1100 /
b1100 8
b100 $
b100 0
b100 7
b11 %
b11 1
b11 6
b1010 &
b1010 2
b1010 5
b111111 =
#64000
b1101 "
b1101 ,
b1101 3
b10100 !
b10100 +
b10100 4
b0 *
b1101 (
b1101 -
b1101 '
b10100 .
b111 )
b10100 <
b1101 ;
b1101 :
b10100 9
b1101 #
b1101 /
b1101 8
b1101 $
b1101 0
b1101 7
b101 %
b101 1
b101 6
b1101 &
b1101 2
b1101 5
b1000000 =
#65000
b10110 !
b10110 +
b10110 4
b1110 "
b1110 ,
b1110 3
b1101 *
b1110 .
b111 (
b10110 -
b1001 '
b10110 <
b1110 ;
b10110 :
b1110 9
b110 #
b110 /
b110 8
b1011 $
b1011 0
b1011 7
b1 %
b1 1
b1 6
b1001 &
b1001 2
b1001 5
b1000001 =
#66000
b1111 !
b1111 +
b1111 4
b1001 "
b1001 ,
b1001 3
b1001 *
b1001 (
b1001 -
b0 '
b1111 .
b110 )
b1111 <
b1001 ;
b1001 :
b1111 9
b1001 #
b1001 /
b1001 8
b0 $
b0 0
b0 7
b1000 %
b1000 1
b1000 6
b1 &
b1 2
b1 5
b1000010 =
#67000
b101 "
b101 ,
b101 3
b1001 !
b1001 +
b1001 4
b11 *
b101 (
b101 -
b10 '
b1001 .
b100 )
b1001 <
b101 ;
b101 :
b1001 9
b1 #
b1 /
b1 8
b10 $
b10 0
b10 7
b100 %
b100 1
b100 6
b1111 &
b1111 2
b1111 5
b1000011 =
#68000
b11 "
b11 ,
b11 3
b10110 !
b10110 +
b10110 4
b11 -
b1 *
b1011 (
b10110 .
b1011 )
b10110 <
b11 ;
b11 :
b10110 9
b11 #
b11 /
b11 8
b1011 %
b1011 1
b1011 6
b1000100 =
#69000
b1111 "
b1111 ,
b1111 3
b1111 !
b1111 +
b1111 4
b1011 *
b111 (
b1111 -
b100 '
b1111 .
b1000 )
b1111 <
b1111 ;
b1111 :
b1111 9
b111 #
b111 /
b111 8
b1100 $
b1100 0
b1100 7
b0 %
b0 1
b0 6
b111 &
b111 2
b111 5
b1000101 =
#70000
b111 !
b111 +
b111 4
b111 "
b111 ,
b111 3
b110 *
b111 -
b1 '
b111 .
b0 )
b111 <
b111 ;
b111 :
b111 9
b1 $
b1 0
b1 7
b110 %
b110 1
b110 6
b1001 &
b1001 2
b1001 5
b1000110 =
#71000
b10010 !
b10010 +
b10010 4
b11 *
b1111 (
b111 -
b100 '
b10010 .
b11 )
b10010 <
b10010 9
b1111 #
b1111 /
b1111 8
b1100 $
b1100 0
b1100 7
b1001 %
b1001 1
b1001 6
b101 &
b101 2
b101 5
b1000111 =
#72000
b10 "
b10 ,
b10 3
b11000 !
b11000 +
b11000 4
b1 *
b1101 (
b10 -
b1 '
b11000 .
b1011 )
b11000 <
b10 ;
b10 :
b11000 9
b0 #
b0 /
b0 8
b1 $
b1 0
b1 7
b1101 %
b1101 1
b1101 6
b1001 &
b1001 2
b1001 5
b1001000 =
#73000
b110 "
b110 ,
b110 3
b10010 !
b10010 +
b10010 4
b1001 *
b101 (
b10010 -
b1001 '
b110 .
b1 )
b10010 <
b110 ;
b10010 :
b110 9
b1001 $
b1001 0
b1001 7
b101 %
b101 1
b101 6
b1011 &
b1011 2
b1011 5
b1001001 =
#74000
b1100 "
b1100 ,
b1100 3
b10101 !
b10101 +
b10101 4
b111 (
b1100 *
b1100 -
b0 '
b10101 .
b1110 )
b10101 <
b1100 ;
b1100 :
b10101 9
b111 #
b111 /
b111 8
b1011 $
b1011 0
b1011 7
b100 &
b100 2
b100 5
b1001010 =
#75000
b111 "
b111 ,
b111 3
b10111 !
b10111 +
b10111 4
b1111 *
b1 (
b10111 -
b1000 '
b111 .
b110 )
b10111 <
b111 ;
b10111 :
b111 9
b1 #
b1 /
b1 8
b1110 $
b1110 0
b1110 7
b0 %
b0 1
b0 6
b1001 &
b1001 2
b1001 5
b1001011 =
#76000
b101 "
b101 ,
b101 3
b1101 !
b1101 +
b1101 4
b1 *
b1101 .
b111 (
b101 -
b100 '
b1101 <
b101 ;
b101 :
b1101 9
b110 #
b110 /
b110 8
b111 $
b111 0
b111 7
b101 %
b101 1
b101 6
b1100 &
b1100 2
b1100 5
b1001100 =
#77000
b110 "
b110 ,
b110 3
b10001 !
b10001 +
b10001 4
b100 *
b1111 (
b110 -
b10 '
b10001 .
b10 )
b10001 <
b110 ;
b110 :
b10001 9
b1011 #
b1011 /
b1011 8
b1111 $
b1111 0
b1111 7
b1111 %
b1111 1
b1111 6
b10 &
b10 2
b10 5
b1001101 =
#78000
b10 "
b10 ,
b10 3
b1110 !
b1110 +
b1110 4
b10 *
b1011 (
b10 -
b0 '
b1110 .
b11 )
b1110 <
b10 ;
b10 :
b1110 9
b10 #
b10 /
b10 8
b0 $
b0 0
b0 7
b1001 %
b1001 1
b1001 6
b101 &
b101 2
b101 5
b1001110 =
#79000
b1011 "
b1011 ,
b1011 3
b10011 !
b10011 +
b10011 4
b1011 -
b1011 *
b1100 (
b10011 .
b111 )
b10011 <
b1011 ;
b1011 :
b10011 9
b1000 #
b1000 /
b1000 8
b11 $
b11 0
b11 7
b100 %
b100 1
b100 6
b1100 &
b1100 2
b1100 5
b1001111 =
#80000
b1100 "
b1100 ,
b1100 3
b10010 !
b10010 +
b10010 4
b1100 -
b1100 *
b11 (
b10010 .
b1111 )
b10010 <
b1100 ;
b1100 :
b10010 9
b0 #
b0 /
b0 8
b1100 $
b1100 0
b1100 7
b11 %
b11 1
b11 6
b11 &
b11 2
b11 5
b1010000 =
#81000
b1 "
b1 ,
b1 3
b11001 !
b11001 +
b11001 4
b1 -
b1 *
b11001 .
b1010 (
b11001 <
b1 ;
b1 :
b11001 9
b1 $
b1 0
b1 7
b1010 %
b1010 1
b1010 6
b1010 &
b1010 2
b1010 5
b1010001 =
#82000
b1010 "
b1010 ,
b1010 3
b10101 !
b10101 +
b10101 4
b110 *
b1110 (
b1010 -
b100 '
b10101 .
b111 )
b10101 <
b1010 ;
b1010 :
b10101 9
b1010 #
b1010 /
b1010 8
b1100 $
b1100 0
b1100 7
b1110 %
b1110 1
b1110 6
b110 &
b110 2
b110 5
b1010010 =
#83000
b11 "
b11 ,
b11 3
b1011 !
b1011 +
b1011 4
b10 *
b1011 (
b11 -
b1 '
b1011 .
b0 )
b1011 <
b11 ;
b11 :
b1011 9
b1011 #
b1011 /
b1011 8
b1001 $
b1001 0
b1001 7
b1010 %
b1010 1
b1010 6
b101 &
b101 2
b101 5
b1010011 =
#84000
b1000 "
b1000 ,
b1000 3
b10100 !
b10100 +
b10100 4
b1011 *
b111 (
b10100 -
b1001 '
b1000 .
b1 )
b10100 <
b1000 ;
b10100 :
b1000 9
b10 #
b10 /
b10 8
b111 %
b111 1
b111 6
b1001 &
b1001 2
b1001 5
b1010100 =
#85000
b10010 !
b10010 +
b10010 4
b10000 "
b10000 ,
b10000 3
b10000 -
b111 *
b1110 (
b10010 .
b100 )
b10010 <
b10000 ;
b10000 :
b10010 9
b1110 #
b1110 /
b1110 8
b100 %
b100 1
b100 6
b1111 &
b1111 2
b1111 5
b1010101 =
#86000
b1 "
b1 ,
b1 3
b10011 !
b10011 +
b10011 4
b1 *
b1011 (
b1 -
b0 '
b10011 .
b1000 )
b10011 <
b1 ;
b1 :
b10011 9
b1001 #
b1001 /
b1001 8
b1000 $
b1000 0
b1000 7
b11 %
b11 1
b11 6
b100 &
b100 2
b100 5
b1010110 =
#87000
b1111 "
b1111 ,
b1111 3
b1111 (
b1111 -
b1111 *
b10011 .
b100 )
b1111 ;
b1111 :
b1110 #
b1110 /
b1110 8
b1 $
b1 0
b1 7
b1000 &
b1000 2
b1000 5
b1010111 =
#88000
b1000 "
b1000 ,
b1000 3
b10001 !
b10001 +
b10001 4
b1000 -
b1000 *
b10001 .
b10 )
b10001 <
b1000 ;
b1000 :
b10001 9
b1011 #
b1011 /
b1011 8
b11 $
b11 0
b11 7
b101 %
b101 1
b101 6
b1011000 =
