Lab/Lab02/02_REPORT/WAVEFORM.vcd
$date
	Fri Aug 23 14:28:17 2024
$end
$version
	Icarus Verilog
$end
$timescale
	1ps
$end
$scope module TESTBED $end
$var wire 6 ! out_num [5:0] $end
$var wire 6 " in_num4 [5:0] $end
$var wire 6 # in_num3 [5:0] $end
$var wire 6 $ in_num2 [5:0] $end
$var wire 6 % in_num1 [5:0] $end
$var wire 6 & in_num0 [5:0] $end
$scope module I_PATTERN $end
$var wire 6 ' out_num [5:0] $end
$var reg 6 ( in_num0 [5:0] $end
$var reg 6 ) in_num1 [5:0] $end
$var reg 6 * in_num2 [5:0] $end
$var reg 6 + in_num3 [5:0] $end
$var reg 6 , in_num4 [5:0] $end
$var reg 6 - out_ans [5:0] $end
$var integer 32 . i [31:0] $end
$var integer 32 / j [31:0] $end
$var integer 32 0 patcount [31:0] $end
$scope task YOU_PASS_task $end
$upscope $end
$scope task check_ans $end
$upscope $end
$scope task fail $end
$upscope $end
$scope task input_task $end
$upscope $end
$scope task pass_ans $end
$upscope $end
$scope task sort_task $end
$upscope $end
$upscope $end
$scope module I_Sort $end
$var wire 6 1 in_num0 [5:0] $end
$var wire 6 2 in_num1 [5:0] $end
$var wire 6 3 in_num2 [5:0] $end
$var wire 6 4 in_num3 [5:0] $end
$var wire 6 5 in_num4 [5:0] $end
$var wire 6 6 out_num [5:0] $end
$var wire 6 7 out4_3 [5:0] $end
$var wire 6 8 out4_2 [5:0] $end
$var wire 6 9 out3_3 [5:0] $end
$var wire 6 : out3_2 [5:0] $end
$var wire 6 ; out3_1 [5:0] $end
$var wire 6 < out3_0 [5:0] $end
$var wire 6 = out2_4 [5:0] $end
$var wire 6 > out2_3 [5:0] $end
$var wire 6 ? out2_2 [5:0] $end
$var wire 6 @ out2_1 [5:0] $end
$var wire 6 A out1_3 [5:0] $end
$var wire 6 B out1_2 [5:0] $end
$var wire 6 C out1_1 [5:0] $end
$var wire 6 D out1_0 [5:0] $end
$upscope $end
$upscope $end
$enddefinitions $end
$comment Show the parameter values. $end
$dumpall
$end
#0
$dumpvars
b10000 D
b100101 C
b1 B
b1100 A
b1 @
b100101 ?
b1100 >
b100010 =
b1 <
b10000 ;
b1100 :
b100101 9
b10000 8
b100010 7
b10000 6
b100010 5
b1100 4
b1 3
b10000 2
b100101 1
b0 0
b100 /
b100 .
b10000 -
b100010 ,
b1100 +
b1 *
b10000 )
b100101 (
b10000 '
b100101 &
b10000 %
b1 $
b1100 #
b100010 "
b10000 !
$end
#1000
b100000 !
b100000 '
b100000 6
b10 <
b100000 :
b110010 9
b100000 8
b100000 >
b1100 ;
b10 @
b110010 ?
b10 B
b100000 A
b1100 D
b110010 C
b100000 -
b100 /
b100 .
b100000 #
b100000 +
b100000 4
b10 $
b10 *
b10 3
b1100 %
b1100 )
b1100 2
b110010 &
b110010 (
b110010 1
b1 0
#2000
b101111 !
b101111 '
b101111 6
b101000 <
b101111 8
b0 :
b101111 ;
b101111 @
b110010 7
b0 >
b111110 =
b110010 B
b111110 A
b101000 D
b101111 C
b101111 -
b100 /
b100 .
b0 "
b0 ,
b0 5
b110010 #
b110010 +
b110010 4
b111110 $
b111110 *
b111110 3
b101000 %
b101000 )
b101000 2
b101111 &
b101111 (
b101111 1
b10 0
#3000
b11001 !
b11001 '
b11001 6
b11001 8
b11001 7
b11001 ;
b11001 9
b1111 :
b111101 =
b10101 <
b10101 @
b11001 ?
b1111 >
b10101 B
b111101 A
b11001 D
b11001 C
b11001 -
b100 /
b100 .
b1111 "
b1111 ,
b1111 5
b111101 #
b111101 +
b111101 4
b10101 $
b10101 *
b10101 3
b11001 %
b11001 )
b11001 2
b11001 &
b11001 (
b11001 1
b11 0
#4000
b11101 !
b11101 '
b11101 6
b11101 8
b110010 7
b11101 :
b110010 9
b111111 =
b10 <
b11010 ;
b11010 @
b110010 ?
b11101 >
b11010 B
b111111 A
b10 D
b110010 C
b11101 -
b100 /
b100 .
b11101 "
b11101 ,
b11101 5
b11010 #
b11010 +
b11010 4
b111111 $
b111111 *
b111111 3
b110010 %
b110010 )
b110010 2
b10 &
b10 (
b10 1
b100 0
#5000
b11000 !
b11000 '
b11000 6
b11001 ;
b101100 9
b11001 8
b11000 7
b1100 :
b11000 =
b101 <
b101 @
b101100 ?
b1100 >
b101 B
b11000 A
b11001 D
b101100 C
b11000 -
b100 /
b100 .
b1100 "
b1100 ,
b1100 5
b101 #
b101 +
b101 4
b11000 $
b11000 *
b11000 3
b101100 %
b101100 )
b101100 2
b11001 &
b11001 (
b11001 1
b101 0
#6000
b1100 <
b100100 9
b100001 8
b100001 :
b100001 !
b100001 '
b100001 6
b10000 ;
b10000 @
b100001 ?
b100100 7
b100100 >
b110110 =
b10000 B
b100100 A
b1100 D
b100001 C
b100001 -
b100 /
b100 .
b110110 "
b110110 ,
b110110 5
b100100 #
b100100 +
b100100 4
b10000 $
b10000 *
b10000 3
b100001 %
b100001 )
b100001 2
b1100 &
b1100 (
b1100 1
b110 0
#7000
b1010 !
b1010 '
b1010 6
b10011 8
b1010 7
b10 :
b10100 9
b1 <
b10011 ;
b1 @
b10100 ?
b10 >
b1010 =
b1 B
b10 A
b10011 D
b10100 C
b1010 -
b100 /
b100 .
b1010 "
b1010 ,
b1010 5
b1 #
b1 +
b1 4
b10 $
b10 *
b10 3
b10011 %
b10011 )
b10011 2
b10100 &
b10100 (
b10100 1
b111 0
#8000
b0 <
b10110 :
b101110 9
b11011 8
b11011 !
b11011 '
b11011 6
b10110 >
b11011 ;
b0 @
b101110 ?
b100100 7
b100100 =
b0 B
b10110 A
b11011 D
b101110 C
b11011 -
b100 /
b100 .
b100100 "
b100100 ,
b100100 5
b10110 #
b10110 +
b10110 4
b0 $
b0 *
b0 3
b11011 %
b11011 )
b11011 2
b101110 &
b101110 (
b101110 1
b1000 0
#9000
b11001 <
b100100 9
b11010 8
b111 :
b11010 !
b11010 '
b11010 6
b11010 ;
b11001 @
b100100 ?
b100001 7
b111 >
b100001 =
b11001 B
b100001 A
b11010 D
b100100 C
b11010 -
b100 /
b100 .
b111 "
b111 ,
b111 5
b11001 #
b11001 +
b11001 4
b100001 $
b100001 *
b100001 3
b100100 %
b100100 )
b100100 2
b11010 &
b11010 (
b11010 1
b1001 0
#10000
b101111 !
b101111 '
b101111 6
b11011 <
b111111 9
b110010 8
b101000 :
b110010 ;
b11011 @
b111111 ?
b101111 7
b101000 >
b101111 =
b11011 B
b101000 A
b110010 D
b111111 C
b101111 -
b100 /
b100 .
b101111 "
b101111 ,
b101111 5
b11011 #
b11011 +
b11011 4
b101000 $
b101000 *
b101000 3
b110010 %
b110010 )
b110010 2
b111111 &
b111111 (
b111111 1
b1010 0
#11000
b110110 :
b111110 9
b110111 8
b110111 !
b110111 '
b110111 6
b110110 >
b10001 <
b110111 ;
b110111 @
b111110 ?
b111001 7
b111001 =
b110111 B
b111001 A
b10001 D
b111110 C
b110111 -
b100 /
b100 .
b110110 "
b110110 ,
b110110 5
b111001 #
b111001 +
b111001 4
b110111 $
b110111 *
b110111 3
b111110 %
b111110 )
b111110 2
b10001 &
b10001 (
b10001 1
b1011 0
#12000
b10111 8
b10111 !
b10111 '
b10111 6
b10111 ;
b100101 9
b100101 7
b1110 :
b110001 =
b1 <
b1 @
b100101 ?
b1110 >
b1 B
b1110 A
b10111 D
b100101 C
b10111 -
b100 /
b100 .
b110001 "
b110001 ,
b110001 5
b1110 #
b1110 +
b1110 4
b1 $
b1 *
b1 3
b100101 %
b100101 )
b100101 2
b10111 &
b10111 (
b10111 1
b1100 0
#13000
b100011 !
b100011 '
b100011 6
b111 <
b100011 :
b101010 9
b100011 8
b100011 >
b10000 ;
b10000 @
b101010 ?
b100111 7
b100111 =
b10000 B
b100111 A
b111 D
b101010 C
b100011 -
b100 /
b100 .
b100011 "
b100011 ,
b100011 5
b10000 #
b10000 +
b10000 4
b100111 $
b100111 *
b100111 3
b111 %
b111 )
b111 2
b101010 &
b101010 (
b101010 1
b1101 0
#14000
b110100 !
b110100 '
b110100 6
b111111 9
b111100 8
b101100 :
b101010 <
b111100 ;
b101010 @
b111111 ?
b110100 7
b101100 >
b110100 =
b101010 B
b101100 A
b111100 D
b111111 C
b110100 -
b100 /
b100 .
b110100 "
b110100 ,
b110100 5
b101010 #
b101010 +
b101010 4
b101100 $
b101100 *
b101100 3
b111100 %
b111100 )
b111100 2
b111111 &
b111111 (
b111111 1
b1110 0
#15000
b110010 9
b10100 8
b1011 :
b10100 !
b10100 '
b10100 6
b0 <
b10100 ;
b10100 @
b110010 ?
b10111 7
b1011 >
b10111 =
b10100 B
b10111 A
b0 D
b110010 C
b10100 -
b100 /
b100 .
b1011 "
b1011 ,
b1011 5
b10100 #
b10100 +
b10100 4
b10111 $
b10111 *
b10111 3
b0 %
b0 )
b0 2
b110010 &
b110010 (
b110010 1
b1111 0
#16000
b11010 !
b11010 '
b11010 6
b1011 ;
b110001 9
b11010 8
b11010 :
b1001 <
b1001 @
b110001 ?
b11011 7
b11010 >
b11011 =
b1001 B
b11010 A
b1011 D
b110001 C
b11010 -
b100 /
b100 .
b11011 "
b11011 ,
b11011 5
b11010 #
b11010 +
b11010 4
b1001 $
b1001 *
b1001 3
b110001 %
b110001 )
b110001 2
b1011 &
b1011 (
b1011 1
b10000 0
#17000
b100010 !
b100010 '
b100010 6
b100010 8
b1010 <
b100010 :
b110011 9
b100010 >
b11000 ;
b11000 @
b110011 ?
b110011 7
b111001 =
b11000 B
b100010 A
b1010 D
b110011 C
b100010 -
b100 /
b100 .
b111001 "
b111001 ,
b111001 5
b11000 #
b11000 +
b11000 4
b100010 $
b100010 *
b100010 3
b110011 %
b110011 )
b110011 2
b1010 &
b1010 (
b1010 1
b10001 0
#18000
b10000 ;
b101000 9
b1111 <
b10000 @
b101000 ?
b101000 7
b101110 =
b10000 B
b1111 D
b101000 C
b100 /
b100 .
b101110 "
b101110 ,
b101110 5
b10000 #
b10000 +
b10000 4
b101000 %
b101000 )
b101000 2
b1111 &
b1111 (
b1111 1
b10010 0
#19000
b100100 !
b100100 '
b100100 6
b100111 9
b100100 8
b1111 :
b11010 <
b100100 ;
b11010 @
b100111 ?
b100111 7
b1111 >
b110001 =
b11010 B
b110001 A
b100100 D
b100111 C
b100100 -
b100 /
b100 .
b1111 "
b1111 ,
b1111 5
b110001 #
b110001 +
b110001 4
b11010 $
b11010 *
b11010 3
b100100 %
b100100 )
b100100 2
b100111 &
b100111 (
b100111 1
b10011 0
#20000
b101001 !
b101001 '
b101001 6
b1000 <
b101011 7
b101001 8
b100101 :
b101100 9
b101011 =
b101001 ;
b1000 @
b101100 ?
b100101 >
b1000 B
b100101 A
b101001 D
b101100 C
b101001 -
b100 /
b100 .
b101011 "
b101011 ,
b101011 5
b100101 #
b100101 +
b100101 4
b1000 $
b1000 *
b1000 3
b101001 %
b101001 )
b101001 2
b101100 &
b101100 (
b101100 1
b10100 0
#21000
b0 <
b10010 9
b10001 8
b100 :
b10001 !
b10001 '
b10001 6
b10001 ;
b0 @
b10010 ?
b10010 7
b100 >
b10011 =
b0 B
b10011 A
b10001 D
b10010 C
b10001 -
b100 /
b100 .
b100 "
b100 ,
b100 5
b0 #
b0 +
b0 4
b10011 $
b10011 *
b10011 3
b10010 %
b10010 )
b10010 2
b10001 &
b10001 (
b10001 1
b10101 0
#22000
b10110 7
b10100 !
b10100 '
b10100 6
b101 <
b101111 9
b10100 8
b1100 :
b10110 =
b10100 ;
b101 @
b101111 ?
b1100 >
b101 B
b10110 A
b10100 D
b101111 C
b10100 -
b100 /
b100 .
b1100 "
b1100 ,
b1100 5
b10110 #
b10110 +
b10110 4
b101 $
b101 *
b101 3
b10100 %
b10100 )
b10100 2
b101111 &
b101111 (
b101111 1
b10110 0
#23000
b101001 !
b101001 '
b101001 6
b11001 <
b111111 9
b101001 8
b11101 :
b101001 ;
b11001 @
b111111 ?
b101011 7
b11101 >
b101011 =
b11001 B
b11101 A
b101001 D
b111111 C
b101001 -
b100 /
b100 .
b101011 "
b101011 ,
b101011 5
b11101 #
b11101 +
b11101 4
b11001 $
b11001 *
b11001 3
b111111 %
b111111 )
b111111 2
b101001 &
b101001 (
b101001 1
b10111 0
#24000
b1100 <
b100101 9
b11110 8
b10110 :
b11011 !
b11011 '
b11011 6
b11110 ;
b1100 @
b100101 ?
b11011 7
b10110 >
b11011 =
b1100 B
b11011 A
b11110 D
b100101 C
b11011 -
b100 /
b100 .
b10110 "
b10110 ,
b10110 5
b1100 #
b1100 +
b1100 4
b11011 $
b11011 *
b11011 3
b11110 %
b11110 )
b11110 2
b100101 &
b100101 (
b100101 1
b11000 0
#25000
b11010 <
b101111 9
b100101 8
b100101 :
b100101 !
b100101 '
b100101 6
b11100 ;
b11010 @
b101111 ?
b101001 7
b100101 >
b101001 =
b11010 B
b101001 A
b11100 D
b101111 C
b100101 -
b100 /
b100 .
b100101 "
b100101 ,
b100101 5
b11010 #
b11010 +
b11010 4
b101001 $
b101001 *
b101001 3
b101111 %
b101111 )
b101111 2
b11100 &
b11100 (
b11100 1
b11001 0
#26000
b100010 !
b100010 '
b100010 6
b10011 <
b110110 9
b100010 8
b110110 7
b100000 :
b111100 =
b100010 ;
b10011 @
b110110 ?
b100000 >
b10011 B
b111100 A
b100010 D
b110110 C
b100010 -
b100 /
b100 .
b100000 "
b100000 ,
b100000 5
b10011 #
b10011 +
b10011 4
b111100 $
b111100 *
b111100 3
b100010 %
b100010 )
b100010 2
b110110 &
b110110 (
b110110 1
b11010 0
#27000
b11000 !
b11000 '
b11000 6
b1101 <
b101011 9
b101010 7
b11000 8
b1 :
b101010 =
b11000 ;
b1101 @
b101011 ?
b1 >
b1101 B
b101010 A
b11000 D
b101011 C
b11000 -
b100 /
b100 .
b1 "
b1 ,
b1 5
b1101 #
b1101 +
b1101 4
b101010 $
b101010 *
b101010 3
b101011 %
b101011 )
b101011 2
b11000 &
b11000 (
b11000 1
b11011 0
#28000
b101111 !
b101111 '
b101111 6
b110111 9
b101111 8
b101111 :
b111 <
b10111 ;
b10111 @
b110111 ?
b110011 7
b101111 >
b110011 =
b10111 B
b101111 A
b111 D
b110111 C
b101111 -
b100 /
b100 .
b110011 "
b110011 ,
b110011 5
b10111 #
b10111 +
b10111 4
b101111 $
b101111 *
b101111 3
b111 %
b111 )
b111 2
b110111 &
b110111 (
b110111 1
b11100 0
#29000
b1011 !
b1011 '
b1011 6
b1011 ;
b110011 9
b1011 8
b1001 :
b0 <
b1011 @
b110011 ?
b110011 7
b1001 >
b111100 =
b1011 B
b111100 A
b0 D
b110011 C
b1011 -
b100 /
b100 .
b1001 "
b1001 ,
b1001 5
b111100 #
b111100 +
b111100 4
b1011 $
b1011 *
b1011 3
b0 %
b0 )
b0 2
b110011 &
b110011 (
b110011 1
b11101 0
#30000
b110111 !
b110111 '
b110111 6
b111010 7
b110111 8
b110111 :
b111100 9
b111010 =
b1101 <
b1111 ;
b1111 @
b111100 ?
b110111 >
b1111 B
b111010 A
b1101 D
b111100 C
b110111 -
b100 /
b100 .
b110111 "
b110111 ,
b110111 5
b111010 #
b111010 +
b111010 4
b1111 $
b1111 *
b1111 3
b1101 %
b1101 )
b1101 2
b111100 &
b111100 (
b111100 1
b11110 0
#31000
b101101 !
b101101 '
b101101 6
b100001 ;
b110011 9
b101101 8
b110011 7
b101101 :
b111111 =
b1000 <
b100001 @
b110011 ?
b101101 >
b100001 B
b111111 A
b1000 D
b110011 C
b101101 -
b100 /
b100 .
b101101 "
b101101 ,
b101101 5
b111111 #
b111111 +
b111111 4
b100001 $
b100001 *
b100001 3
b1000 %
b1000 )
b1000 2
b110011 &
b110011 (
b110011 1
b11111 0
#32000
b11001 !
b11001 '
b11001 6
b10110 ;
b110001 9
b11001 8
b100101 7
b11001 :
b100101 =
b101 <
b101 @
b110001 ?
b11001 >
b101 B
b100101 A
b10110 D
b110001 C
b11001 -
b100 /
b100 .
b11001 "
b11001 ,
b11001 5
b101 #
b101 +
b101 4
b100101 $
b100101 *
b100101 3
b110001 %
b110001 )
b110001 2
b10110 &
b10110 (
b10110 1
b100000 0
#33000
b100100 7
b100000 !
b100000 '
b100000 6
b100100 9
b100000 8
b100000 :
b1 <
b101 ;
b100000 ?
b100100 >
b100000 B
b100100 A
b1 D
b101 C
b100000 -
b100 /
b100 .
b100101 "
b100101 ,
b100101 5
b100000 #
b100000 +
b100000 4
b100100 $
b100100 *
b100100 3
b1 %
b1 )
b1 2
b101 &
b101 (
b101 1
b100001 0
#34000
b11011 !
b11011 '
b11011 6
b11011 8
b101101 7
b111 ;
b11011 :
b110001 9
b11011 >
b11 <
b111 @
b110001 ?
b101101 =
b111 B
b11011 A
b11 D
b110001 C
b11011 -
b100 /
b100 .
b101101 "
b101101 ,
b101101 5
b111 #
b111 +
b111 4
b11011 $
b11011 *
b11011 3
b110001 %
b110001 )
b110001 2
b11 &
b11 (
b11 1
b100010 0
#35000
b1110 !
b1110 '
b1110 6
b101100 9
b1110 8
b0 :
b1110 <
b1110 ;
b1110 @
b101100 ?
b101100 7
b0 >
b111000 =
b101100 B
b111000 A
b1110 D
b1110 C
b1110 -
b100 /
b100 .
b0 "
b0 ,
b0 5
b101100 #
b101100 +
b101100 4
b111000 $
b111000 *
b111000 3
b1110 %
b1110 )
b1110 2
b1110 &
b1110 (
b1110 1
b100011 0
#36000
b100111 !
b100111 '
b100111 6
b10111 ;
b100111 8
b110011 7
b100111 :
b111011 9
b110011 =
b11 <
b10111 @
b111011 ?
b100111 >
b10111 B
b100111 A
b11 D
b111011 C
b100111 -
b100 /
b100 .
b110011 "
b110011 ,
b110011 5
b100111 #
b100111 +
b100111 4
b10111 $
b10111 *
b10111 3
b11 %
b11 )
b11 2
b111011 &
b111011 (
b111011 1
b100100 0
#37000
b110000 !
b110000 '
b110000 6
b110000 8
b110000 :
b111000 9
b110000 >
b10111 <
b100101 ;
b111000 ?
b111000 7
b111100 =
b110000 A
b100101 D
b111000 C
b110000 -
b100 /
b100 .
b111100 "
b111100 ,
b111100 5
b110000 #
b110000 +
b110000 4
b100101 %
b100101 )
b100101 2
b111000 &
b111000 (
b111000 1
b100101 0
#38000
b101111 !
b101111 '
b101111 6
b11011 <
b110001 9
b101111 8
b11010 :
b101111 ;
b11011 @
b110001 ?
b110000 7
b11010 >
b110000 =
b11011 B
b101111 D
b110001 C
b101111 -
b100 /
b100 .
b11010 "
b11010 ,
b11010 5
b11011 #
b11011 +
b11011 4
b110000 $
b110000 *
b110000 3
b101111 %
b101111 )
b101111 2
b110001 &
b110001 (
b110001 1
b100110 0
#39000
b11111 !
b11111 '
b11111 6
b1100 <
b101111 9
b100011 7
b11111 8
b10100 :
b100011 =
b11111 ;
b1100 @
b101111 ?
b10100 >
b1100 B
b100011 A
b11111 D
b101111 C
b11111 -
b100 /
b100 .
b10100 "
b10100 ,
b10100 5
b100011 #
b100011 +
b100011 4
b1100 $
b1100 *
b1100 3
b11111 %
b11111 )
b11111 2
b101111 &
b101111 (
b101111 1
b100111 0
#40000
b1010 !
b1010 '
b1010 6
b110001 9
b110001 7
b1010 8
b101 :
b111111 =
b110 <
b1010 ;
b110 @
b110001 ?
b101 >
b110 B
b111111 A
b1010 D
b110001 C
b1010 -
b100 /
b100 .
b101 "
b101 ,
b101 5
b110 #
b110 +
b110 4
b111111 $
b111111 *
b111111 3
b1010 %
b1010 )
b1010 2
b110001 &
b110001 (
b110001 1
b101000 0
#41000
b11001 !
b11001 '
b11001 6
b10011 <
b111001 9
b101010 7
b11001 8
b1110 :
b101010 =
b11001 ;
b10011 @
b111001 ?
b1110 >
b10011 B
b101010 A
b11001 D
b111001 C
b11001 -
b100 /
b100 .
b1110 "
b1110 ,
b1110 5
b101010 #
b101010 +
b101010 4
b10011 $
b10011 *
b10011 3
b11001 %
b11001 )
b11001 2
b111001 &
b111001 (
b111001 1
b101001 0
#42000
b11101 !
b11101 '
b11101 6
b101010 9
b11101 8
b11101 :
b10001 <
b10101 ;
b10101 @
b11101 ?
b101010 7
b101010 >
b110101 =
b10101 B
b10001 D
b11101 C
b11101 -
b100 /
b100 .
b110101 "
b110101 ,
b110101 5
b10101 #
b10101 +
b10101 4
b101010 $
b101010 *
b101010 3
b10001 %
b10001 )
b10001 2
b11101 &
b11101 (
b11101 1
b101010 0
#43000
b10100 ;
b100010 7
b100010 9
b10100 <
b10100 @
b100010 ?
b11101 >
b100101 =
b10100 B
b11101 A
b10100 D
b100010 C
b100 /
b100 .
b100101 "
b100101 ,
b100101 5
b10100 #
b10100 +
b10100 4
b11101 $
b11101 *
b11101 3
b100010 %
b100010 )
b100010 2
b10100 &
b10100 (
b10100 1
b101011 0
#44000
b10001 !
b10001 '
b10001 6
b10001 ;
b100101 9
b10001 8
b1111 :
b111 <
b111 @
b100101 ?
b100101 7
b1111 >
b110100 =
b111 B
b110100 A
b10001 D
b100101 C
b10001 -
b100 /
b100 .
b1111 "
b1111 ,
b1111 5
b111 #
b111 +
b111 4
b110100 $
b110100 *
b110100 3
b10001 %
b10001 )
b10001 2
b100101 &
b100101 (
b100101 1
b101100 0
#45000
b101110 7
b101110 !
b101110 '
b101110 6
b100011 <
b111010 9
b111001 8
b11001 :
b101110 =
b111001 ;
b100011 @
b111010 ?
b11001 >
b100011 B
b101110 A
b111001 D
b111010 C
b101110 -
b100 /
b100 .
b11001 "
b11001 ,
b11001 5
b101110 #
b101110 +
b101110 4
b100011 $
b100011 *
b100011 3
b111010 %
b111010 )
b111010 2
b111001 &
b111001 (
b111001 1
b101101 0
#46000
b110111 <
b111000 9
b110111 8
b110011 :
b110111 !
b110111 '
b110111 6
b110111 ;
b110111 @
b111000 ?
b111000 7
b110011 >
b111001 =
b110111 B
b111001 A
b110111 D
b111000 C
b110111 -
b100 /
b100 .
b110011 "
b110011 ,
b110011 5
b110111 #
b110111 +
b110111 4
b111001 $
b111001 *
b111001 3
b111000 %
b111000 )
b111000 2
b110111 &
b110111 (
b110111 1
b101110 0
#47000
b10110 8
b10110 !
b10110 '
b10110 6
b10110 ;
b110000 9
b11110 7
b10001 :
b11110 =
b0 <
b0 @
b110000 ?
b10001 >
b0 B
b10001 A
b10110 D
b110000 C
b10110 -
b100 /
b100 .
b11110 "
b11110 ,
b11110 5
b0 #
b0 +
b0 4
b10001 $
b10001 *
b10001 3
b110000 %
b110000 )
b110000 2
b10110 &
b10110 (
b10110 1
b101111 0
#48000
b100110 !
b100110 '
b100110 6
b11000 <
b100110 :
b110001 9
b100110 8
b110001 >
b11101 ;
b11101 @
b100110 ?
b110001 7
b111010 =
b11101 B
b110001 A
b11000 D
b100110 C
b100110 -
b100 /
b100 .
b111010 "
b111010 ,
b111010 5
b11101 #
b11101 +
b11101 4
b110001 $
b110001 *
b110001 3
b11000 %
b11000 )
b11000 2
b100110 &
b100110 (
b100110 1
b110000 0
#49000
b11111 !
b11111 '
b11111 6
b11111 ;
b11111 8
b110010 7
b1 :
b110101 9
b10100 <
b11111 @
b110101 ?
b1 >
b110010 =
b11111 B
b110010 A
b10100 D
b110101 C
b11111 -
b100 /
b100 .
b1 "
b1 ,
b1 5
b11111 #
b11111 +
b11111 4
b110010 $
b110010 *
b110010 3
b10100 %
b10100 )
b10100 2
b110101 &
b110101 (
b110101 1
b110001 0
#50000
b11110 !
b11110 '
b11110 6
b11110 8
b11110 ;
b111010 9
b100111 7
b10010 :
b100111 =
b1110 <
b1110 @
b111010 ?
b10010 >
b1110 B
b100111 A
b11110 D
b111010 C
b11110 -
b100 /
b100 .
b10010 "
b10010 ,
b10010 5
b1110 #
b1110 +
b1110 4
b100111 $
b100111 *
b100111 3
b111010 %
b111010 )
b111010 2
b11110 &
b11110 (
b11110 1
b110010 0
#51000
b110001 !
b110001 '
b110001 6
b10110 <
b110011 9
b110001 8
b110001 :
b101110 ;
b10110 @
b110001 ?
b110011 7
b110011 >
b110100 =
b10110 B
b110100 A
b101110 D
b110001 C
b110001 -
b100 /
b100 .
b110011 "
b110011 ,
b110011 5
b110100 #
b110100 +
b110100 4
b10110 $
b10110 *
b10110 3
b110001 %
b110001 )
b110001 2
b101110 &
b101110 (
b101110 1
b110011 0
#52000
b11000 !
b11000 '
b11000 6
b11000 8
b100101 7
b11 :
b100101 9
b101010 =
b101 <
b11000 ;
b11000 @
b100101 ?
b11 >
b11000 B
b101010 A
b101 D
b100101 C
b11000 -
b100 /
b100 .
b11 "
b11 ,
b11 5
b11000 #
b11000 +
b11000 4
b101010 $
b101010 *
b101010 3
b101 %
b101 )
b101 2
b100101 &
b100101 (
b100101 1
b110100 0
#53000
b111011 7
b100011 !
b100011 '
b100011 6
b111110 9
b100011 8
b10001 :
b111011 =
b100010 <
b100011 ;
b100011 @
b111110 ?
b10001 >
b100011 B
b111011 A
b100010 D
b111110 C
b100011 -
b100 /
b100 .
b10001 "
b10001 ,
b10001 5
b111011 #
b111011 +
b111011 4
b100011 $
b100011 *
b100011 3
b111110 %
b111110 )
b111110 2
b100010 &
b100010 (
b100010 1
b110101 0
#54000
b1010 !
b1010 '
b1010 6
b1010 8
b101011 7
b1000 ;
b101011 9
b1010 :
b111 <
b1000 @
b101011 ?
b1010 >
b101011 B
b111 D
b1000 C
b1010 -
b100 /
b100 .
b1010 "
b1010 ,
b1010 5
b101011 #
b101011 +
b101011 4
b111011 $
b111011 *
b111011 3
b111 %
b111 )
b111 2
b1000 &
b1000 (
b1000 1
b110110 0
#55000
b11100 7
b11011 !
b11011 '
b11011 6
b11100 9
b11011 8
b11011 :
b101111 =
b0 <
b1011 ;
b0 @
b11100 ?
b11011 >
b0 B
b101111 A
b1011 D
b11100 C
b11011 -
b100 /
b100 .
b11011 "
b11011 ,
b11011 5
b101111 #
b101111 +
b101111 4
b0 $
b0 *
b0 3
b11100 %
b11100 )
b11100 2
b1011 &
b1011 (
b1011 1
b110111 0
#56000
b11101 7
b10111 !
b10111 '
b10111 6
b111 <
b100010 9
b10111 8
b10100 :
b11101 =
b10111 ;
b111 @
b100010 ?
b10100 >
b111 B
b11101 A
b10111 D
b100010 C
b10111 -
b100 /
b100 .
b10100 "
b10100 ,
b10100 5
b11101 #
b11101 +
b11101 4
b111 $
b111 *
b111 3
b10111 %
b10111 )
b10111 2
b100010 &
b100010 (
b100010 1
b111000 0
#57000
b110000 !
b110000 '
b110000 6
b100101 <
b110101 9
b110000 8
b110000 :
b100101 ;
b100101 @
b110000 ?
b110101 7
b110101 >
b111001 =
b100101 B
b111001 A
b100101 D
b110000 C
b110000 -
b100 /
b100 .
b110101 "
b110101 ,
b110101 5
b100101 #
b100101 +
b100101 4
b111001 $
b111001 *
b111001 3
b110000 %
b110000 )
b110000 2
b100101 &
b100101 (
b100101 1
b111001 0
#58000
b10011 !
b10011 '
b10011 6
b11 ;
b10011 8
b100011 7
b10011 :
b100011 9
b101011 =
b0 <
b11 @
b10011 ?
b100011 >
b10011 B
b101011 A
b0 D
b11 C
b10011 -
b100 /
b100 .
b100011 "
b100011 ,
b100011 5
b10011 #
b10011 +
b10011 4
b101011 $
b101011 *
b101011 3
b0 %
b0 )
b0 2
b11 &
b11 (
b11 1
b111010 0
#59000
b10110 !
b10110 '
b10110 6
b10110 8
b10011 ;
b10110 :
b11110 7
b11110 9
b10 <
b10011 @
b10110 ?
b11110 >
b10110 B
b10 D
b10011 C
b10110 -
b100 /
b100 .
b11110 "
b11110 ,
b11110 5
b101011 #
b101011 +
b101011 4
b10110 $
b10110 *
b10110 3
b10011 %
b10011 )
b10011 2
b10 &
b10 (
b10 1
b111011 0
#60000
b110001 !
b110001 '
b110001 6
b110001 :
b110110 7
b110001 8
b111111 9
b101 <
b100101 ;
b101 @
b111111 ?
b110001 >
b110110 =
b101 B
b110110 A
b100101 D
b111111 C
b110001 -
b100 /
b100 .
b110001 "
b110001 ,
b110001 5
b101 #
b101 +
b101 4
b110110 $
b110110 *
b110110 3
b111111 %
b111111 )
b111111 2
b100101 &
b100101 (
b100101 1
b111100 0
#61000
b10111 !
b10111 '
b10111 6
b1001 <
b11101 9
b10111 8
b10111 :
b10101 ;
b1001 @
b11101 ?
b11101 7
b10111 >
b111100 =
b1001 B
b10111 A
b10101 D
b11101 C
b10111 -
b100 /
b100 .
b111100 "
b111100 ,
b111100 5
b1001 #
b1001 +
b1001 4
b10111 $
b10111 *
b10111 3
b11101 %
b11101 )
b11101 2
b10101 &
b10101 (
b10101 1
b111101 0
#62000
b100101 !
b100101 '
b100101 6
b10100 <
b111010 9
b101010 8
b0 :
b101010 ;
b10100 @
b111010 ?
b100101 7
b0 >
b100101 =
b10100 B
b100101 A
b101010 D
b111010 C
b100101 -
b100 /
b100 .
b0 "
b0 ,
b0 5
b100101 #
b100101 +
b100101 4
b10100 $
b10100 *
b10100 3
b101010 %
b101010 )
b101010 2
b111010 &
b111010 (
b111010 1
b111110 0
#63000
b1111 !
b1111 '
b1111 6
b110001 9
b100000 7
b1111 8
b1111 :
b100000 =
b1000 <
b1110 ;
b1110 @
b110001 ?
b1111 >
b1110 B
b1111 A
b1000 D
b110001 C
b1111 -
b100 /
b100 .
b100000 "
b100000 ,
b100000 5
b1110 #
b1110 +
b1110 4
b1111 $
b1111 *
b1111 3
b110001 %
b110001 )
b110001 2
b1000 &
b1000 (
b1000 1
b111111 0
#64000
b100111 !
b100111 '
b100111 6
b100111 8
b100111 :
b100111 >
b1101 <
b110001 7
b111111 =
b110001 B
b111111 A
b1101 D
b1110 C
b100111 -
b100 /
b100 .
b100111 "
b100111 ,
b100111 5
b111111 #
b111111 +
b111111 4
b110001 $
b110001 *
b110001 3
b1110 %
b1110 )
b1110 2
b1101 &
b1101 (
b1101 1
b1000000 0
