Lab/Lab05/02_REPORT/WAVEFORM.vcd
$date
	Fri Aug 23 13:49:50 2024
$end
$version
	Icarus Verilog
$end
$timescale
	10ps
$end
$scope module TESTBED $end
$var wire 3 ! value_master2slave [2:0] $end
$var wire 1 " valid_master2slave2 $end
$var wire 1 # valid_master2slave1 $end
$var wire 1 $ rst_n $end
$var wire 1 % ready_slave2 $end
$var wire 1 & ready_slave1 $end
$var wire 1 ' interconnect2master_ready2 $end
$var wire 1 ( interconnect2master_ready1 $end
$var wire 1 ) in_valid_2 $end
$var wire 1 * in_valid_1 $end
$var wire 7 + data_2 [6:0] $end
$var wire 7 , data_1 [6:0] $end
$var wire 1 - clk $end
$var wire 3 . addr_master2slave [2:0] $end
$scope module I_PATTERN $end
$var wire 3 / value_out [2:0] $end
$var wire 1 " valid_slave2 $end
$var wire 1 # valid_slave1 $end
$var wire 1 % ready_slave2 $end
$var wire 1 & ready_slave1 $end
$var wire 1 ' handshake_slave2 $end
$var wire 1 ( handshake_slave1 $end
$var wire 3 0 addr_out [2:0] $end
$var reg 1 - clk $end
$var reg 7 1 data1 [6:0] $end
$var reg 7 2 data2 [6:0] $end
$var reg 7 3 data_in_1 [6:0] $end
$var reg 7 4 data_in_2 [6:0] $end
$var reg 1 * in_valid_1 $end
$var reg 1 ) in_valid_2 $end
$var reg 2 5 mas_sel [1:0] $end
$var reg 1 $ rst_n $end
$var integer 32 6 CYCLE [31:0] $end
$var integer 32 7 PATNUM [31:0] $end
$var integer 32 8 i [31:0] $end
$var integer 32 9 lat [31:0] $end
$var integer 32 : patcount [31:0] $end
$var integer 32 ; total_latency [31:0] $end
$scope module mem_slave1 $end
$var wire 1 - clk $end
$var wire 1 $ rst_n $end
$var wire 1 # valid $end
$var wire 3 < data_in_value [2:0] $end
$var wire 3 = data_in_addr [2:0] $end
$var reg 24 > count [23:0] $end
$var reg 1 & ready $end
$upscope $end
$scope module mem_slave2 $end
$var wire 1 - clk $end
$var wire 1 $ rst_n $end
$var wire 1 " valid $end
$var wire 3 ? data_in_value [2:0] $end
$var wire 3 @ data_in_addr [2:0] $end
$var reg 24 A count [23:0] $end
$var reg 1 % ready $end
$upscope $end
$scope task YOU_PASS_task $end
$upscope $end
$scope task check_ans $end
$upscope $end
$scope task fail $end
$upscope $end
$scope task input_task $end
$upscope $end
$scope task outvalid_rst $end
$upscope $end
$scope task reset_task $end
$upscope $end
$scope task wait_handshake $end
$upscope $end
$upscope $end
$scope module I_interconnect $end
$var wire 1 - clk $end
$var wire 7 B data_in_1 [6:0] $end
$var wire 7 C data_in_2 [6:0] $end
$var wire 1 * in_valid_1 $end
$var wire 1 ) in_valid_2 $end
$var wire 1 & ready_slave1 $end
$var wire 1 % ready_slave2 $end
$var wire 1 $ rst_n $end
$var parameter 2 D S_IDLE $end
$var parameter 2 E S_handshake $end
$var parameter 2 F S_master $end
$var reg 3 G addr_comb [2:0] $end
$var reg 3 H addr_out [2:0] $end
$var reg 7 I data_reg [6:0] $end
$var reg 7 J data_reg_comb [6:0] $end
$var reg 1 K flag $end
$var reg 1 L flag_comb $end
$var reg 1 ( handshake_slave1 $end
$var reg 1 M handshake_slave1_comb $end
$var reg 1 ' handshake_slave2 $end
$var reg 1 N handshake_slave2_comb $end
$var reg 2 O next [1:0] $end
$var reg 2 P state [1:0] $end
$var reg 1 Q temp1 $end
$var reg 1 R temp1_comb $end
$var reg 1 S temp2 $end
$var reg 1 T temp2_comb $end
$var reg 1 # valid_slave1 $end
$var reg 1 U valid_slave1_comb $end
$var reg 1 " valid_slave2 $end
$var reg 1 V valid_slave2_comb $end
$var reg 3 W value_comb [2:0] $end
$var reg 3 X value_out [2:0] $end
$upscope $end
$upscope $end
$enddefinitions $end
$comment Show the parameter values. $end
$dumpall
b1 F
b10 E
b0 D
$end
#0
$dumpvars
bx X
bx W
xV
xU
xT
xS
xR
xQ
bx P
bx O
xN
xM
xL
xK
bx J
bx I
bx H
bx G
bx C
bx B
bx A
bx @
bx ?
bx >
bx =
bx <
bx ;
bx :
bx 9
b1000 8
b1111101000 7
b101 6
bx 5
bx 4
bx 3
bx 2
bx 1
bx 0
bx /
bx .
0-
bx ,
bx +
0*
0)
x(
x'
x&
x%
1$
x#
x"
bx !
$end
#50
0N
0M
0V
0U
b0 W
b0 G
b0 J
0L
b0 O
b0 P
0K
b0 !
b0 /
b0 <
b0 ?
b0 X
b0 .
b0 0
b0 =
b0 @
b0 H
b0 I
0"
0#
0'
0(
b0 >
0&
b0 A
0%
0$
#250
0-
#350
1$
#650
b0 ;
0-
#750
b1 A
b1 >
1-
#1000
b1 O
b100 G
1U
b100000 ,
b100000 3
b100000 B
1*
b10 5
b0 :
0-
#1250
b1 P
b100 .
b100 0
b100 =
b100 @
b100 H
1#
b10 >
b10 A
1-
#1500
bx ,
bx 3
bx B
0*
b100000 1
0-
#1750
b11 A
b11 >
1-
#2000
b1 9
0-
#2250
b100 >
b100 A
1-
#2500
b10 9
0-
#2750
b101 A
b101 >
1-
#3000
b11 9
0-
#3250
b110 >
b110 A
1-
#3500
b100 9
0-
#3750
b111 A
b111 >
1-
#4000
b101 9
0-
#4250
b1000 >
b1000 A
1-
#4500
b110 9
0-
#4750
b1001 A
b1001 >
1-
#5000
b111 9
0-
#5250
b1010 >
b1010 A
1-
#5500
b1000 9
0-
#5750
b10 O
1M
1%
b1 A
1&
b0 >
1-
#6000
b1001 9
0-
#6250
b0 G
0U
0M
0T
0R
b0 O
b10 P
1(
0&
b10 A
1-
#6500
b1001 ;
0-
#6750
b11 A
b1 >
b0 P
0S
0Q
b0 .
b0 0
b0 =
b0 @
b0 H
0#
0(
1-
#7000
b1 O
b100 G
b11 W
1V
b1100011 ,
b1100011 3
b1100011 B
1*
b1 :
0-
#7250
b10 O
1N
b1 P
b11 !
b11 /
b11 <
b11 ?
b11 X
b100 .
b100 0
b100 =
b100 @
b100 H
1"
b10 >
b100 A
1-
#7500
1N
b10 O
bx ,
bx 3
bx B
0*
b1100011 1
0-
#7750
b0 W
b0 G
0V
0N
b0 O
0%
b11 >
b10 P
1'
1-
#8000
b0 9
0-
#8250
b0 P
b0 !
b0 /
b0 <
b0 ?
b0 X
b0 .
b0 0
b0 =
b0 @
b0 H
0"
0'
b100 >
b101 A
1-
#8500
b1 O
b100 W
1U
b100 +
b100 4
b100 C
1)
b1 5
b10 :
0-
#8750
b110 A
b101 >
b1 P
b100 !
b100 /
b100 <
b100 ?
b100 X
1#
1-
#9000
bx +
bx 4
bx C
0)
b100 2
bx 1
0-
#9250
b110 >
b111 A
1-
#9500
b1 9
0-
#9750
b1000 A
b111 >
1-
#10000
b10 9
0-
#10250
b1000 >
b1001 A
1-
#10500
b11 9
0-
#10750
b1010 A
b1001 >
1-
#11000
b100 9
0-
#11250
b1010 >
1%
b11 A
1-
#11500
b101 9
0-
#11750
b10 O
1M
b100 A
1&
b11 >
1-
#12000
b110 9
0-
#12250
b0 W
0U
0M
b0 O
b10 P
1(
0&
b101 A
1-
#12500
b1111 ;
0-
#12750
b110 A
b100 >
b0 P
b0 !
b0 /
b0 <
b0 ?
b0 X
0#
0(
1-
#13000
1L
b1 O
b1001111 J
b111 G
b11 W
1V
b1111011 +
b1111011 4
b1111011 C
1)
b1001111 ,
b1001111 3
b1001111 B
1*
b11 5
b11 :
0-
#13250
b10 O
1N
1K
b1 P
b11 !
b11 /
b11 <
b11 ?
b11 X
b111 .
b111 0
b111 =
b111 @
b111 H
b1001111 I
1"
b101 >
b111 A
1-
#13500
1N
b10 O
bx +
bx 4
bx C
bx ,
bx 3
bx B
0)
0*
b1111011 2
b1001111 1
0-
#13750
b0 W
b0 G
0V
0N
b0 O
0%
b110 >
b10 P
1'
1-
#14000
b0 9
0-
#14250
0L
b1 O
b0 J
b1 G
b111 W
1V
b0 P
b0 !
b0 /
b0 <
b0 ?
b0 X
b0 .
b0 0
b0 =
b0 @
b0 H
0"
0'
b111 >
b1000 A
1-
#14500
b1 9
0-
#14750
b1001 A
b1000 >
0K
b1 P
b111 !
b111 /
b111 <
b111 ?
b111 X
b1 .
b1 0
b1 =
b1 @
b1 H
b0 I
1"
1-
#15000
b10 9
0-
#15250
b1001 >
b1010 A
1-
#15500
b11 9
0-
#15750
b10 O
1N
1%
b100 A
b1010 >
1-
#16000
b100 9
0-
#16250
b0 W
b0 G
0V
0N
b0 O
b10 P
1'
1&
b101 >
0%
1-
#16500
b10011 ;
0-
#16750
b101 A
b110 >
b0 P
b0 !
b0 /
b0 <
b0 ?
b0 X
b0 .
b0 0
b0 =
b0 @
b0 H
0"
0'
1-
#17000
b1 O
b110 G
b1 W
1U
b110001 ,
b110001 3
b110001 B
1*
b10 5
b100 :
0-
#17250
b10 O
1M
b1 P
b1 !
b1 /
b1 <
b1 ?
b1 X
b110 .
b110 0
b110 =
b110 @
b110 H
1#
b111 >
b110 A
1-
#17500
1M
b10 O
bx ,
bx 3
bx B
0*
bx 2
b110001 1
0-
#17750
b0 W
b0 G
0U
0M
b0 O
b111 A
0&
b10 P
1(
1-
#18000
b0 9
0-
#18250
b0 P
b0 !
b0 /
b0 <
b0 ?
b0 X
b0 .
b0 0
b0 =
b0 @
b0 H
0#
0(
b1000 >
b1000 A
1-
#18500
b1 O
b111 G
b1 W
1V
b1111001 +
b1111001 4
b1111001 C
1)
b1 5
b101 :
0-
#18750
b1001 A
b1001 >
b1 P
b1 !
b1 /
b1 <
b1 ?
b1 X
b111 .
b111 0
b111 =
b111 @
b111 H
1"
1-
#19000
bx +
bx 4
bx C
0)
b1111001 2
bx 1
0-
#19250
b1010 >
b1010 A
1-
#19500
b1 9
0-
#19750
b10 O
1N
1%
b0 A
1&
b1 >
1-
#20000
b10 9
0-
#20250
b0 W
b0 G
0V
0N
b0 O
b10 P
1'
b10 >
0%
1-
#20500
b10101 ;
0-
#20750
b1 A
b11 >
b0 P
b0 !
b0 /
b0 <
b0 ?
b0 X
b0 .
b0 0
b0 =
b0 @
b0 H
0"
0'
1-
#21000
1L
b1 O
b1111100 J
b110 G
b11 W
1U
b110011 +
b110011 4
b110011 C
1)
b1111100 ,
b1111100 3
b1111100 B
1*
b11 5
b110 :
0-
#21250
b10 O
1M
1K
b1 P
b11 !
b11 /
b11 <
b11 ?
b11 X
b110 .
b110 0
b110 =
b110 @
b110 H
b1111100 I
1#
b100 >
b10 A
1-
#21500
1M
b10 O
bx +
bx 4
bx C
bx ,
bx 3
bx B
0)
0*
b110011 2
b1111100 1
0-
#21750
b0 W
b0 G
0U
0M
b0 O
b11 A
0&
b10 P
1(
1-
#22000
b0 9
0-
#22250
0L
b1 O
b0 J
b111 G
b100 W
1V
b0 P
b0 !
b0 /
b0 <
b0 ?
b0 X
b0 .
b0 0
b0 =
b0 @
b0 H
0#
0(
b101 >
b100 A
1-
#22500
b1 9
0-
#22750
b101 A
b110 >
0K
b1 P
b100 !
b100 /
b100 <
b100 ?
b100 X
b111 .
b111 0
b111 =
b111 @
b111 H
b0 I
1"
1-
#23000
b10 9
0-
#23250
b111 >
b110 A
1-
#23500
b11 9
0-
#23750
b111 A
b1000 >
1-
#24000
b100 9
0-
#24250
b1001 >
b1000 A
1-
#24500
b101 9
0-
#24750
b1001 A
b1010 >
1-
#25000
b110 9
0-
#25250
1&
b10 >
b1010 A
1-
#25500
b111 9
0-
#25750
b10 O
1N
1%
b10 A
b11 >
1-
#26000
b1000 9
0-
#26250
b0 W
b0 G
0V
0N
b0 O
b10 P
1'
b100 >
0%
1-
#26500
b11101 ;
0-
#26750
b11 A
b101 >
b0 P
b0 !
b0 /
b0 <
b0 ?
b0 X
b0 .
b0 0
b0 =
b0 @
b0 H
0"
0'
1-
#27000
1L
b1 O
b101111 J
b1 G
b11 W
1U
b1011 +
b1011 4
b1011 C
1)
b101111 ,
b101111 3
b101111 B
1*
b111 :
0-
#27250
b10 O
1M
1K
b1 P
b11 !
b11 /
b11 <
b11 ?
b11 X
b1 .
b1 0
b1 =
b1 @
b1 H
b101111 I
1#
b110 >
b100 A
1-
#27500
1M
b10 O
bx +
bx 4
bx C
bx ,
bx 3
bx B
0)
0*
b1011 2
b101111 1
0-
#27750
b0 W
b0 G
0U
0M
b0 O
b101 A
0&
b10 P
1(
1-
#28000
b0 9
0-
#28250
0L
b1 O
b0 J
b101 G
b111 W
1U
b0 P
b0 !
b0 /
b0 <
b0 ?
b0 X
b0 .
b0 0
b0 =
b0 @
b0 H
0#
0(
b111 >
b110 A
1-
#28500
b1 9
0-
#28750
b111 A
b1000 >
0K
b1 P
b111 !
b111 /
b111 <
b111 ?
b111 X
b101 .
b101 0
b101 =
b101 @
b101 H
b0 I
1#
1-
#29000
b10 9
0-
#29250
b1001 >
b1000 A
1-
#29500
b11 9
0-
#29750
b1001 A
b1010 >
1-
#30000
b100 9
0-
#30250
b10 O
1M
1&
b1 >
b1010 A
1-
#30500
b101 9
0-
#30750
b0 W
b0 G
0U
0M
b0 O
1%
b1 A
0&
b10 P
1(
1-
#31000
b100010 ;
0-
#31250
b0 P
b0 !
b0 /
b0 <
b0 ?
b0 X
b0 .
b0 0
b0 =
b0 @
b0 H
0#
0(
b10 >
b10 A
1-
#31500
b1 O
b100 G
1U
b100000 ,
b100000 3
b100000 B
1*
b10 5
b1000 :
0-
#31750
b11 A
b11 >
b1 P
b100 .
b100 0
b100 =
b100 @
b100 H
1#
1-
#32000
bx ,
bx 3
bx B
0*
bx 2
b100000 1
0-
#32250
b100 >
b100 A
1-
#32500
b1 9
0-
#32750
b101 A
b101 >
1-
#33000
b10 9
0-
#33250
b110 >
b110 A
1-
#33500
b11 9
0-
#33750
b111 A
b111 >
1-
#34000
b100 9
0-
#34250
b1000 >
b1000 A
1-
#34500
b101 9
0-
#34750
b1001 A
b1001 >
1-
#35000
b110 9
0-
#35250
b1010 >
b1010 A
1-
#35500
b111 9
0-
#35750
b10 O
1M
b101 A
1&
b11 >
1-
#36000
b1000 9
0-
#36250
b0 G
0U
0M
b0 O
b10 P
1(
0&
b110 A
1-
#36500
b101010 ;
0-
#36750
b111 A
b100 >
b0 P
b0 .
b0 0
b0 =
b0 @
b0 H
0#
0(
1-
#37000
b1 O
b100 G
b101 W
1U
b100101 +
b100101 4
b100101 C
1)
b1 5
b1001 :
0-
#37250
b1 P
b101 !
b101 /
b101 <
b101 ?
b101 X
b100 .
b100 0
b100 =
b100 @
b100 H
1#
b101 >
b1000 A
1-
#37500
bx +
bx 4
bx C
0)
b100101 2
bx 1
0-
#37750
b1001 A
b110 >
1-
#38000
b1 9
0-
#38250
b111 >
b1010 A
1-
#38500
b10 9
0-
#38750
b0 A
b1000 >
1-
#39000
b11 9
0-
#39250
b1001 >
b1 A
1-
#39500
b100 9
0-
#39750
b10 A
b1010 >
1-
#40000
b101 9
0-
#40250
b10 O
1M
1&
b0 >
b11 A
1-
#40500
b110 9
0-
#40750
b0 W
b0 G
0U
0M
b0 O
b100 A
0&
b10 P
1(
1-
#41000
b110000 ;
0-
#41250
b0 P
b0 !
b0 /
b0 <
b0 ?
b0 X
b0 .
b0 0
b0 =
b0 @
b0 H
0#
0(
b1 >
b101 A
1-
#41500
b1 O
b11 G
b10 W
1V
b1011010 +
b1011010 4
b1011010 C
1)
b1010 :
0-
#41750
b10 O
1N
b110 A
b10 >
b1 P
b10 !
b10 /
b10 <
b10 ?
b10 X
b11 .
b11 0
b11 =
b11 @
b11 H
1"
1-
#42000
1N
b10 O
bx +
bx 4
bx C
0)
b1011010 2
0-
#42250
b0 W
b0 G
0V
0N
b0 O
b10 P
1'
b11 >
0%
1-
#42500
b0 9
0-
#42750
b111 A
b100 >
b0 P
b0 !
b0 /
b0 <
b0 ?
b0 X
b0 .
b0 0
b0 =
b0 @
b0 H
0"
0'
1-
#43000
b1 O
1U
b0 ,
b0 3
b0 B
1*
b10 5
b1011 :
0-
#43250
b1 P
1#
b101 >
b1000 A
1-
#43500
bx ,
bx 3
bx B
0*
bx 2
b0 1
0-
#43750
b1001 A
b110 >
1-
#44000
b1 9
0-
#44250
b111 >
b1010 A
1-
#44500
b10 9
0-
#44750
1%
b10 A
b1000 >
1-
#45000
b11 9
0-
#45250
b1001 >
b11 A
1-
#45500
b100 9
0-
#45750
b100 A
b1010 >
1-
#46000
b101 9
0-
#46250
b10 O
1M
1&
b11 >
b101 A
1-
#46500
b110 9
0-
#46750
0U
0M
b0 O
b110 A
0&
b10 P
1(
1-
#47000
b110110 ;
0-
#47250
b0 P
0#
0(
b100 >
b111 A
1-
#47500
b1 O
b1 G
1V
b1001000 ,
b1001000 3
b1001000 B
1*
b1100 :
0-
#47750
b10 O
1N
b1000 A
b101 >
b1 P
b1 .
b1 0
b1 =
b1 @
b1 H
1"
1-
#48000
1N
b10 O
bx ,
bx 3
bx B
0*
b1001000 1
0-
#48250
b0 G
0V
0N
b0 O
b10 P
1'
b110 >
0%
1-
#48500
b0 9
0-
#48750
b1001 A
b111 >
b0 P
b0 .
b0 0
b0 =
b0 @
b0 H
0"
0'
1-
#49000
b1 O
b110 G
b10 W
1U
b110010 ,
b110010 3
b110010 B
1*
b1101 :
0-
#49250
b1 P
b10 !
b10 /
b10 <
b10 ?
b10 X
b110 .
b110 0
b110 =
b110 @
b110 H
1#
b1000 >
b1010 A
1-
#49500
bx ,
bx 3
bx B
0*
b110010 1
0-
#49750
1%
b0 A
b1001 >
1-
#50000
b1 9
0-
#50250
b1010 >
b1 A
1-
#50500
b10 9
0-
#50750
b10 O
1M
b10 A
1&
b101 >
1-
#51000
b11 9
0-
#51250
b0 W
b0 G
0U
0M
b0 O
b10 P
1(
0&
b11 A
1-
#51500
b111001 ;
0-
#51750
b100 A
b110 >
b0 P
b0 !
b0 /
b0 <
b0 ?
b0 X
b0 .
b0 0
b0 =
b0 @
b0 H
0#
0(
1-
#52000
1L
b1 O
b1010000 J
b110 G
b110 W
1U
b110110 +
b110110 4
b110110 C
1)
b1010000 ,
b1010000 3
b1010000 B
1*
b11 5
b1110 :
0-
#52250
1K
b1 P
b110 !
b110 /
b110 <
b110 ?
b110 X
b110 .
b110 0
b110 =
b110 @
b110 H
b1010000 I
1#
b111 >
b101 A
1-
#52500
bx +
bx 4
bx C
bx ,
bx 3
bx B
0)
0*
b110110 2
b1010000 1
0-
#52750
b110 A
b1000 >
1-
#53000
b1 9
0-
#53250
b1001 >
b111 A
1-
#53500
b10 9
0-
#53750
b1000 A
b1010 >
1-
#54000
b11 9
0-
#54250
b10 O
1M
1&
b100 >
b1001 A
1-
#54500
b100 9
0-
#54750
b0 W
b0 G
0U
0M
b0 O
b1010 A
0&
b10 P
1(
1-
#55000
b111101 ;
0-
#55250
0L
b1 O
b0 J
b10 G
1V
b0 P
b0 !
b0 /
b0 <
b0 ?
b0 X
b0 .
b0 0
b0 =
b0 @
b0 H
0#
0(
b101 >
b1 A
1-
#55500
b1 9
0-
#55750
b10 O
1N
b10 A
b110 >
0K
b1 P
b10 .
b10 0
b10 =
b10 @
b10 H
b0 I
1"
1-
#56000
b10 9
0-
#56250
b0 G
0V
0N
b0 O
b10 P
1'
b111 >
0%
1-
#56500
b111111 ;
0-
#56750
b11 A
b1000 >
b0 P
b0 .
b0 0
b0 =
b0 @
b0 H
0"
0'
1-
#57000
1L
b1 O
b1101101 J
b110 G
b1 W
1V
b1110001 +
b1110001 4
b1110001 C
1)
b1101101 ,
b1101101 3
b1101101 B
1*
b1111 :
0-
#57250
1K
b1 P
b1 !
b1 /
b1 <
b1 ?
b1 X
b110 .
b110 0
b110 =
b110 @
b110 H
b1101101 I
1"
b1001 >
b100 A
1-
#57500
bx +
bx 4
bx C
bx ,
bx 3
bx B
0)
0*
b1110001 2
b1101101 1
0-
#57750
b101 A
b1010 >
1-
#58000
b1 9
0-
#58250
1&
b101 >
b110 A
1-
#58500
b10 9
0-
#58750
b111 A
b110 >
1-
#59000
b11 9
0-
#59250
b111 >
b1000 A
1-
#59500
b100 9
0-
#59750
b1001 A
b1000 >
1-
#60000
b101 9
0-
#60250
b1001 >
b1010 A
1-
#60500
b110 9
0-
#60750
b10 O
1N
1%
b10 A
b1010 >
1-
#61000
b111 9
0-
#61250
b0 W
b0 G
0V
0N
b0 O
b10 P
1'
b11 >
0%
1-
#61500
b1000110 ;
0-
#61750
0L
b1 O
b0 J
b101 G
b101 W
1V
b11 A
b100 >
b0 P
b0 !
b0 /
b0 <
b0 ?
b0 X
b0 .
b0 0
b0 =
b0 @
b0 H
0"
0'
1-
#62000
b1 9
0-
#62250
0K
b1 P
b101 !
b101 /
b101 <
b101 ?
b101 X
b101 .
b101 0
b101 =
b101 @
b101 H
b0 I
1"
b101 >
b100 A
1-
#62500
b10 9
0-
#62750
b101 A
b110 >
1-
#63000
b11 9
0-
#63250
b111 >
b110 A
1-
#63500
b100 9
0-
#63750
b111 A
b1000 >
1-
#64000
b101 9
0-
#64250
b1001 >
b1000 A
1-
#64500
b110 9
0-
#64750
b1001 A
b1010 >
1-
#65000
b111 9
0-
#65250
b0 >
b1010 A
1-
#65500
b1000 9
0-
#65750
b10 O
1N
1%
b1 A
b1 >
1-
#66000
b1001 9
0-
#66250
b0 W
b0 G
0V
0N
b0 O
b10 P
1'
b10 >
0%
1-
#66500
b1001111 ;
0-
#66750
b10 A
b11 >
b0 P
b0 !
b0 /
b0 <
b0 ?
b0 X
b0 .
b0 0
b0 =
b0 @
b0 H
0"
0'
1-
#67000
1L
b1 O
b1010011 J
b1 G
b110 W
1U
b1110 +
b1110 4
b1110 C
1)
b1010011 ,
b1010011 3
b1010011 B
1*
b10000 :
0-
#67250
b10 O
1M
1K
b1 P
b110 !
b110 /
b110 <
b110 ?
b110 X
b1 .
b1 0
b1 =
b1 @
b1 H
b1010011 I
1#
b100 >
b11 A
1-
#67500
1M
b10 O
bx +
bx 4
bx C
bx ,
bx 3
bx B
0)
0*
b1110 2
b1010011 1
0-
#67750
b0 W
b0 G
0U
0M
b0 O
b100 A
0&
b10 P
1(
1-
#68000
b0 9
0-
#68250
0L
b1 O
b0 J
b10 G
b11 W
1V
b0 P
b0 !
b0 /
b0 <
b0 ?
b0 X
b0 .
b0 0
b0 =
b0 @
b0 H
0#
0(
b101 >
b101 A
1-
#68500
b1 9
0-
#68750
b110 A
b110 >
0K
b1 P
b11 !
b11 /
b11 <
b11 ?
b11 X
b10 .
b10 0
b10 =
b10 @
b10 H
b0 I
1"
1-
#69000
b10 9
0-
#69250
b111 >
b111 A
1-
#69500
b11 9
0-
#69750
b1000 A
b1000 >
1-
#70000
b100 9
0-
#70250
b1001 >
b1001 A
1-
#70500
b101 9
0-
#70750
b1010 A
b1010 >
1-
#71000
b110 9
0-
#71250
b10 O
1N
1&
b1 >
1%
b11 A
1-
#71500
b111 9
0-
#71750
b0 W
b0 G
0V
0N
b0 O
0%
b10 >
b10 P
1'
1-
#72000
b1010110 ;
0-
#72250
b0 P
b0 !
b0 /
b0 <
b0 ?
b0 X
b0 .
b0 0
b0 =
b0 @
b0 H
0"
0'
b11 >
b100 A
1-
#72500
b1 O
b111 G
b100 W
1V
b1111100 ,
b1111100 3
b1111100 B
1*
b10 5
b10001 :
0-
#72750
b101 A
b100 >
b1 P
b100 !
b100 /
b100 <
b100 ?
b100 X
b111 .
b111 0
b111 =
b111 @
b111 H
1"
1-
#73000
bx ,
bx 3
bx B
0*
bx 2
b1111100 1
0-
#73250
b101 >
b110 A
1-
#73500
b1 9
0-
#73750
b111 A
b110 >
1-
#74000
b10 9
0-
#74250
b111 >
b1000 A
1-
#74500
b11 9
0-
#74750
b1001 A
b1000 >
1-
#75000
b100 9
0-
#75250
b1001 >
b1010 A
1-
#75500
b101 9
0-
#75750
b10 O
1N
1%
b101 A
b1010 >
1-
#76000
b110 9
0-
#76250
b0 W
b0 G
0V
0N
b0 O
b10 P
1'
b100 >
0%
1-
#76500
b1011100 ;
0-
#76750
b110 A
b101 >
b0 P
b0 !
b0 /
b0 <
b0 ?
b0 X
b0 .
b0 0
b0 =
b0 @
b0 H
0"
0'
1-
#77000
b1 O
b100 G
b111 W
1V
b1100111 ,
b1100111 3
b1100111 B
1*
b10010 :
0-
#77250
b1 P
b111 !
b111 /
b111 <
b111 ?
b111 X
b100 .
b100 0
b100 =
b100 @
b100 H
1"
b110 >
b111 A
1-
#77500
bx ,
bx 3
bx B
0*
b1100111 1
0-
#77750
b1000 A
b111 >
1-
#78000
b1 9
0-
#78250
b1000 >
b1001 A
1-
#78500
b10 9
0-
#78750
b1010 A
b1001 >
1-
#79000
b11 9
0-
#79250
b10 O
1N
b1010 >
1%
b100 A
1-
#79500
b100 9
0-
#79750
b0 W
b0 G
0V
0N
b0 O
0%
b101 >
b10 P
1'
1-
#80000
b1100000 ;
0-
#80250
b0 P
b0 !
b0 /
b0 <
b0 ?
b0 X
b0 .
b0 0
b0 =
b0 @
b0 H
0"
0'
b110 >
b101 A
1-
#80500
b1 O
b100 G
b111 W
1U
b100111 ,
b100111 3
b100111 B
1*
b10011 :
0-
#80750
b10 O
1M
b110 A
b111 >
b1 P
b111 !
b111 /
b111 <
b111 ?
b111 X
b100 .
b100 0
b100 =
b100 @
b100 H
1#
1-
#81000
1M
b10 O
bx ,
bx 3
bx B
0*
b100111 1
0-
#81250
b0 W
b0 G
0U
0M
b0 O
b10 P
1(
0&
b111 A
1-
#81500
b0 9
0-
#81750
b1000 A
b1000 >
b0 P
b0 !
b0 /
b0 <
b0 ?
b0 X
b0 .
b0 0
b0 =
b0 @
b0 H
0#
0(
1-
#82000
b1 O
b10 G
b110 W
1U
b10110 +
b10110 4
b10110 C
1)
b1 5
b10100 :
0-
#82250
b1 P
b110 !
b110 /
b110 <
b110 ?
b110 X
b10 .
b10 0
b10 =
b10 @
b10 H
1#
b1001 >
b1001 A
1-
#82500
bx +
bx 4
bx C
0)
b10110 2
bx 1
0-
#82750
b1010 A
b1010 >
1-
#83000
b1 9
0-
#83250
b10 O
1M
1&
b0 >
1%
b100 A
1-
#83500
b10 9
0-
#83750
b0 W
b0 G
0U
0M
b0 O
b101 A
0&
b10 P
1(
1-
#84000
b1100010 ;
0-
#84250
b0 P
b0 !
b0 /
b0 <
b0 ?
b0 X
b0 .
b0 0
b0 =
b0 @
b0 H
0#
0(
b1 >
b110 A
1-
#84500
b1 O
b110 G
b101 W
1U
b110101 ,
b110101 3
b110101 B
1*
b10 5
b10101 :
0-
#84750
b111 A
b10 >
b1 P
b101 !
b101 /
b101 <
b101 ?
b101 X
b110 .
b110 0
b110 =
b110 @
b110 H
1#
1-
#85000
bx ,
bx 3
bx B
0*
bx 2
b110101 1
0-
#85250
b11 >
b1000 A
1-
#85500
b1 9
0-
#85750
b1001 A
b100 >
1-
#86000
b10 9
0-
#86250
b101 >
b1010 A
1-
#86500
b11 9
0-
#86750
b0 A
b110 >
1-
#87000
b100 9
0-
#87250
b111 >
b1 A
1-
#87500
b101 9
0-
#87750
b10 A
b1000 >
1-
#88000
b110 9
0-
#88250
b1001 >
b11 A
1-
#88500
b111 9
0-
#88750
b100 A
b1010 >
1-
#89000
b1000 9
0-
#89250
b10 O
1M
1&
b100 >
b101 A
1-
#89500
b1001 9
0-
#89750
b0 W
b0 G
0U
0M
b0 O
b110 A
0&
b10 P
1(
1-
#90000
b1101011 ;
0-
#90250
b0 P
b0 !
b0 /
b0 <
b0 ?
b0 X
b0 .
b0 0
b0 =
b0 @
b0 H
0#
0(
b101 >
b111 A
1-
#90500
b1 O
b110 G
1U
b110000 ,
b110000 3
b110000 B
1*
b10110 :
0-
#90750
b1000 A
b110 >
b1 P
b110 .
b110 0
b110 =
b110 @
b110 H
1#
1-
#91000
bx ,
bx 3
bx B
0*
b110000 1
0-
#91250
b111 >
b1001 A
1-
#91500
b1 9
0-
#91750
b1010 A
b1000 >
1-
#92000
b10 9
0-
#92250
b1001 >
b101 A
1-
#92500
b11 9
0-
#92750
b110 A
b1010 >
1-
#93000
b100 9
0-
#93250
b10 O
1M
1&
b1 >
b111 A
1-
#93500
b101 9
0-
#93750
b0 G
0U
0M
b0 O
b1000 A
0&
b10 P
1(
1-
#94000
b1110000 ;
0-
#94250
b0 P
b0 .
b0 0
b0 =
b0 @
b0 H
0#
0(
b10 >
b1001 A
1-
#94500
b1 O
b100 W
1V
b1000100 ,
b1000100 3
b1000100 B
1*
b10111 :
0-
#94750
b10 O
1N
b1010 A
b11 >
b1 P
b100 !
b100 /
b100 <
b100 ?
b100 X
1"
1-
#95000
1N
b10 O
bx ,
bx 3
bx B
0*
b1000100 1
0-
#95250
b0 W
0V
0N
b0 O
b10 P
1'
b100 >
0%
1-
#95500
b0 9
0-
#95750
1%
b1 A
b101 >
b0 P
b0 !
b0 /
b0 <
b0 ?
b0 X
0"
0'
1-
#96000
1L
b1 O
b1001110 J
b111 W
1V
b1000111 +
b1000111 4
b1000111 C
1)
b1001110 ,
b1001110 3
b1001110 B
1*
b11 5
b11000 :
0-
#96250
b10 O
1N
1K
b1 P
b111 !
b111 /
b111 <
b111 ?
b111 X
b1001110 I
1"
b110 >
b10 A
1-
#96500
1N
b10 O
bx +
bx 4
bx C
bx ,
bx 3
bx B
0)
0*
b1000111 2
b1001110 1
0-
#96750
b0 W
0V
0N
b0 O
0%
b111 >
b10 P
1'
1-
#97000
0-
#97250
0L
b1 O
b0 J
b1 G
b110 W
1V
b0 P
b0 !
b0 /
b0 <
b0 ?
b0 X
0"
0'
b1000 >
b11 A
1-
#97500
b1 9
0-
#97750
b100 A
b1001 >
0K
b1 P
b110 !
b110 /
b110 <
b110 ?
b110 X
b1 .
b1 0
b1 =
b1 @
b1 H
b0 I
1"
1-
#98000
b10 9
0-
#98250
b1010 >
b101 A
1-
#98500
b11 9
0-
#98750
b110 A
1&
b10 >
1-
#99000
b100 9
0-
#99250
b11 >
b111 A
1-
