Env_test/Test_Code/02_REPORT/WAVEFORM.vcd
$date
	Wed Jul  3 20:02:43 2024
$end
$version
	Icarus Verilog
$end
$timescale
	1ps
$end
$scope module TESTBED $end
$var wire 1 ! out_valid $end
$var wire 4 " out [3:0] $end
$var wire 4 # in [3:0] $end
$var wire 1 $ clk $end
$scope module I_PATTERN $end
$var wire 1 ! out_valid $end
$var wire 4 % out [3:0] $end
$var reg 1 $ clk $end
$var reg 4 & golden_ans [3:0] $end
$var reg 4 ' in [3:0] $end
$var real 1 ( CYCLE $end
$var integer 32 ) PATNUM [31:0] $end
$var integer 32 * latency [31:0] $end
$var integer 32 + patcount [31:0] $end
$var integer 32 , total_latency [31:0] $end
$scope task YOU_PASS_task $end
$upscope $end
$scope task check_ans $end
$upscope $end
$scope task fail $end
$upscope $end
$scope task input_task $end
$upscope $end
$scope task wait_out_valid $end
$upscope $end
$upscope $end
$scope module I_TEST $end
$var wire 1 $ clk $end
$var wire 4 - in [3:0] $end
$var reg 4 . out [3:0] $end
$var reg 1 ! out_valid $end
$var reg 1 / out_valid_comb $end
$upscope $end
$upscope $end
$enddefinitions $end
$comment Show the parameter values. $end
$dumpall
$end
#0
$dumpvars
1/
bx .
bx -
b0 ,
bx +
b0 *
b10011100010000 )
r4 (
bx '
bx &
bx %
0$
bx #
bx "
x!
$end
#1000
0$
#2000
1!
1$
#4000
0$
#6000
1$
#8000
0$
#10000
1$
#12000
b1001 &
b1001 #
b1001 '
b1001 -
b0 +
0$
#14000
b1001 "
b1001 %
b1001 .
1$
#16000
b100 &
b1 +
b100 #
b100 '
b100 -
0$
#18000
b100 "
b100 %
b100 .
1$
#20000
b0 &
b10 +
b0 #
b0 '
b0 -
0$
#22000
b0 "
b0 %
b0 .
1$
#24000
b11 &
b11 +
b11 #
b11 '
b11 -
0$
#26000
b11 "
b11 %
b11 .
1$
#28000
b1000 &
b100 +
b1000 #
b1000 '
b1000 -
0$
#30000
b1000 "
b1000 %
b1000 .
1$
#32000
b1100 &
b101 +
b1100 #
b1100 '
b1100 -
0$
#34000
b1100 "
b1100 %
b1100 .
1$
#36000
b11 &
b110 +
b11 #
b11 '
b11 -
0$
#38000
b11 "
b11 %
b11 .
1$
#40000
b0 &
b111 +
b0 #
b0 '
b0 -
0$
#42000
b0 "
b0 %
b0 .
1$
#44000
b1000 &
b1000 +
b1000 #
b1000 '
b1000 -
0$
#46000
b1000 "
b1000 %
b1000 .
1$
#48000
b1001 +
b1000 #
b1000 '
b1000 -
0$
#50000
1$
#52000
b1011 &
b1010 +
b1011 #
b1011 '
b1011 -
0$
#54000
b1011 "
b1011 %
b1011 .
1$
#56000
b1001 &
b1011 +
b1001 #
b1001 '
b1001 -
0$
#58000
b1001 "
b1001 %
b1001 .
1$
#60000
b1111 &
b1100 +
b1111 #
b1111 '
b1111 -
0$
#62000
b1111 "
b1111 %
b1111 .
1$
#64000
b1100 &
b1101 +
b1100 #
b1100 '
b1100 -
0$
#66000
b1100 "
b1100 %
b1100 .
1$
#68000
b1111 &
b1110 +
b1111 #
b1111 '
b1111 -
0$
#70000
b1111 "
b1111 %
b1111 .
1$
#72000
b110 &
b1111 +
b110 #
b110 '
b110 -
0$
#74000
b110 "
b110 %
b110 .
1$
#76000
b10000 +
b110 #
b110 '
b110 -
0$
#78000
1$
#80000
b101 &
b10001 +
b101 #
b101 '
b101 -
0$
#82000
b101 "
b101 %
b101 .
1$
#84000
b1111 &
b10010 +
b1111 #
b1111 '
b1111 -
0$
#86000
b1111 "
b1111 %
b1111 .
1$
#88000
b11 &
b10011 +
b11 #
b11 '
b11 -
0$
#90000
b11 "
b11 %
b11 .
1$
#92000
b0 &
b10100 +
b0 #
b0 '
b0 -
0$
#94000
b0 "
b0 %
b0 .
1$
#96000
b1100 &
b10101 +
b1100 #
b1100 '
b1100 -
0$
#98000
b1100 "
b1100 %
b1100 .
1$
#100000
b1111 &
b10110 +
b1111 #
b1111 '
b1111 -
0$
#102000
b1111 "
b1111 %
b1111 .
1$
#104000
b110 &
b10111 +
b110 #
b110 '
b110 -
0$
#106000
b110 "
b110 %
b110 .
1$
#108000
b111 &
b11000 +
b111 #
b111 '
b111 -
0$
#110000
b111 "
b111 %
b111 .
1$
#112000
b110 &
b11001 +
b110 #
b110 '
b110 -
0$
#114000
b110 "
b110 %
b110 .
1$
#116000
b1010 &
b11010 +
b1010 #
b1010 '
b1010 -
0$
#118000
b1010 "
b1010 %
b1010 .
1$
#120000
b101 &
b11011 +
b101 #
b101 '
b101 -
0$
#122000
b101 "
b101 %
b101 .
1$
#124000
b1 &
b11100 +
b1 #
b1 '
b1 -
0$
#126000
b1 "
b1 %
b1 .
1$
#128000
b11 &
b11101 +
b11 #
b11 '
b11 -
0$
#130000
b11 "
b11 %
b11 .
1$
#132000
b11110 +
b11 #
b11 '
b11 -
0$
#134000
1$
#136000
b1000 &
b11111 +
b1000 #
b1000 '
b1000 -
0$
#138000
b1000 "
b1000 %
b1000 .
1$
#140000
b100 &
b100000 +
b100 #
b100 '
b100 -
0$
#142000
b100 "
b100 %
b100 .
1$
#144000
b1001 &
b100001 +
b1001 #
b1001 '
b1001 -
0$
#146000
b1001 "
b1001 %
b1001 .
1$
#148000
b1101 &
b100010 +
b1101 #
b1101 '
b1101 -
0$
#150000
b1101 "
b1101 %
b1101 .
1$
#152000
b100 &
b100011 +
b100 #
b100 '
b100 -
0$
#154000
b100 "
b100 %
b100 .
1$
#156000
b100100 +
b100 #
b100 '
b100 -
0$
#158000
1$
#160000
b0 &
b100101 +
b0 #
b0 '
b0 -
0$
#162000
b0 "
b0 %
b0 .
1$
#164000
b100110 +
b0 #
b0 '
b0 -
0$
#166000
1$
#168000
b10 &
b100111 +
b10 #
b10 '
b10 -
0$
#170000
b10 "
b10 %
b10 .
1$
#172000
b1011 &
b101000 +
b1011 #
b1011 '
b1011 -
0$
#174000
b1011 "
b1011 %
b1011 .
1$
#176000
b110 &
b101001 +
b110 #
b110 '
b110 -
0$
#178000
b110 "
b110 %
b110 .
1$
#180000
b0 &
b101010 +
b0 #
b0 '
b0 -
0$
#182000
b0 "
b0 %
b0 .
1$
#184000
b101 &
b101011 +
b101 #
b101 '
b101 -
0$
#186000
b101 "
b101 %
b101 .
1$
#188000
b1000 &
b101100 +
b1000 #
b1000 '
b1000 -
0$
#190000
b1000 "
b1000 %
b1000 .
1$
#192000
b110 &
b101101 +
b110 #
b110 '
b110 -
0$
#194000
b110 "
b110 %
b110 .
1$
#196000
b1001 &
b101110 +
b1001 #
b1001 '
b1001 -
0$
#198000
b1001 "
b1001 %
b1001 .
1$
#200000
b1000 &
b101111 +
b1000 #
b1000 '
b1000 -
0$
#202000
b1000 "
b1000 %
b1000 .
1$
#204000
b110 &
b110000 +
b110 #
b110 '
b110 -
0$
#206000
b110 "
b110 %
b110 .
1$
#208000
b1 &
b110001 +
b1 #
b1 '
b1 -
0$
#210000
b1 "
b1 %
b1 .
1$
#212000
b1111 &
b110010 +
b1111 #
b1111 '
b1111 -
0$
#214000
b1111 "
b1111 %
b1111 .
1$
#216000
b1100 &
b110011 +
b1100 #
b1100 '
b1100 -
0$
#218000
b1100 "
b1100 %
b1100 .
1$
#220000
b1010 &
b110100 +
b1010 #
b1010 '
b1010 -
0$
#222000
b1010 "
b1010 %
b1010 .
1$
#224000
b110 &
b110101 +
b110 #
b110 '
b110 -
0$
#226000
b110 "
b110 %
b110 .
1$
#228000
b1011 &
b110110 +
b1011 #
b1011 '
b1011 -
0$
#230000
b1011 "
b1011 %
b1011 .
1$
#232000
b100 &
b110111 +
b100 #
b100 '
b100 -
0$
#234000
b100 "
b100 %
b100 .
1$
#236000
b1111 &
b111000 +
b1111 #
b1111 '
b1111 -
0$
#238000
b1111 "
b1111 %
b1111 .
1$
#240000
b1101 &
b111001 +
b1101 #
b1101 '
b1101 -
0$
#242000
b1101 "
b1101 %
b1101 .
1$
#244000
b1110 &
b111010 +
b1110 #
b1110 '
b1110 -
0$
#246000
b1110 "
b1110 %
b1110 .
1$
#248000
b1101 &
b111011 +
b1101 #
b1101 '
b1101 -
0$
#250000
b1101 "
b1101 %
b1101 .
1$
#252000
b101 &
b111100 +
b101 #
b101 '
b101 -
0$
#254000
b101 "
b101 %
b101 .
1$
#256000
b1001 &
b111101 +
b1001 #
b1001 '
b1001 -
0$
#258000
b1001 "
b1001 %
b1001 .
1$
#260000
b0 &
b111110 +
b0 #
b0 '
b0 -
0$
#262000
b0 "
b0 %
b0 .
1$
#264000
b11 &
b111111 +
b11 #
b11 '
b11 -
0$
#266000
b11 "
b11 %
b11 .
1$
#268000
b1100 &
b1000000 +
b1100 #
b1100 '
b1100 -
0$
#270000
b1100 "
b1100 %
b1100 .
1$
#272000
b1010 &
b1000001 +
b1010 #
b1010 '
b1010 -
0$
#274000
b1010 "
b1010 %
b1010 .
1$
#276000
b1 &
b1000010 +
b1 #
b1 '
b1 -
0$
#278000
b1 "
b1 %
b1 .
1$
#280000
b1001 &
b1000011 +
b1001 #
b1001 '
b1001 -
0$
#282000
b1001 "
b1001 %
b1001 .
1$
#284000
b11 &
b1000100 +
b11 #
b11 '
b11 -
0$
#286000
b11 "
b11 %
b11 .
1$
#288000
b1000 &
b1000101 +
b1000 #
b1000 '
b1000 -
0$
#290000
b1000 "
b1000 %
b1000 .
1$
#292000
b1111 &
b1000110 +
b1111 #
b1111 '
b1111 -
0$
#294000
b1111 "
b1111 %
b1111 .
1$
#296000
b1110 &
b1000111 +
b1110 #
b1110 '
b1110 -
0$
#298000
b1110 "
b1110 %
b1110 .
1$
#300000
b1011 &
b1001000 +
b1011 #
b1011 '
b1011 -
0$
#302000
b1011 "
b1011 %
b1011 .
1$
#304000
b1010 &
b1001001 +
b1010 #
b1010 '
b1010 -
0$
#306000
b1010 "
b1010 %
b1010 .
1$
#308000
b1100 &
b1001010 +
b1100 #
b1100 '
b1100 -
0$
#310000
b1100 "
b1100 %
b1100 .
1$
#312000
b1001011 +
b1100 #
b1100 '
b1100 -
0$
#314000
1$
#316000
b1111 &
b1001100 +
b1111 #
b1111 '
b1111 -
0$
#318000
b1111 "
b1111 %
b1111 .
1$
#320000
b101 &
b1001101 +
b101 #
b101 '
b101 -
0$
#322000
b101 "
b101 %
b101 .
1$
#324000
b100 &
b1001110 +
b100 #
b100 '
b100 -
0$
#326000
b100 "
b100 %
b100 .
1$
#328000
b10 &
b1001111 +
b10 #
b10 '
b10 -
0$
#330000
b10 "
b10 %
b10 .
1$
#332000
b1010000 +
b10 #
b10 '
b10 -
0$
#334000
1$
#336000
b1100 &
b1010001 +
b1100 #
b1100 '
b1100 -
0$
#338000
b1100 "
b1100 %
b1100 .
1$
#340000
b10 &
b1010010 +
b10 #
b10 '
b10 -
0$
#342000
b10 "
b10 %
b10 .
1$
#344000
b110 &
b1010011 +
b110 #
b110 '
b110 -
0$
#346000
b110 "
b110 %
b110 .
1$
#348000
b1010100 +
b110 #
b110 '
b110 -
0$
#350000
1$
#352000
b10 &
b1010101 +
b10 #
b10 '
b10 -
0$
#354000
b10 "
b10 %
b10 .
1$
#356000
b1100 &
b1010110 +
b1100 #
b1100 '
b1100 -
0$
#358000
b1100 "
b1100 %
b1100 .
1$
#360000
b1000 &
b1010111 +
b1000 #
b1000 '
b1000 -
0$
#362000
b1000 "
b1000 %
b1000 .
1$
#364000
b110 &
b1011000 +
b110 #
b110 '
b110 -
0$
#366000
b110 "
b110 %
b110 .
1$
#368000
b1110 &
b1011001 +
b1110 #
b1110 '
b1110 -
0$
#370000
b1110 "
b1110 %
b1110 .
1$
#372000
b11 &
b1011010 +
b11 #
b11 '
b11 -
0$
#374000
b11 "
b11 %
b11 .
1$
#376000
b1001 &
b1011011 +
b1001 #
b1001 '
b1001 -
0$
#378000
b1001 "
b1001 %
b1001 .
1$
#380000
b1000 &
b1011100 +
b1000 #
b1000 '
b1000 -
0$
#382000
b1000 "
b1000 %
b1000 .
1$
#384000
b11 &
b1011101 +
b11 #
b11 '
b11 -
0$
#386000
b11 "
b11 %
b11 .
1$
#388000
b1011 &
b1011110 +
b1011 #
b1011 '
b1011 -
0$
#390000
b1011 "
b1011 %
b1011 .
1$
#392000
b1001 &
b1011111 +
b1001 #
b1001 '
b1001 -
0$
#394000
b1001 "
b1001 %
b1001 .
1$
#396000
b1000 &
b1100000 +
b1000 #
b1000 '
b1000 -
0$
#398000
b1000 "
b1000 %
b1000 .
1$
#400000
b110 &
b1100001 +
b110 #
b110 '
b110 -
0$
#402000
b110 "
b110 %
b110 .
1$
#404000
b1100 &
b1100010 +
b1100 #
b1100 '
b1100 -
0$
#406000
b1100 "
b1100 %
b1100 .
1$
#408000
b11 &
b1100011 +
b11 #
b11 '
b11 -
0$
#410000
b11 "
b11 %
b11 .
1$
#412000
b1010 &
b1100100 +
b1010 #
b1010 '
b1010 -
0$
#414000
b1010 "
b1010 %
b1010 .
1$
#416000
b1100101 +
b1010 #
b1010 '
b1010 -
0$
#418000
1$
#420000
b1 &
b1100110 +
b1 #
b1 '
b1 -
0$
#422000
b1 "
b1 %
b1 .
1$
#424000
b1001 &
b1100111 +
b1001 #
b1001 '
b1001 -
0$
#426000
b1001 "
b1001 %
b1001 .
1$
#428000
b1010 &
b1101000 +
b1010 #
b1010 '
b1010 -
0$
#430000
b1010 "
b1010 %
b1010 .
1$
#432000
b100 &
b1101001 +
b100 #
b100 '
b100 -
0$
#434000
b100 "
b100 %
b100 .
1$
#436000
b1101010 +
b100 #
b100 '
b100 -
0$
#438000
1$
#440000
b1101011 +
b100 #
b100 '
b100 -
0$
#442000
1$
#444000
b1111 &
b1101100 +
b1111 #
b1111 '
b1111 -
0$
#446000
b1111 "
b1111 %
b1111 .
1$
#448000
b1 &
b1101101 +
b1 #
b1 '
b1 -
0$
#450000
b1 "
b1 %
b1 .
1$
#452000
b1011 &
b1101110 +
b1011 #
b1011 '
b1011 -
0$
#454000
b1011 "
b1011 %
b1011 .
1$
#456000
b101 &
b1101111 +
b101 #
b101 '
b101 -
0$
#458000
b101 "
b101 %
b101 .
1$
#460000
b1 &
b1110000 +
b1 #
b1 '
b1 -
0$
#462000
b1 "
b1 %
b1 .
1$
#464000
b101 &
b1110001 +
b101 #
b101 '
b101 -
0$
#466000
b101 "
b101 %
b101 .
1$
#468000
b10 &
b1110010 +
b10 #
b10 '
b10 -
0$
#470000
b10 "
b10 %
b10 .
1$
#472000
b1010 &
b1110011 +
b1010 #
b1010 '
b1010 -
0$
#474000
b1010 "
b1010 %
b1010 .
1$
#476000
b1111 &
b1110100 +
b1111 #
b1111 '
b1111 -
0$
#478000
b1111 "
b1111 %
b1111 .
1$
#480000
b110 &
b1110101 +
b110 #
b110 '
b110 -
0$
#482000
b110 "
b110 %
b110 .
1$
#484000
b111 &
b1110110 +
b111 #
b111 '
b111 -
0$
#486000
b111 "
b111 %
b111 .
1$
#488000
b1010 &
b1110111 +
b1010 #
b1010 '
b1010 -
0$
#490000
b1010 "
b1010 %
b1010 .
1$
#492000
b1001 &
b1111000 +
b1001 #
b1001 '
b1001 -
0$
#494000
b1001 "
b1001 %
b1001 .
1$
#496000
b111 &
b1111001 +
b111 #
b111 '
b111 -
0$
#498000
b111 "
b111 %
b111 .
1$
#500000
b110 &
b1111010 +
b110 #
b110 '
b110 -
0$
#502000
b110 "
b110 %
b110 .
1$
#504000
b11 &
b1111011 +
b11 #
b11 '
b11 -
0$
#506000
b11 "
b11 %
b11 .
1$
#508000
b101 &
b1111100 +
b101 #
b101 '
b101 -
0$
#510000
b101 "
b101 %
b101 .
1$
#512000
b110 &
b1111101 +
b110 #
b110 '
b110 -
0$
#514000
b110 "
b110 %
b110 .
1$
#516000
b1011 &
b1111110 +
b1011 #
b1011 '
b1011 -
0$
#518000
b1011 "
b1011 %
b1011 .
1$
#520000
b1010 &
b1111111 +
b1010 #
b1010 '
b1010 -
0$
#522000
b1010 "
b1010 %
b1010 .
1$
#524000
b110 &
b10000000 +
b110 #
b110 '
b110 -
0$
#526000
b110 "
b110 %
b110 .
1$
#528000
b1001 &
b10000001 +
b1001 #
b1001 '
b1001 -
0$
#530000
b1001 "
b1001 %
b1001 .
1$
#532000
b1101 &
b10000010 +
b1101 #
b1101 '
b1101 -
0$
#534000
b1101 "
b1101 %
b1101 .
1$
#536000
b1000 &
b10000011 +
b1000 #
b1000 '
b1000 -
0$
#538000
b1000 "
b1000 %
b1000 .
1$
#540000
b1110 &
b10000100 +
b1110 #
b1110 '
b1110 -
0$
#542000
b1110 "
b1110 %
b1110 .
1$
#544000
b100 &
b10000101 +
b100 #
b100 '
b100 -
0$
#546000
b100 "
b100 %
b100 .
1$
#548000
b111 &
b10000110 +
b111 #
b111 '
b111 -
0$
#550000
b111 "
b111 %
b111 .
1$
#552000
b110 &
b10000111 +
b110 #
b110 '
b110 -
0$
#554000
b110 "
b110 %
b110 .
1$
#556000
b1010 &
b10001000 +
b1010 #
b1010 '
b1010 -
0$
#558000
b1010 "
b1010 %
b1010 .
1$
#560000
b10001001 +
b1010 #
b1010 '
b1010 -
0$
#562000
1$
#564000
b11 &
b10001010 +
b11 #
b11 '
b11 -
0$
#566000
b11 "
b11 %
b11 .
1$
#568000
b0 &
b10001011 +
b0 #
b0 '
b0 -
0$
#570000
b0 "
b0 %
b0 .
1$
#572000
b1101 &
b10001100 +
b1101 #
b1101 '
b1101 -
0$
#574000
b1101 "
b1101 %
b1101 .
1$
#576000
b1 &
b10001101 +
b1 #
b1 '
b1 -
0$
#578000
b1 "
b1 %
b1 .
1$
#580000
b1011 &
b10001110 +
b1011 #
b1011 '
b1011 -
0$
#582000
b1011 "
b1011 %
b1011 .
1$
#584000
b101 &
b10001111 +
b101 #
b101 '
b101 -
0$
#586000
b101 "
b101 %
b101 .
1$
#588000
b1100 &
b10010000 +
b1100 #
b1100 '
b1100 -
0$
#590000
b1100 "
b1100 %
b1100 .
1$
#592000
b10010001 +
b1100 #
b1100 '
b1100 -
0$
#594000
1$
#596000
b0 &
b10010010 +
b0 #
b0 '
b0 -
0$
#598000
b0 "
b0 %
b0 .
1$
#600000
b10 &
b10010011 +
b10 #
b10 '
b10 -
0$
#602000
b10 "
b10 %
b10 .
1$
#604000
b1110 &
b10010100 +
b1110 #
b1110 '
b1110 -
0$
#606000
b1110 "
b1110 %
b1110 .
1$
#608000
b10 &
b10010101 +
b10 #
b10 '
b10 -
0$
#610000
b10 "
b10 %
b10 .
1$
#612000
b1110 &
b10010110 +
b1110 #
b1110 '
b1110 -
0$
#614000
b1110 "
b1110 %
b1110 .
1$
#616000
b11 &
b10010111 +
b11 #
b11 '
b11 -
0$
#618000
b11 "
b11 %
b11 .
1$
#620000
b10011000 +
b11 #
b11 '
b11 -
0$
#622000
1$
#624000
b1110 &
b10011001 +
b1110 #
b1110 '
b1110 -
0$
#626000
b1110 "
b1110 %
b1110 .
1$
#628000
b1101 &
b10011010 +
b1101 #
b1101 '
b1101 -
0$
#630000
b1101 "
b1101 %
b1101 .
1$
#632000
b1100 &
b10011011 +
b1100 #
b1100 '
b1100 -
0$
#634000
b1100 "
b1100 %
b1100 .
1$
#636000
b10 &
b10011100 +
b10 #
b10 '
b10 -
0$
#638000
b10 "
b10 %
b10 .
1$
#640000
b1000 &
b10011101 +
b1000 #
b1000 '
b1000 -
0$
#642000
b1000 "
b1000 %
b1000 .
1$
#644000
b1111 &
b10011110 +
b1111 #
b1111 '
b1111 -
0$
#646000
b1111 "
b1111 %
b1111 .
1$
#648000
b1011 &
b10011111 +
b1011 #
b1011 '
b1011 -
0$
#650000
b1011 "
b1011 %
b1011 .
1$
#652000
b101 &
b10100000 +
b101 #
b101 '
b101 -
0$
#654000
b101 "
b101 %
b101 .
1$
#656000
b1100 &
b10100001 +
b1100 #
b1100 '
b1100 -
0$
#658000
b1100 "
b1100 %
b1100 .
1$
#660000
b1001 &
b10100010 +
b1001 #
b1001 '
b1001 -
0$
#662000
b1001 "
b1001 %
b1001 .
1$
#664000
b1 &
b10100011 +
b1 #
b1 '
b1 -
0$
#666000
b1 "
b1 %
b1 .
1$
#668000
b110 &
b10100100 +
b110 #
b110 '
b110 -
0$
#670000
b110 "
b110 %
b110 .
1$
#672000
b1 &
b10100101 +
b1 #
b1 '
b1 -
0$
#674000
b1 "
b1 %
b1 .
1$
#676000
b0 &
b10100110 +
b0 #
b0 '
b0 -
0$
#678000
b0 "
b0 %
b0 .
1$
#680000
b1000 &
b10100111 +
b1000 #
b1000 '
b1000 -
0$
#682000
b1000 "
b1000 %
b1000 .
1$
#684000
b111 &
b10101000 +
b111 #
b111 '
b111 -
0$
#686000
b111 "
b111 %
b111 .
1$
#688000
b1001 &
b10101001 +
b1001 #
b1001 '
b1001 -
0$
#690000
b1001 "
b1001 %
b1001 .
1$
#692000
b0 &
b10101010 +
b0 #
b0 '
b0 -
0$
#694000
b0 "
b0 %
b0 .
1$
#696000
b1100 &
b10101011 +
b1100 #
b1100 '
b1100 -
0$
#698000
b1100 "
b1100 %
b1100 .
1$
#700000
b110 &
b10101100 +
b110 #
b110 '
b110 -
0$
#702000
b110 "
b110 %
b110 .
1$
#704000
b1 &
b10101101 +
b1 #
b1 '
b1 -
0$
#706000
b1 "
b1 %
b1 .
1$
#708000
b1011 &
b10101110 +
b1011 #
b1011 '
b1011 -
0$
#710000
b1011 "
b1011 %
b1011 .
1$
#712000
b11 &
b10101111 +
b11 #
b11 '
b11 -
0$
#714000
b11 "
b11 %
b11 .
1$
#716000
b10110000 +
b11 #
b11 '
b11 -
0$
#718000
1$
#720000
b1101 &
b10110001 +
b1101 #
b1101 '
b1101 -
0$
#722000
b1101 "
b1101 %
b1101 .
1$
#724000
b1010 &
b10110010 +
b1010 #
b1010 '
b1010 -
0$
#726000
b1010 "
b1010 %
b1010 .
1$
#728000
b1111 &
b10110011 +
b1111 #
b1111 '
b1111 -
0$
#730000
b1111 "
b1111 %
b1111 .
1$
#732000
b1110 &
b10110100 +
b1110 #
b1110 '
b1110 -
0$
#734000
b1110 "
b1110 %
b1110 .
1$
#736000
b0 &
b10110101 +
b0 #
b0 '
b0 -
0$
#738000
b0 "
b0 %
b0 .
1$
#740000
b101 &
b10110110 +
b101 #
b101 '
b101 -
0$
#742000
b101 "
b101 %
b101 .
1$
#744000
b1001 &
b10110111 +
b1001 #
b1001 '
b1001 -
0$
#746000
b1001 "
b1001 %
b1001 .
1$
#748000
b1100 &
b10111000 +
b1100 #
b1100 '
b1100 -
0$
#750000
b1100 "
b1100 %
b1100 .
1$
#752000
b1110 &
b10111001 +
b1110 #
b1110 '
b1110 -
0$
#754000
b1110 "
b1110 %
b1110 .
1$
#756000
b1001 &
b10111010 +
b1001 #
b1001 '
b1001 -
0$
#758000
b1001 "
b1001 %
b1001 .
1$
#760000
b101 &
b10111011 +
b101 #
b101 '
b101 -
0$
#762000
b101 "
b101 %
b101 .
1$
#764000
b1011 &
b10111100 +
b1011 #
b1011 '
b1011 -
0$
#766000
b1011 "
b1011 %
b1011 .
1$
#768000
b1110 &
b10111101 +
b1110 #
b1110 '
b1110 -
0$
#770000
b1110 "
b1110 %
b1110 .
1$
#772000
b1100 &
b10111110 +
b1100 #
b1100 '
b1100 -
0$
#774000
b1100 "
b1100 %
b1100 .
1$
#776000
b1011 &
b10111111 +
b1011 #
b1011 '
b1011 -
0$
#778000
b1011 "
b1011 %
b1011 .
1$
#780000
b11000000 +
b1011 #
b1011 '
b1011 -
0$
#782000
1$
#784000
b110 &
b11000001 +
b110 #
b110 '
b110 -
0$
#786000
b110 "
b110 %
b110 .
1$
#788000
b11000010 +
b110 #
b110 '
b110 -
0$
#790000
1$
#792000
b1011 &
b11000011 +
b1011 #
b1011 '
b1011 -
0$
#794000
b1011 "
b1011 %
b1011 .
1$
#796000
b111 &
b11000100 +
b111 #
b111 '
b111 -
0$
#798000
b111 "
b111 %
b111 .
1$
#800000
b11 &
b11000101 +
b11 #
b11 '
b11 -
0$
#802000
b11 "
b11 %
b11 .
1$
#804000
b1000 &
b11000110 +
b1000 #
b1000 '
b1000 -
0$
#806000
b1000 "
b1000 %
b1000 .
1$
#808000
b101 &
b11000111 +
b101 #
b101 '
b101 -
0$
#810000
b101 "
b101 %
b101 .
1$
#812000
b1100 &
b11001000 +
b1100 #
b1100 '
b1100 -
0$
#814000
b1100 "
b1100 %
b1100 .
1$
#816000
b10 &
b11001001 +
b10 #
b10 '
b10 -
0$
#818000
b10 "
b10 %
b10 .
1$
#820000
b1111 &
b11001010 +
b1111 #
b1111 '
b1111 -
0$
#822000
b1111 "
b1111 %
b1111 .
1$
#824000
b1 &
b11001011 +
b1 #
b1 '
b1 -
0$
#826000
b1 "
b1 %
b1 .
1$
#828000
b11001100 +
b1 #
b1 '
b1 -
0$
#830000
1$
#832000
b1110 &
b11001101 +
b1110 #
b1110 '
b1110 -
0$
#834000
b1110 "
b1110 %
b1110 .
1$
#836000
b110 &
b11001110 +
b110 #
b110 '
b110 -
0$
#838000
b110 "
b110 %
b110 .
1$
#840000
b100 &
b11001111 +
b100 #
b100 '
b100 -
0$
#842000
b100 "
b100 %
b100 .
1$
#844000
b1010 &
b11010000 +
b1010 #
b1010 '
b1010 -
0$
#846000
b1010 "
b1010 %
b1010 .
1$
#848000
b11 &
b11010001 +
b11 #
b11 '
b11 -
0$
#850000
b11 "
b11 %
b11 .
1$
#852000
b111 &
b11010010 +
b111 #
b111 '
b111 -
0$
#854000
b111 "
b111 %
b111 .
1$
#856000
b100 &
b11010011 +
b100 #
b100 '
b100 -
0$
#858000
b100 "
b100 %
b100 .
1$
#860000
b1010 &
b11010100 +
b1010 #
b1010 '
b1010 -
0$
#862000
b1010 "
b1010 %
b1010 .
1$
#864000
b101 &
b11010101 +
b101 #
b101 '
b101 -
0$
#866000
b101 "
b101 %
b101 .
1$
#868000
b1101 &
b11010110 +
b1101 #
b1101 '
b1101 -
0$
#870000
b1101 "
b1101 %
b1101 .
1$
#872000
b101 &
b11010111 +
b101 #
b101 '
b101 -
0$
#874000
b101 "
b101 %
b101 .
1$
#876000
b1000 &
b11011000 +
b1000 #
b1000 '
b1000 -
0$
#878000
b1000 "
b1000 %
b1000 .
1$
#880000
b111 &
b11011001 +
b111 #
b111 '
b111 -
0$
#882000
b111 "
b111 %
b111 .
1$
#884000
b100 &
b11011010 +
b100 #
b100 '
b100 -
0$
#886000
b100 "
b100 %
b100 .
1$
#888000
b1001 &
b11011011 +
b1001 #
b1001 '
b1001 -
0$
#890000
b1001 "
b1001 %
b1001 .
1$
#892000
b11011100 +
b1001 #
b1001 '
b1001 -
0$
#894000
1$
#896000
b100 &
b11011101 +
b100 #
b100 '
b100 -
0$
#898000
b100 "
b100 %
b100 .
1$
#900000
b1100 &
b11011110 +
b1100 #
b1100 '
b1100 -
0$
#902000
b1100 "
b1100 %
b1100 .
1$
#904000
b1 &
b11011111 +
b1 #
b1 '
b1 -
0$
#906000
b1 "
b1 %
b1 .
1$
#908000
b11 &
b11100000 +
b11 #
b11 '
b11 -
0$
#910000
b11 "
b11 %
b11 .
1$
#912000
b1110 &
b11100001 +
b1110 #
b1110 '
b1110 -
0$
#914000
b1110 "
b1110 %
b1110 .
1$
#916000
b11100010 +
b1110 #
b1110 '
b1110 -
0$
#918000
1$
#920000
b1000 &
b11100011 +
b1000 #
b1000 '
b1000 -
0$
#922000
b1000 "
b1000 %
b1000 .
1$
#924000
b1011 &
b11100100 +
b1011 #
b1011 '
b1011 -
0$
#926000
b1011 "
b1011 %
b1011 .
1$
#928000
b110 &
b11100101 +
b110 #
b110 '
b110 -
0$
#930000
b110 "
b110 %
b110 .
1$
#932000
b1101 &
b11100110 +
b1101 #
b1101 '
b1101 -
0$
#934000
b1101 "
b1101 %
b1101 .
1$
#936000
b11100111 +
b1101 #
b1101 '
b1101 -
0$
#938000
1$
#940000
b1110 &
b11101000 +
b1110 #
b1110 '
b1110 -
0$
#942000
b1110 "
b1110 %
b1110 .
1$
#944000
b1101 &
b11101001 +
b1101 #
b1101 '
b1101 -
0$
#946000
b1101 "
b1101 %
b1101 .
1$
#948000
b1100 &
b11101010 +
b1100 #
b1100 '
b1100 -
0$
#950000
b1100 "
b1100 %
b1100 .
1$
#952000
b101 &
b11101011 +
b101 #
b101 '
b101 -
0$
#954000
b101 "
b101 %
b101 .
1$
#956000
b1011 &
b11101100 +
b1011 #
b1011 '
b1011 -
0$
#958000
b1011 "
b1011 %
b1011 .
1$
#960000
b100 &
b11101101 +
b100 #
b100 '
b100 -
0$
#962000
b100 "
b100 %
b100 .
1$
#964000
b1111 &
b11101110 +
b1111 #
b1111 '
b1111 -
0$
#966000
b1111 "
b1111 %
b1111 .
1$
#968000
b111 &
b11101111 +
b111 #
b111 '
b111 -
0$
#970000
b111 "
b111 %
b111 .
1$
#972000
b1001 &
b11110000 +
b1001 #
b1001 '
b1001 -
0$
#974000
b1001 "
b1001 %
b1001 .
1$
#976000
b101 &
b11110001 +
b101 #
b101 '
b101 -
0$
#978000
b101 "
b101 %
b101 .
1$
#980000
b1100 &
b11110010 +
b1100 #
b1100 '
b1100 -
0$
#982000
b1100 "
b1100 %
b1100 .
1$
#984000
b111 &
b11110011 +
b111 #
b111 '
b111 -
0$
#986000
b111 "
b111 %
b111 .
1$
#988000
b1110 &
b11110100 +
b1110 #
b1110 '
b1110 -
0$
#990000
b1110 "
b1110 %
b1110 .
1$
#992000
b1101 &
b11110101 +
b1101 #
b1101 '
b1101 -
0$
#994000
b1101 "
b1101 %
b1101 .
1$
#996000
b101 &
b11110110 +
b101 #
b101 '
b101 -
0$
#998000
b101 "
b101 %
b101 .
1$
#1000000
b1100 &
b11110111 +
b1100 #
b1100 '
b1100 -
0$
#1002000
b1100 "
b1100 %
b1100 .
1$
