Lab03/02_REPORT/WAVEFORM.vcd
$date
	Tue Jul  9 00:13:06 2024
$end
$version
	Icarus Verilog
$end
$timescale
	1ps
$end
$scope module TESTBED $end
$var wire 1 ! s_in $end
$var wire 1 " rst_n $end
$var wire 4 # p_out [3:0] $end
$var wire 1 $ out_valid $end
$var wire 1 % in_valid $end
$var wire 1 & clk $end
$scope module I_PATTERN $end
$var wire 4 ' p_out [3:0] $end
$var wire 1 $ out_valid $end
$var reg 1 & clk $end
$var reg 4 ( golden_ans [3:0] $end
$var reg 1 % in_valid $end
$var reg 1 " rst_n $end
$var reg 1 ! s_in $end
$var real 1 ) CYCLE $end
$var integer 32 * PATNUM [31:0] $end
$var integer 32 + i [31:0] $end
$var integer 32 , input_gap [31:0] $end
$var integer 32 - latency [31:0] $end
$var integer 32 . patcount [31:0] $end
$var integer 32 / total_latency [31:0] $end
$scope task YOU_PASS_task $end
$upscope $end
$scope task check_ans $end
$upscope $end
$scope task delay_task $end
$upscope $end
$scope task fail $end
$upscope $end
$scope task input_task $end
$upscope $end
$scope task reset_task $end
$upscope $end
$scope task wait_out_valid $end
$upscope $end
$upscope $end
$scope module I_SIPO $end
$var wire 1 & clk $end
$var wire 1 % in_valid $end
$var wire 1 " rst_n $end
$var wire 1 ! s_in $end
$var wire 3 0 valid_comb [2:0] $end
$var wire 4 1 p_out_comb [3:0] $end
$var wire 1 2 out_valid_comb $end
$var reg 1 $ out_valid $end
$var reg 4 3 p_out [3:0] $end
$var reg 3 4 valid_reg [2:0] $end
$upscope $end
$upscope $end
$enddefinitions $end
$comment Show the parameter values. $end
$dumpall
$end
#0
$dumpvars
bx 4
bx 3
02
bx 1
bx0 0
b0 /
bx .
b0 -
bx ,
bx +
b1111101000 *
r4 )
bx (
bx '
0&
0%
x$
bx #
1"
x!
$end
#500
b0 0
b0x 1
0$
b0 4
b0 #
b0 '
b0 3
0"
#2000
0&
#3500
1"
#6500
b11 ,
0&
#8000
b0xx 1
b0x #
b0x '
b0x 3
1&
#10000
0&
#12000
b0xxx 1
b0xx #
b0xx '
b0xx 3
1&
#14000
0&
#16000
bx 1
b0xxx #
b0xxx '
b0xxx 3
1&
#18000
b1 ,
b0 .
0&
#20000
bx #
bx '
bx 3
1&
#22000
b11 +
b0 (
0&
#24000
1&
#26000
b10 +
bx0 1
0!
b1 0
1%
0&
#28000
b11 0
bx00 1
b1 4
bx0 #
bx0 '
bx0 3
1&
#30000
b1 +
0&
#32000
b111 0
bx000 1
b11 4
bx00 #
bx00 '
bx00 3
1&
#34000
b0 +
0&
#36000
b0 1
12
b111 4
bx000 #
bx000 '
bx000 3
1&
#38000
b11111111111111111111111111111111 +
0&
#40000
1$
b0 #
b0 '
b0 3
1&
#42000
b0x 1
x!
b110 0
02
0%
0&
#44000
b100 0
b0xx 1
0$
b110 4
b0x #
b0x '
b0x 3
1&
#46000
b11 +
b1000 (
b0 ,
b1 .
0&
#48000
b0 0
b0xxx 1
b100 4
b0xx #
b0xx '
b0xx 3
1&
#50000
b10 +
b0xx1 1
1!
b1 0
1%
0&
#52000
b11 0
bx11 1
b1 4
b0xx1 #
b0xx1 '
b0xx1 3
1&
#54000
b1 +
bx10 1
0!
0&
#56000
b111 0
bx100 1
b11 4
bx10 #
bx10 '
bx10 3
1&
#58000
b0 +
0&
#60000
b1000 1
12
b111 4
bx100 #
bx100 '
bx100 3
1&
#62000
b11111111111111111111111111111111 +
0&
#64000
b0 1
1$
b1000 #
b1000 '
b1000 3
1&
#66000
b0x 1
x!
b110 0
02
0%
0&
#68000
b100 0
b0xx 1
0$
b110 4
b0x #
b0x '
b0x 3
1&
#70000
b11 ,
b10 .
0&
#72000
b0 0
b0xxx 1
b100 4
b0xx #
b0xx '
b0xx 3
1&
#74000
0&
#76000
bx 1
b0 4
b0xxx #
b0xxx '
b0xxx 3
1&
#78000
0&
#80000
bx #
bx '
bx 3
1&
#82000
b11 +
b11 (
0&
#84000
1&
#86000
b10 +
bx0 1
0!
b1 0
1%
0&
#88000
b11 0
bx00 1
b1 4
bx0 #
bx0 '
bx0 3
1&
#90000
b1 +
0&
#92000
b111 0
bx000 1
b11 4
bx00 #
bx00 '
bx00 3
1&
#94000
b0 +
bx001 1
1!
0&
#96000
b11 1
12
b111 4
bx001 #
bx001 '
bx001 3
1&
#98000
b11111111111111111111111111111111 +
0&
#100000
b111 1
1$
b11 #
b11 '
b11 3
1&
#102000
b11x 1
x!
b110 0
02
0%
0&
#104000
b100 0
b11xx 1
0$
b110 4
b11x #
b11x '
b11x 3
1&
#106000
b11 +
b1000 (
b0 ,
b11 .
0&
#108000
b0 0
b1xxx 1
b100 4
b11xx #
b11xx '
b11xx 3
1&
#110000
b10 +
b1xx1 1
1!
b1 0
1%
0&
#112000
b11 0
bx11 1
b1 4
b1xx1 #
b1xx1 '
b1xx1 3
1&
#114000
b1 +
bx10 1
0!
0&
#116000
b111 0
bx100 1
b11 4
bx10 #
bx10 '
bx10 3
1&
#118000
b0 +
0&
#120000
b1000 1
12
b111 4
bx100 #
bx100 '
bx100 3
1&
#122000
b11111111111111111111111111111111 +
0&
#124000
b0 1
1$
b1000 #
b1000 '
b1000 3
1&
#126000
b0x 1
x!
b110 0
02
0%
0&
#128000
b100 0
b0xx 1
0$
b110 4
b0x #
b0x '
b0x 3
1&
#130000
b10 ,
b100 .
0&
#132000
b0 0
b0xxx 1
b100 4
b0xx #
b0xx '
b0xx 3
1&
#134000
0&
#136000
bx 1
b0 4
b0xxx #
b0xxx '
b0xxx 3
1&
#138000
b11 +
b1011 (
0&
#140000
bx #
bx '
bx 3
1&
#142000
b10 +
bx1 1
1!
b1 0
1%
0&
#144000
b11 0
bx11 1
b1 4
bx1 #
bx1 '
bx1 3
1&
#146000
b1 +
bx10 1
0!
0&
#148000
b111 0
bx100 1
b11 4
bx10 #
bx10 '
bx10 3
1&
#150000
b0 +
bx101 1
1!
0&
#152000
b1011 1
12
b111 4
bx101 #
bx101 '
bx101 3
1&
#154000
b11111111111111111111111111111111 +
0&
#156000
b111 1
1$
b1011 #
b1011 '
b1011 3
1&
#158000
b11x 1
x!
b110 0
02
0%
0&
#160000
b100 0
b11xx 1
0$
b110 4
b11x #
b11x '
b11x 3
1&
#162000
b101 .
0&
#164000
b0 0
b1xxx 1
b100 4
b11xx #
b11xx '
b11xx 3
1&
#166000
0&
#168000
bx 1
b0 4
b1xxx #
b1xxx '
b1xxx 3
1&
#170000
b11 +
b1111 (
0&
#172000
bx #
bx '
bx 3
1&
#174000
b10 +
bx1 1
1!
b1 0
1%
0&
#176000
b11 0
bx11 1
b1 4
bx1 #
bx1 '
bx1 3
1&
#178000
b1 +
0&
#180000
b111 0
bx111 1
b11 4
bx11 #
bx11 '
bx11 3
1&
#182000
b0 +
0&
#184000
b1111 1
12
b111 4
bx111 #
bx111 '
bx111 3
1&
#186000
b11111111111111111111111111111111 +
0&
#188000
1$
b1111 #
b1111 '
b1111 3
1&
#190000
b111x 1
x!
b110 0
02
0%
0&
#192000
b100 0
b11xx 1
0$
b110 4
b111x #
b111x '
b111x 3
1&
#194000
b11 ,
b110 .
0&
#196000
b0 0
b1xxx 1
b100 4
b11xx #
b11xx '
b11xx 3
1&
#198000
0&
#200000
bx 1
b0 4
b1xxx #
b1xxx '
b1xxx 3
1&
#202000
0&
#204000
bx #
bx '
bx 3
1&
#206000
b11 +
0&
#208000
1&
#210000
b10 +
bx1 1
1!
b1 0
1%
0&
#212000
b11 0
bx11 1
b1 4
bx1 #
bx1 '
bx1 3
1&
#214000
b1 +
0&
#216000
b111 0
bx111 1
b11 4
bx11 #
bx11 '
bx11 3
1&
#218000
b0 +
0&
#220000
b1111 1
12
b111 4
bx111 #
bx111 '
bx111 3
1&
#222000
b11111111111111111111111111111111 +
0&
#224000
1$
b1111 #
b1111 '
b1111 3
1&
#226000
b111x 1
x!
b110 0
02
0%
0&
#228000
b100 0
b11xx 1
0$
b110 4
b111x #
b111x '
b111x 3
1&
#230000
b1 ,
b111 .
0&
#232000
b0 0
b1xxx 1
b100 4
b11xx #
b11xx '
b11xx 3
1&
#234000
b11 +
b110 (
0&
#236000
bx 1
b0 4
b1xxx #
b1xxx '
b1xxx 3
1&
#238000
b10 +
bx0 1
0!
b1 0
1%
0&
#240000
b11 0
bx00 1
b1 4
bx0 #
bx0 '
bx0 3
1&
#242000
b1 +
bx01 1
1!
0&
#244000
b111 0
bx011 1
b11 4
bx01 #
bx01 '
bx01 3
1&
#246000
b0 +
0&
#248000
b111 1
12
b111 4
bx011 #
bx011 '
bx011 3
1&
#250000
b11111111111111111111111111111111 +
b110 1
0!
0&
#252000
b1100 1
1$
b110 #
b110 '
b110 3
1&
#254000
b110x 1
x!
b110 0
02
0%
0&
#256000
b100 0
b10xx 1
0$
b110 4
b110x #
b110x '
b110x 3
1&
#258000
b1000 .
0&
#260000
b0 0
b0xxx 1
b100 4
b10xx #
b10xx '
b10xx 3
1&
#262000
b11 +
b1111 (
0&
#264000
bx 1
b0 4
b0xxx #
b0xxx '
b0xxx 3
1&
#266000
b10 +
bx1 1
1!
b1 0
1%
0&
#268000
b11 0
bx11 1
b1 4
bx1 #
bx1 '
bx1 3
1&
#270000
b1 +
0&
#272000
b111 0
bx111 1
b11 4
bx11 #
bx11 '
bx11 3
1&
#274000
b0 +
0&
#276000
b1111 1
12
b111 4
bx111 #
bx111 '
bx111 3
1&
#278000
b11111111111111111111111111111111 +
0&
#280000
1$
b1111 #
b1111 '
b1111 3
1&
#282000
b111x 1
x!
b110 0
02
0%
0&
#284000
b100 0
b11xx 1
0$
b110 4
b111x #
b111x '
b111x 3
1&
#286000
b11 +
b0 (
b0 ,
b1001 .
0&
#288000
b0 0
b1xxx 1
b100 4
b11xx #
b11xx '
b11xx 3
1&
#290000
b10 +
b1xx0 1
0!
b1 0
1%
0&
#292000
b11 0
bx00 1
b1 4
b1xx0 #
b1xx0 '
b1xx0 3
1&
#294000
b1 +
0&
#296000
b111 0
bx000 1
b11 4
bx00 #
bx00 '
bx00 3
1&
#298000
b0 +
0&
#300000
b0 1
12
b111 4
bx000 #
bx000 '
bx000 3
1&
#302000
b11111111111111111111111111111111 +
0&
#304000
1$
b0 #
b0 '
b0 3
1&
#306000
b0x 1
x!
b110 0
02
0%
0&
#308000
b100 0
b0xx 1
0$
b110 4
b0x #
b0x '
b0x 3
1&
#310000
b11 ,
b1010 .
0&
#312000
b0 0
b0xxx 1
b100 4
b0xx #
b0xx '
b0xx 3
1&
#314000
0&
#316000
bx 1
b0 4
b0xxx #
b0xxx '
b0xxx 3
1&
#318000
0&
#320000
bx #
bx '
bx 3
1&
#322000
b11 +
b1111 (
0&
#324000
1&
#326000
b10 +
bx1 1
1!
b1 0
1%
0&
#328000
b11 0
bx11 1
b1 4
bx1 #
bx1 '
bx1 3
1&
#330000
b1 +
0&
#332000
b111 0
bx111 1
b11 4
bx11 #
bx11 '
bx11 3
1&
#334000
b0 +
0&
#336000
b1111 1
12
b111 4
bx111 #
bx111 '
bx111 3
1&
#338000
b11111111111111111111111111111111 +
0&
#340000
1$
b1111 #
b1111 '
b1111 3
1&
#342000
b111x 1
x!
b110 0
02
0%
0&
#344000
b100 0
b11xx 1
0$
b110 4
b111x #
b111x '
b111x 3
1&
#346000
b1 ,
b1011 .
0&
#348000
b0 0
b1xxx 1
b100 4
b11xx #
b11xx '
b11xx 3
1&
#350000
b11 +
b111 (
0&
#352000
bx 1
b0 4
b1xxx #
b1xxx '
b1xxx 3
1&
#354000
b10 +
bx0 1
0!
b1 0
1%
0&
#356000
b11 0
bx00 1
b1 4
bx0 #
bx0 '
bx0 3
1&
#358000
b1 +
bx01 1
1!
0&
#360000
b111 0
bx011 1
b11 4
bx01 #
bx01 '
bx01 3
1&
#362000
b0 +
0&
#364000
b111 1
12
b111 4
bx011 #
bx011 '
bx011 3
1&
#366000
b11111111111111111111111111111111 +
0&
#368000
b1111 1
1$
b111 #
b111 '
b111 3
1&
#370000
b111x 1
x!
b110 0
02
0%
0&
#372000
b100 0
b11xx 1
0$
b110 4
b111x #
b111x '
b111x 3
1&
#374000
b1100 .
0&
#376000
b0 0
b1xxx 1
b100 4
b11xx #
b11xx '
b11xx 3
1&
#378000
b11 +
b1010 (
0&
#380000
bx 1
b0 4
b1xxx #
b1xxx '
b1xxx 3
1&
#382000
b10 +
bx1 1
1!
b1 0
1%
0&
#384000
b11 0
bx11 1
b1 4
bx1 #
bx1 '
bx1 3
1&
#386000
b1 +
bx10 1
0!
0&
#388000
b111 0
bx100 1
b11 4
bx10 #
bx10 '
bx10 3
1&
#390000
b0 +
bx101 1
1!
0&
#392000
b1011 1
12
b111 4
bx101 #
bx101 '
bx101 3
1&
#394000
b11111111111111111111111111111111 +
b1010 1
0!
0&
#396000
b100 1
1$
b1010 #
b1010 '
b1010 3
1&
#398000
b10x 1
x!
b110 0
02
0%
0&
#400000
b100 0
b10xx 1
0$
b110 4
b10x #
b10x '
b10x 3
1&
#402000
b1101 .
0&
#404000
b0 0
b0xxx 1
b100 4
b10xx #
b10xx '
b10xx 3
1&
#406000
b11 +
b1 (
0&
#408000
bx 1
b0 4
b0xxx #
b0xxx '
b0xxx 3
1&
#410000
b10 +
bx0 1
0!
b1 0
1%
0&
#412000
b11 0
bx00 1
b1 4
bx0 #
bx0 '
bx0 3
1&
#414000
b1 +
0&
#416000
b111 0
bx000 1
b11 4
bx00 #
bx00 '
bx00 3
1&
#418000
b0 +
0&
#420000
b0 1
12
b111 4
bx000 #
bx000 '
bx000 3
1&
#422000
b11111111111111111111111111111111 +
b1 1
1!
0&
#424000
b11 1
1$
b1 #
b1 '
b1 3
1&
#426000
b1x 1
x!
b110 0
02
0%
0&
#428000
b100 0
b1xx 1
0$
b110 4
b1x #
b1x '
b1x 3
1&
#430000
b11 +
b11 (
b0 ,
b1110 .
0&
#432000
b0 0
b1xxx 1
b100 4
b1xx #
b1xx '
b1xx 3
1&
#434000
b10 +
b1xx0 1
0!
b1 0
1%
0&
#436000
b11 0
bx00 1
b1 4
b1xx0 #
b1xx0 '
b1xx0 3
1&
#438000
b1 +
0&
#440000
b111 0
bx000 1
b11 4
bx00 #
bx00 '
bx00 3
1&
#442000
b0 +
bx001 1
1!
0&
#444000
b11 1
12
b111 4
bx001 #
bx001 '
bx001 3
1&
#446000
b11111111111111111111111111111111 +
0&
#448000
b111 1
1$
b11 #
b11 '
b11 3
1&
#450000
b11x 1
x!
b110 0
02
0%
0&
#452000
b100 0
b11xx 1
0$
b110 4
b11x #
b11x '
b11x 3
1&
#454000
b10 ,
b1111 .
0&
#456000
b0 0
b1xxx 1
b100 4
b11xx #
b11xx '
b11xx 3
1&
#458000
0&
#460000
bx 1
b0 4
b1xxx #
b1xxx '
b1xxx 3
1&
#462000
b11 +
b100 (
0&
#464000
bx #
bx '
bx 3
1&
#466000
b10 +
bx0 1
0!
b1 0
1%
0&
#468000
b11 0
bx00 1
b1 4
bx0 #
bx0 '
bx0 3
1&
#470000
b1 +
bx01 1
1!
0&
#472000
b111 0
bx011 1
b11 4
bx01 #
bx01 '
bx01 3
1&
#474000
b0 +
bx010 1
0!
0&
#476000
b100 1
12
b111 4
bx010 #
bx010 '
bx010 3
1&
#478000
b11111111111111111111111111111111 +
0&
#480000
b1000 1
1$
b100 #
b100 '
b100 3
1&
#482000
b100x 1
x!
b110 0
02
0%
0&
#484000
b100 0
b0xx 1
0$
b110 4
b100x #
b100x '
b100x 3
1&
#486000
b10000 .
0&
#488000
b0 0
b0xxx 1
b100 4
b0xx #
b0xx '
b0xx 3
1&
#490000
0&
#492000
bx 1
b0 4
b0xxx #
b0xxx '
b0xxx 3
1&
#494000
b11 +
b1101 (
0&
#496000
bx #
bx '
bx 3
1&
#498000
b10 +
bx1 1
1!
b1 0
1%
0&
#500000
b11 0
bx11 1
b1 4
bx1 #
bx1 '
bx1 3
1&
#502000
b1 +
0&
#504000
b111 0
bx111 1
b11 4
bx11 #
bx11 '
bx11 3
1&
#506000
b0 +
bx110 1
0!
0&
#508000
b1100 1
12
b111 4
bx110 #
bx110 '
bx110 3
1&
#510000
b11111111111111111111111111111111 +
b1101 1
1!
0&
#512000
b1011 1
1$
b1101 #
b1101 '
b1101 3
1&
#514000
b101x 1
x!
b110 0
02
0%
0&
#516000
b100 0
b1xx 1
0$
b110 4
b101x #
b101x '
b101x 3
1&
#518000
b1 ,
b10001 .
0&
#520000
b0 0
b1xxx 1
b100 4
b1xx #
b1xx '
b1xx 3
1&
#522000
b11 +
b100 (
0&
#524000
bx 1
b0 4
b1xxx #
b1xxx '
b1xxx 3
1&
#526000
b10 +
bx0 1
0!
b1 0
1%
0&
#528000
b11 0
bx00 1
b1 4
bx0 #
bx0 '
bx0 3
1&
#530000
b1 +
bx01 1
1!
0&
#532000
b111 0
bx011 1
b11 4
bx01 #
bx01 '
bx01 3
1&
#534000
b0 +
bx010 1
0!
0&
#536000
b100 1
12
b111 4
bx010 #
bx010 '
bx010 3
1&
#538000
b11111111111111111111111111111111 +
0&
#540000
b1000 1
1$
b100 #
b100 '
b100 3
1&
#542000
b100x 1
x!
b110 0
02
0%
0&
#544000
b100 0
b0xx 1
0$
b110 4
b100x #
b100x '
b100x 3
1&
#546000
b11 +
b0 (
b0 ,
b10010 .
0&
#548000
b0 0
b0xxx 1
b100 4
b0xx #
b0xx '
b0xx 3
1&
#550000
b10 +
b0xx0 1
0!
b1 0
1%
0&
#552000
b11 0
bx00 1
b1 4
b0xx0 #
b0xx0 '
b0xx0 3
1&
#554000
b1 +
0&
#556000
b111 0
bx000 1
b11 4
bx00 #
bx00 '
bx00 3
1&
#558000
b0 +
0&
#560000
b0 1
12
b111 4
bx000 #
bx000 '
bx000 3
1&
#562000
b11111111111111111111111111111111 +
0&
#564000
1$
b0 #
b0 '
b0 3
1&
#566000
b0x 1
x!
b110 0
02
0%
0&
#568000
b100 0
b0xx 1
0$
b110 4
b0x #
b0x '
b0x 3
1&
#570000
b11 +
b1011 (
b10011 .
0&
#572000
b0 0
b0xxx 1
b100 4
b0xx #
b0xx '
b0xx 3
1&
#574000
b10 +
b0xx1 1
1!
b1 0
1%
0&
#576000
b11 0
bx11 1
b1 4
b0xx1 #
b0xx1 '
b0xx1 3
1&
#578000
b1 +
bx10 1
0!
0&
#580000
b111 0
bx100 1
b11 4
bx10 #
bx10 '
bx10 3
1&
#582000
b0 +
bx101 1
1!
0&
#584000
b1011 1
12
b111 4
bx101 #
bx101 '
bx101 3
1&
#586000
b11111111111111111111111111111111 +
0&
#588000
b111 1
1$
b1011 #
b1011 '
b1011 3
1&
#590000
b11x 1
x!
b110 0
02
0%
0&
#592000
b100 0
b11xx 1
0$
b110 4
b11x #
b11x '
b11x 3
1&
#594000
b1 ,
b10100 .
0&
#596000
b0 0
b1xxx 1
b100 4
b11xx #
b11xx '
b11xx 3
1&
#598000
b11 +
b0 (
0&
#600000
bx 1
b0 4
b1xxx #
b1xxx '
b1xxx 3
1&
#602000
b10 +
bx0 1
0!
b1 0
1%
0&
#604000
b11 0
bx00 1
b1 4
bx0 #
bx0 '
bx0 3
1&
#606000
b1 +
0&
#608000
b111 0
bx000 1
b11 4
bx00 #
bx00 '
bx00 3
1&
#610000
b0 +
0&
#612000
b0 1
12
b111 4
bx000 #
bx000 '
bx000 3
1&
#614000
b11111111111111111111111111111111 +
0&
#616000
1$
b0 #
b0 '
b0 3
1&
#618000
b0x 1
x!
b110 0
02
0%
0&
#620000
b100 0
b0xx 1
0$
b110 4
b0x #
b0x '
b0x 3
1&
#622000
b10101 .
0&
#624000
b0 0
b0xxx 1
b100 4
b0xx #
b0xx '
b0xx 3
1&
#626000
b11 +
b1000 (
0&
#628000
bx 1
b0 4
b0xxx #
b0xxx '
b0xxx 3
1&
#630000
b10 +
bx1 1
1!
b1 0
1%
0&
#632000
b11 0
bx11 1
b1 4
bx1 #
bx1 '
bx1 3
1&
#634000
b1 +
bx10 1
0!
0&
#636000
b111 0
bx100 1
b11 4
bx10 #
bx10 '
bx10 3
1&
#638000
b0 +
0&
#640000
b1000 1
12
b111 4
bx100 #
bx100 '
bx100 3
1&
#642000
b11111111111111111111111111111111 +
0&
#644000
b0 1
1$
b1000 #
b1000 '
b1000 3
1&
#646000
b0x 1
x!
b110 0
02
0%
0&
#648000
b100 0
b0xx 1
0$
b110 4
b0x #
b0x '
b0x 3
1&
#650000
b10110 .
0&
#652000
b0 0
b0xxx 1
b100 4
b0xx #
b0xx '
b0xx 3
1&
#654000
b11 +
b1001 (
0&
#656000
bx 1
b0 4
b0xxx #
b0xxx '
b0xxx 3
1&
#658000
b10 +
bx1 1
1!
b1 0
1%
0&
#660000
b11 0
bx11 1
b1 4
bx1 #
bx1 '
bx1 3
1&
#662000
b1 +
bx10 1
0!
0&
#664000
b111 0
bx100 1
b11 4
bx10 #
bx10 '
bx10 3
1&
#666000
b0 +
0&
#668000
b1000 1
12
b111 4
bx100 #
bx100 '
bx100 3
1&
#670000
b11111111111111111111111111111111 +
b1001 1
1!
0&
#672000
b11 1
1$
b1001 #
b1001 '
b1001 3
1&
#674000
b1x 1
x!
b110 0
02
0%
0&
#676000
b100 0
b1xx 1
0$
b110 4
b1x #
b1x '
b1x 3
1&
#678000
b10 ,
b10111 .
0&
#680000
b0 0
b1xxx 1
b100 4
b1xx #
b1xx '
b1xx 3
1&
#682000
0&
#684000
bx 1
b0 4
b1xxx #
b1xxx '
b1xxx 3
1&
#686000
b11 +
b110 (
0&
#688000
bx #
bx '
bx 3
1&
#690000
b10 +
bx0 1
0!
b1 0
1%
0&
#692000
b11 0
bx00 1
b1 4
bx0 #
bx0 '
bx0 3
1&
#694000
b1 +
bx01 1
1!
0&
#696000
b111 0
bx011 1
b11 4
bx01 #
bx01 '
bx01 3
1&
#698000
b0 +
0&
#700000
b111 1
12
b111 4
bx011 #
bx011 '
bx011 3
1&
#702000
b11111111111111111111111111111111 +
b110 1
0!
0&
#704000
b1100 1
1$
b110 #
b110 '
b110 3
1&
#706000
b110x 1
x!
b110 0
02
0%
0&
#708000
b100 0
b10xx 1
0$
b110 4
b110x #
b110x '
b110x 3
1&
#710000
b11 +
b1111 (
b0 ,
b11000 .
0&
#712000
b0 0
b0xxx 1
b100 4
b10xx #
b10xx '
b10xx 3
1&
#714000
b10 +
b0xx1 1
1!
b1 0
1%
0&
#716000
b11 0
bx11 1
b1 4
b0xx1 #
b0xx1 '
b0xx1 3
1&
#718000
b1 +
0&
#720000
b111 0
bx111 1
b11 4
bx11 #
bx11 '
bx11 3
1&
#722000
b0 +
0&
#724000
b1111 1
12
b111 4
bx111 #
bx111 '
bx111 3
1&
#726000
b11111111111111111111111111111111 +
0&
#728000
1$
b1111 #
b1111 '
b1111 3
1&
#730000
b111x 1
x!
b110 0
02
0%
0&
#732000
b100 0
b11xx 1
0$
b110 4
b111x #
b111x '
b111x 3
1&
#734000
b11 ,
b11001 .
0&
#736000
b0 0
b1xxx 1
b100 4
b11xx #
b11xx '
b11xx 3
1&
#738000
0&
#740000
bx 1
b0 4
b1xxx #
b1xxx '
b1xxx 3
1&
#742000
0&
#744000
bx #
bx '
bx 3
1&
#746000
b11 +
b1010 (
0&
#748000
1&
#750000
b10 +
bx1 1
1!
b1 0
1%
0&
#752000
b11 0
bx11 1
b1 4
bx1 #
bx1 '
bx1 3
1&
#754000
b1 +
bx10 1
0!
0&
#756000
b111 0
bx100 1
b11 4
bx10 #
bx10 '
bx10 3
1&
#758000
b0 +
bx101 1
1!
0&
#760000
b1011 1
12
b111 4
bx101 #
bx101 '
bx101 3
1&
#762000
b11111111111111111111111111111111 +
b1010 1
0!
0&
#764000
b100 1
1$
b1010 #
b1010 '
b1010 3
1&
#766000
b10x 1
x!
b110 0
02
0%
0&
#768000
b100 0
b10xx 1
0$
b110 4
b10x #
b10x '
b10x 3
1&
#770000
b1 ,
b11010 .
0&
#772000
b0 0
b0xxx 1
b100 4
b10xx #
b10xx '
b10xx 3
1&
#774000
b11 +
b1011 (
0&
#776000
bx 1
b0 4
b0xxx #
b0xxx '
b0xxx 3
1&
#778000
b10 +
bx1 1
1!
b1 0
1%
0&
#780000
b11 0
bx11 1
b1 4
bx1 #
bx1 '
bx1 3
1&
#782000
b1 +
bx10 1
0!
0&
#784000
b111 0
bx100 1
b11 4
bx10 #
bx10 '
bx10 3
1&
#786000
b0 +
bx101 1
1!
0&
#788000
b1011 1
12
b111 4
bx101 #
bx101 '
bx101 3
1&
#790000
b11111111111111111111111111111111 +
0&
#792000
b111 1
1$
b1011 #
b1011 '
b1011 3
1&
#794000
b11x 1
x!
b110 0
02
0%
0&
#796000
b100 0
b11xx 1
0$
b110 4
b11x #
b11x '
b11x 3
1&
#798000
b11011 .
0&
#800000
b0 0
b1xxx 1
b100 4
b11xx #
b11xx '
b11xx 3
1&
#802000
b11 +
b1111 (
0&
#804000
bx 1
b0 4
b1xxx #
b1xxx '
b1xxx 3
1&
#806000
b10 +
bx1 1
1!
b1 0
1%
0&
#808000
b11 0
bx11 1
b1 4
bx1 #
bx1 '
bx1 3
1&
#810000
b1 +
0&
#812000
b111 0
bx111 1
b11 4
bx11 #
bx11 '
bx11 3
1&
#814000
b0 +
0&
#816000
b1111 1
12
b111 4
bx111 #
bx111 '
bx111 3
1&
#818000
b11111111111111111111111111111111 +
0&
#820000
1$
b1111 #
b1111 '
b1111 3
1&
#822000
b111x 1
x!
b110 0
02
0%
0&
#824000
b100 0
b11xx 1
0$
b110 4
b111x #
b111x '
b111x 3
1&
#826000
b11 ,
b11100 .
0&
#828000
b0 0
b1xxx 1
b100 4
b11xx #
b11xx '
b11xx 3
1&
#830000
0&
#832000
bx 1
b0 4
b1xxx #
b1xxx '
b1xxx 3
1&
#834000
0&
#836000
bx #
bx '
bx 3
1&
#838000
b11 +
b1110 (
0&
#840000
1&
#842000
b10 +
bx1 1
1!
b1 0
1%
0&
#844000
b11 0
bx11 1
b1 4
bx1 #
bx1 '
bx1 3
1&
#846000
b1 +
0&
#848000
b111 0
bx111 1
b11 4
bx11 #
bx11 '
bx11 3
1&
#850000
b0 +
0&
#852000
b1111 1
12
b111 4
bx111 #
bx111 '
bx111 3
1&
#854000
b11111111111111111111111111111111 +
b1110 1
0!
0&
#856000
b1100 1
1$
b1110 #
b1110 '
b1110 3
1&
#858000
b110x 1
x!
b110 0
02
0%
0&
#860000
b100 0
b10xx 1
0$
b110 4
b110x #
b110x '
b110x 3
1&
#862000
b11101 .
0&
#864000
b0 0
b0xxx 1
b100 4
b10xx #
b10xx '
b10xx 3
1&
#866000
0&
#868000
bx 1
b0 4
b0xxx #
b0xxx '
b0xxx 3
1&
#870000
0&
#872000
bx #
bx '
bx 3
1&
#874000
b11 +
b101 (
0&
#876000
1&
#878000
b10 +
bx0 1
0!
b1 0
1%
0&
#880000
b11 0
bx00 1
b1 4
bx0 #
bx0 '
bx0 3
1&
#882000
b1 +
bx01 1
1!
0&
#884000
b111 0
bx011 1
b11 4
bx01 #
bx01 '
bx01 3
1&
#886000
b0 +
bx010 1
0!
0&
#888000
b100 1
12
b111 4
bx010 #
bx010 '
bx010 3
1&
#890000
b11111111111111111111111111111111 +
b101 1
1!
0&
#892000
b1011 1
1$
b101 #
b101 '
b101 3
1&
#894000
b101x 1
x!
b110 0
02
0%
0&
#896000
b100 0
b1xx 1
0$
b110 4
b101x #
b101x '
b101x 3
1&
#898000
b10 ,
b11110 .
0&
#900000
b0 0
b1xxx 1
b100 4
b1xx #
b1xx '
b1xx 3
1&
#902000
0&
#904000
bx 1
b0 4
b1xxx #
b1xxx '
b1xxx 3
1&
#906000
b11 +
b0 (
0&
#908000
bx #
bx '
bx 3
1&
#910000
b10 +
bx0 1
0!
b1 0
1%
0&
#912000
b11 0
bx00 1
b1 4
bx0 #
bx0 '
bx0 3
1&
#914000
b1 +
0&
#916000
b111 0
bx000 1
b11 4
bx00 #
bx00 '
bx00 3
1&
#918000
b0 +
0&
#920000
b0 1
12
b111 4
bx000 #
bx000 '
bx000 3
1&
#922000
b11111111111111111111111111111111 +
0&
#924000
1$
b0 #
b0 '
b0 3
1&
#926000
b0x 1
x!
b110 0
02
0%
0&
#928000
b100 0
b0xx 1
0$
b110 4
b0x #
b0x '
b0x 3
1&
#930000
b11 +
b1100 (
b0 ,
b11111 .
0&
#932000
b0 0
b0xxx 1
b100 4
b0xx #
b0xx '
b0xx 3
1&
#934000
b10 +
b0xx1 1
1!
b1 0
1%
0&
#936000
b11 0
bx11 1
b1 4
b0xx1 #
b0xx1 '
b0xx1 3
1&
#938000
b1 +
0&
#940000
b111 0
bx111 1
b11 4
bx11 #
bx11 '
bx11 3
1&
#942000
b0 +
bx110 1
0!
0&
#944000
b1100 1
12
b111 4
bx110 #
bx110 '
bx110 3
1&
#946000
b11111111111111111111111111111111 +
0&
#948000
b1000 1
1$
b1100 #
b1100 '
b1100 3
1&
#950000
b100x 1
x!
b110 0
02
0%
0&
#952000
b100 0
b0xx 1
0$
b110 4
b100x #
b100x '
b100x 3
1&
#954000
b10 ,
b100000 .
0&
#956000
b0 0
b0xxx 1
b100 4
b0xx #
b0xx '
b0xx 3
1&
#958000
0&
#960000
bx 1
b0 4
b0xxx #
b0xxx '
b0xxx 3
1&
#962000
b11 +
b1 (
0&
#964000
bx #
bx '
bx 3
1&
#966000
b10 +
bx0 1
0!
b1 0
1%
0&
#968000
b11 0
bx00 1
b1 4
bx0 #
bx0 '
bx0 3
1&
#970000
b1 +
0&
#972000
b111 0
bx000 1
b11 4
bx00 #
bx00 '
bx00 3
1&
#974000
b0 +
0&
#976000
b0 1
12
b111 4
bx000 #
bx000 '
bx000 3
1&
#978000
b11111111111111111111111111111111 +
b1 1
1!
0&
#980000
b11 1
1$
b1 #
b1 '
b1 3
1&
