Lab/Lab07/02_REPORT/WAVEFORM.vcd
$date
	Fri Aug 23 14:39:58 2024
$end
$version
	Icarus Verilog
$end
$timescale
	1ps
$end
$scope module TESTBED $end
$var wire 1 ! rst_n $end
$var wire 1 " out_valid $end
$var wire 96 # out [95:0] $end
$var wire 1 $ in_valid $end
$var wire 48 % in_4 [47:0] $end
$var wire 48 & in_3 [47:0] $end
$var wire 48 ' in_2 [47:0] $end
$var wire 48 ( in_1 [47:0] $end
$var wire 1 ) clk $end
$scope module I_PATTERN $end
$var wire 1 " out_valid $end
$var wire 96 * out [95:0] $end
$var reg 48 + AB [47:0] $end
$var reg 48 , CD [47:0] $end
$var reg 1 ) clk $end
$var reg 48 - in_1 [47:0] $end
$var reg 48 . in_2 [47:0] $end
$var reg 48 / in_3 [47:0] $end
$var reg 48 0 in_4 [47:0] $end
$var reg 1 $ in_valid $end
$var reg 1 ! rst_n $end
$var real 1 1 CYCLE $end
$var integer 32 2 PATNUM [31:0] $end
$var integer 32 3 cnt [31:0] $end
$var integer 32 4 gap [31:0] $end
$var integer 32 5 patcount [31:0] $end
$var integer 32 6 seed [31:0] $end
$scope task YOU_PASS_task $end
$upscope $end
$scope task check_ans $end
$upscope $end
$scope task delay_task $end
$upscope $end
$scope task fail $end
$upscope $end
$scope task input_cal_task $end
$upscope $end
$scope task reset_task $end
$upscope $end
$upscope $end
$scope module I_P_MUL $end
$var wire 1 ) clk $end
$var wire 48 7 in_1 [47:0] $end
$var wire 48 8 in_2 [47:0] $end
$var wire 48 9 in_3 [47:0] $end
$var wire 48 : in_4 [47:0] $end
$var wire 1 $ in_valid $end
$var wire 1 ! rst_n $end
$var wire 1 ; valid $end
$var wire 48 < max_2_comb [47:0] $end
$var wire 48 = max_1_comb [47:0] $end
$var reg 12 > PA1 [11:0] $end
$var reg 12 ? PA2 [11:0] $end
$var reg 12 @ PA3 [11:0] $end
$var reg 12 A PA4 [11:0] $end
$var reg 12 B PB1 [11:0] $end
$var reg 12 C PB2 [11:0] $end
$var reg 12 D PB3 [11:0] $end
$var reg 12 E PB4 [11:0] $end
$var reg 48 F in_1_reg_1 [47:0] $end
$var reg 48 G in_2_reg_1 [47:0] $end
$var reg 48 H in_3_reg_1 [47:0] $end
$var reg 48 I in_4_reg_1 [47:0] $end
$var reg 1 J in_valid_reg_1 $end
$var reg 1 K in_valid_reg_2 $end
$var reg 1 L in_valid_reg_3 $end
$var reg 48 M max_1 [47:0] $end
$var reg 48 N max_2 [47:0] $end
$var reg 96 O mult11 [95:0] $end
$var reg 96 P mult11_comb [95:0] $end
$var reg 96 Q mult12 [95:0] $end
$var reg 96 R mult12_comb [95:0] $end
$var reg 96 S mult13 [95:0] $end
$var reg 96 T mult13_comb [95:0] $end
$var reg 96 U mult14 [95:0] $end
$var reg 96 V mult14_comb [95:0] $end
$var reg 96 W mult21 [95:0] $end
$var reg 96 X mult21_comb [95:0] $end
$var reg 96 Y mult22 [95:0] $end
$var reg 96 Z mult22_comb [95:0] $end
$var reg 96 [ mult23 [95:0] $end
$var reg 96 \ mult23_comb [95:0] $end
$var reg 96 ] mult24 [95:0] $end
$var reg 96 ^ mult24_comb [95:0] $end
$var reg 96 _ mult31 [95:0] $end
$var reg 96 ` mult31_comb [95:0] $end
$var reg 96 a mult32 [95:0] $end
$var reg 96 b mult32_comb [95:0] $end
$var reg 96 c mult33 [95:0] $end
$var reg 96 d mult33_comb [95:0] $end
$var reg 96 e mult34 [95:0] $end
$var reg 96 f mult34_comb [95:0] $end
$var reg 96 g mult41 [95:0] $end
$var reg 96 h mult41_comb [95:0] $end
$var reg 96 i mult42 [95:0] $end
$var reg 96 j mult42_comb [95:0] $end
$var reg 96 k mult43 [95:0] $end
$var reg 96 l mult43_comb [95:0] $end
$var reg 96 m mult44 [95:0] $end
$var reg 96 n mult44_comb [95:0] $end
$var reg 96 o out [95:0] $end
$var reg 1 " out_valid $end
$var reg 96 p sum_comb [95:0] $end
$scope begin init_ff $end
$upscope $end
$scope begin max_ff $end
$upscope $end
$scope begin mult_comb_1 $end
$upscope $end
$scope begin out_ff $end
$upscope $end
$upscope $end
$upscope $end
$enddefinitions $end
$comment Show the parameter values. $end
$dumpall
$end
#0
$dumpvars
bx p
bx o
bx n
bx m
bx l
bx k
bx j
bx i
bx h
bx g
bx f
bx e
bx d
bx c
bx b
bx a
bx `
bx _
bx ^
bx ]
bx \
bx [
bx Z
bx Y
bx X
bx W
bx V
bx U
bx T
bx S
bx R
bx Q
bx P
bx O
bx N
bx M
xL
xK
xJ
bx I
bx H
bx G
bx F
bx E
bx D
bx C
bx B
bx A
bx @
bx ?
bx >
bx =
bx <
0;
b0 :
b0 9
b0 8
b0 7
b1010111 6
bx 5
bx 4
b0 3
b1111101000 2
r4.5 1
b0 0
b0 /
b0 .
b0 -
bx ,
bx +
bx *
0)
b0 (
b0 '
b0 &
b0 %
0$
bx #
x"
1!
$end
#500
b0 n
b0 f
b0 ^
b0 V
b0 l
b0 d
b0 \
b0 T
b0 j
b0 b
b0 Z
b0 R
b0 h
b0 `
b0 X
b0 P
b0 E
b0 D
b0 C
b0 B
b0 A
b0 @
b0 ?
b0 >
b0 <
b0 =
b0 p
b0 #
b0 *
b0 o
0"
b0 N
b0 M
0K
b0 I
b0 H
b0 G
b0 F
0J
b0 m
b0 e
b0 ]
b0 U
b0 k
b0 c
b0 [
b0 S
b0 i
b0 a
b0 Y
b0 Q
b0 g
b0 _
b0 W
b0 O
0L
0!
#2250
0)
#15000
1!
#18000
b11 4
1)
#20250
0)
#22500
1)
#24750
0)
#27000
1)
#29250
b100110011000110100000110101110010111101100001101 ,
b10111101000000100010010000101010011010100100100 +
b10100100001001010110010110000101000010001100101 %
b10100100001001010110010110000101000010001100101 0
b10100100001001010110010110000101000010001100101 :
b100110011000110100000110101110010111101100001101 &
b100110011000110100000110101110010111101100001101 /
b100110011000110100000110101110010111101100001101 9
b10101100110001110000100100001001101011000001001 '
b10101100110001110000100100001001101011000001001 .
b10101100110001110000100100001001101011000001001 8
b10111101000000100010010000101010011010100100100 (
b10111101000000100010010000101010011010100100100 -
b10111101000000100010010000101010011010100100100 7
b0 5
1;
1$
0)
#31500
b100110011000110100000110101110010111101100001101 <
b10111101000000100010010000101010011010100100100 =
b10100100001001010110010110000101000010001100101 I
b100110011000110100000110101110010111101100001101 H
b10101100110001110000100100001001101011000001001 G
b10111101000000100010010000101010011010100100100 F
1J
1)
#33750
b111101111000110001110110110101000101011111101101 ,
b10011010011110100111011001000111111000101110110 +
b1001001100011001111100111111011110100111111001 %
b1001001100011001111100111111011110100111111001 0
b1001001100011001111100111111011110100111111001 :
b111101111000110001110110110101000101011111101101 &
b111101111000110001110110110101000101011111101101 /
b111101111000110001110110110101000101011111101101 9
b10011010011110100111011001000111111000101110110 '
b10011010011110100111011001000111111000101110110 .
b10011010011110100111011001000111111000101110110 8
b10011010000110100000000111100111110001100000001 (
b10011010000110100000000111100111110001100000001 -
b10011010000110100000000111100111110001100000001 7
b1 5
0)
#36000
b1110001010100111000000 n
b10100100010010110000 f
b11001011010001001000 ^
b1100010101000101100000 V
b10011001110101101110000 l
b11011111000001101100 d
b100010011111011110010 \
b10000101111001011011000 T
b10001000111001111011000 j
b11000110011110011110 b
b11110101100011110101 Z
b1110111001010000111100 R
b10000010100010011001000 h
b10111101001111101010 `
b11101010001000110111 X
b1110001100111011010100 P
b100110011000 E
b110100000110 D
b101110010111 C
b101100001101 B
b10111101000 A
b100010010 @
b101010011 ?
b10100100100 >
b111101111000110001110110110101000101011111101101 <
b10011010011110100111011001000111111000101110110 =
b100110011000110100000110101110010111101100001101 N
b10111101000000100010010000101010011010100100100 M
1K
b1001001100011001111100111111011110100111111001 I
b111101111000110001110110110101000101011111101101 H
b10011010011110100111011001000111111000101110110 G
b10011010000110100000000111100111110001100000001 F
1)
#38250
b110110111000111110001001001100101101011000010010 ,
b11100100111011101110010101011111111011111100101 +
b101101100111001111001001100000110100111110010 %
b101101100111001111001001100000110100111110010 0
b101101100111001111001001100000110100111110010 :
b110110111000111110001001001100101101011000010010 &
b110110111000111110001001001100101101011000010010 /
b110110111000111110001001001100101101011000010010 9
b11100100111011101110010101011111111011111100101 '
b11100100111011101110010101011111111011111100101 .
b11100100111011101110010101011111111011111100101 8
b10100101010101011100010111101111000010011000101 (
b10100101010101011100010111101111000010011000101 -
b10100101010101011100010111101111000010011000101 7
b10 5
0)
#40500
b10010101001111111101000 n
b110011001010100010101000 f
b1000101011111010001000 ^
b101101001100101010000 V
b1111000001110101000010 l
b101001001101110100110010 d
b110111111110100001010 \
b100100011010001100100 T
b10000000000001111011111 j
b101011111000111111100111 b
b111011100110111111011 Z
b100110110001011001110 R
b1001100011110001010111 h
b11010001101110010011111 `
b100011100110101010011 X
b10111001010000111110 P
b111101111000 E
b110001110110 D
b110101000101 C
b11111101101 B
b10011010011 A
b110100111011 @
b1000111111 ?
b101110110 >
b110110111000111110001001001100101101011000010010 <
b11100100111011101110010101011111111011111100101 =
b1110001010111100110011011000010010000110010000001010011010010001011010100111111111111011010100 p
b111101111000110001110110110101000101011111101101 N
b10011010011110100111011001000111111000101110110 M
b101101100111001111001001100000110100111110010 I
b110110111000111110001001001100101101011000010010 H
b11100100111011101110010101011111111011111100101 G
b10100101010101011100010111101111000010011000101 F
b1110001010100111000000 m
b10100100010010110000 e
b11001011010001001000 ]
b1100010101000101100000 U
b10011001110101101110000 k
b11011111000001101100 c
b100010011111011110010 [
b10000101111001011011000 S
b10001000111001111011000 i
b11000110011110011110 a
b11110101100011110101 Y
b1110111001010000111100 Q
b10000010100010011001000 g
b10111101001111101010 _
b11101010001000110111 W
b1110001100111011010100 O
1L
1)
#42750
b1001100110010110010110101010110101100000101101 ,
b10011101100010111110100000000000111101011101000 +
b1110000101010110001111011110110001001100011 %
b1110000101010110001111011110110001001100011 0
b1110000101010110001111011110110001001100011 :
b1001100110010110010110101010110101100000101101 &
b1001100110010110010110101010110101100000101101 /
b1001100110010110010110101010110101100000101101 9
b1010001011110100101110010110000100100101011100 '
b1010001011110100101110010110000100100101011100 .
b1010001011110100101110010110000100100101011100 8
b10011101100010111110100000000000111101011101000 (
b10011101100010111110100000000000111101011101000 -
b10011101100010111110100000000000111101011101000 7
b11 5
0)
#45000
b11000100001111100001000 n
b11001100010001111110000 f
b100101101101101001001000 ^
b11011000100110110011000 V
b11011110001110011011111 l
b11100111010101000000010 d
b101010101101001101110111 \
b11110101010010010001101 T
b101101011011011011011 j
b101111010010100001010 b
b1000101110101111010011 Z
b110010001001001000001 R
b1010110110101010111110 h
b1011010011001000000100 `
b10000101011111111101110 X
b1011111110110000011010 P
b110110111000 E
b111110001001 D
b1100101101 C
b11000010010 B
b11100100111 A
b11101110010 @
b101011111111 ?
b11111100101 >
b1001100110010110010110101010110101100000101101 <
b10011101100010111110100000000000111101011101000 =
b10010101011000001110101011001100101000000011111110000100110000101010001000011011010010000111110 p
b1110001010111100110011011000010010000110010000001010011010010001011010100111111111111011010100 #
b1110001010111100110011011000010010000110010000001010011010010001011010100111111111111011010100 *
b1110001010111100110011011000010010000110010000001010011010010001011010100111111111111011010100 o
1"
b110110111000111110001001001100101101011000010010 N
b11100100111011101110010101011111111011111100101 M
b1110000101010110001111011110110001001100011 I
b1001100110010110010110101010110101100000101101 H
b1010001011110100101110010110000100100101011100 G
b10011101100010111110100000000000111101011101000 F
b10010101001111111101000 m
b110011001010100010101000 e
b1000101011111010001000 ]
b101101001100101010000 U
b1111000001110101000010 k
b101001001101110100110010 c
b110111111110100001010 [
b100100011010001100100 S
b10000000000001111011111 i
b101011111000111111100111 a
b111011100110111111011 Y
b100110110001011001110 Q
b1001100011110001010111 g
b11010001101110010011111 _
b100011100110101010011 W
b10111001010000111110 O
1)
#47250
b1 3
b101110000001001111001011001000000011111010010110 ,
b10011001001110101010101011110000100010110101010 +
b10101100101001110000110101111000011100000001101 %
b10101100101001110000110101111000011100000001101 0
b10101100101001110000110101111000011100000001101 :
b101110000001001111001011001000000011111010010110 &
b101110000001001111001011001000000011111010010110 /
b101110000001001111001011001000000011111010010110 9
b10011001001110101010101011110000100010110101010 '
b10011001001110101010101011110000100010110101010 .
b10011001001110101010101011110000100010110101010 8
b1000010010000011000000001110110010001010000000 (
b1000010010000011000000001110110010001010000000 -
b1000010010000011000000001110110010001010000000 7
b100 5
0)
#49500
b10111100111000001000 n
b11100100011100111000 f
b1000011001010 ^
b110100010100001110000 V
b110110111111001001000 l
b1000010100000011111000 d
b10011100011010 \
b1111001110101111110000 T
b1101001011001011011100 j
b1111111011110110000100 b
b100101011110011 Z
b11101001100011000001000 R
b1010000011110101111100 h
b1100001010101111100100 `
b11100100111011 X
b10110010010101011001000 P
b1001100110 E
b10110010110 D
b101010110101 C
b100000101101 B
b10011101100 A
b10111110100 @
b111 ?
b101011101000 >
b101110000001001111001011001000000011111010010110 <
b10011001001110101010101011110000100010110101010 =
b11000100010110001011101001011100100000011001000110110000011100000100001010100101101110000011010 p
b10010101011000001110101011001100101000000011111110000100110000101010001000011011010010000111110 #
b10010101011000001110101011001100101000000011111110000100110000101010001000011011010010000111110 *
b10010101011000001110101011001100101000000011111110000100110000101010001000011011010010000111110 o
b1001100110010110010110101010110101100000101101 N
b10011101100010111110100000000000111101011101000 M
b10101100101001110000110101111000011100000001101 I
b101110000001001111001011001000000011111010010110 H
b10011001001110101010101011110000100010110101010 G
b1000010010000011000000001110110010001010000000 F
b11000100001111100001000 m
b11001100010001111110000 e
b100101101101101001001000 ]
b11011000100110110011000 U
b11011110001110011011111 k
b11100111010101000000010 c
b101010101101001101110111 [
b11110101010010010001101 S
b101101011011011011011 i
b101111010010100001010 a
b1000101110101111010011 Y
b110010001001001000001 Q
b1010110110101010111110 g
b1011010011001000000100 _
b10000101011111111101110 W
b1011111110110000011010 O
1)
#51750
b10 3
b11100101100111100001110111111111110100100011101 ,
b1111101010111010000001000101110100101000000010 +
b11001010000101000010001100001000100100100100011 %
b11001010000101000010001100001000100100100100011 0
b11001010000101000010001100001000100100100100011 :
b11100101100111100001110111111111110100100011101 &
b11100101100111100001110111111111110100100011101 /
b11100101100111100001110111111111110100100011101 9
b1111101010111010000001000101110100101000000010 '
b1111101010111010000001000101110100101000000010 .
b1111101010111010000001000101110100101000000010 8
b1010101101010100110101100111111101110101101011 (
b1010101101010100110101100111111101110101101011 -
b1010101101010100110101100111111101110101101011 7
b101 5
0)
#54000
b1101110000110001001001 n
b100110010101111011010101 f
b10101100111010110000100 ^
b10000010010100010101010 V
b100100010011001100011 l
b1100101001000101100111 d
b111001000000110101100 \
b101010111101111001110 T
b10011010000001011011 j
b110101101000111111111 b
b11110001111010001100 Z
b10110110010011111110 R
b10001011100101111000110 h
b110000100111010111001110 `
b11011011001111101011000 X
b10100101001110110011100 P
b101110000001 E
b1111001011 D
b1000000011 C
b111010010110 B
b10011001001 A
b110101010101 @
b11110000100 ?
b10110101010 >
b11100101100111100001110111111111110100100011101 <
b1111101010111010000001000101110100101000000010 =
b10111101000010100100101011100000110011000011000101101000101000010111010011010101101011001000 p
b11000100010110001011101001011100100000011001000110110000011100000100001010100101101110000011010 #
b11000100010110001011101001011100100000011001000110110000011100000100001010100101101110000011010 *
b11000100010110001011101001011100100000011001000110110000011100000100001010100101101110000011010 o
b101110000001001111001011001000000011111010010110 N
b10011001001110101010101011110000100010110101010 M
b11001010000101000010001100001000100100100100011 I
b11100101100111100001110111111111110100100011101 H
b1111101010111010000001000101110100101000000010 G
b1010101101010100110101100111111101110101101011 F
b10111100111000001000 m
b11100100011100111000 e
b1000011001010 ]
b110100010100001110000 U
b110110111111001001000 k
b1000010100000011111000 c
b10011100011010 [
b1111001110101111110000 S
b1101001011001011011100 i
b1111111011110110000100 a
b100101011110011 Y
b11101001100011000001000 Q
b1010000011110101111100 g
b1100001010101111100100 _
b11100100111011 W
b10110010010101011001000 O
1)
#56250
b11 3
b1101001101100000100000110001001011001101000001 ,
b11000011000101001111001011010001011110111110010 +
b100101000100100111100001000001111001101111000 %
b100101000100100111100001000001111001101111000 0
b100101000100100111100001000001111001101111000 :
b1101001101100000100000110001001011001101000001 &
b1101001101100000100000110001001011001101000001 /
b1101001101100000100000110001001011001101000001 9
b11000011000101001111001011010001011110111110010 '
b11000011000101001111001011010001011110111110010 .
b11000011000101001111001011010001011110111110010 8
b10011000011110011100101011100110000101011001010 (
b10011000011110011100101011100110000101011001010 -
b10011000011110011100101011100110000101011001010 7
b110 5
0)
#58500
b111000001001000111000 n
b11010000000010100101100 f
b10100110101111110000 ^
b10001111100011001011000 V
b1110101110110011001100 l
b110110100101101000001110 d
b101011110000001011000 \
b100101101010101000011100 T
b1111101001100000101100 j
b111001111111001011111110 b
b101110011110100011000 Z
b101000000000101111111100 R
b1000111010101110000010 h
b100001000010110110011101 `
b11010011111000100100 X
b10110110011010000111010 P
b11100101100 E
b111100001110 D
b111111111110 C
b100100011101 B
b1111101010 A
b111010000001 @
b101110100 ?
b101000000010 >
b1101001101100000100000110001001011001101000001 <
b11000011000101001111001011010001011110111110010 =
b1101110001011100000001111001100011001100101011011010001100011110111000100101111111110110011100 p
b10111101000010100100101011100000110011000011000101101000101000010111010011010101101011001000 #
b10111101000010100100101011100000110011000011000101101000101000010111010011010101101011001000 *
b10111101000010100100101011100000110011000011000101101000101000010111010011010101101011001000 o
b11100101100111100001110111111111110100100011101 N
b1111101010111010000001000101110100101000000010 M
b100101000100100111100001000001111001101111000 I
b1101001101100000100000110001001011001101000001 H
b11000011000101001111001011010001011110111110010 G
b10011000011110011100101011100110000101011001010 F
b1101110000110001001001 m
b100110010101111011010101 e
b10101100111010110000100 ]
b10000010010100010101010 U
b100100010011001100011 k
b1100101001000101100111 c
b111001000000110101100 [
b101010111101111001110 S
b10011010000001011011 i
b110101101000111111111 a
b11110001111010001100 Y
b10110110010011111110 Q
b10001011100101111000110 g
b110000100111010111001110 _
b11011011001111101011000 W
b10100101001110110011100 O
1)
#60750
b100 3
b110111010010101011011110011101010000001010111100 ,
b11001011011011001110101110001010000110111101011 +
b1111100111000110000101110101111001101000001011 %
b1111100111000110000101110101111001101000001011 0
b1111100111000110000101110101111001101000001011 :
b110111010010101011011110011101010000001010111100 &
b110111010010101011011110011101010000001010111100 /
b110111010010101011011110011101010000001010111100 9
b100111010111001100011010010111111100111000110 '
b100111010111001100011010010111111100111000110 .
b100111010111001100011010010111111100111000110 8
b11001011011011001110101110001010000110111101011 (
b11001011011011001110101110001010000110111101011 -
b11001011011011001110101110001010000110111101011 7
b111 5
0)
#63000
b101000001110100111000 n
b1000101001000101100101 f
b101011001100011001111 ^
b1011100000011111001010 V
b1100011000001100000000 l
b10101010001011100100000 d
b1101010010100101100000 \
b11100010100111001000000 T
b10010101110100100001000 j
b100000001011110101110011 b
b10100000110111010111001 Z
b101010110110110111100110 R
b100111101010000011000 h
b1000100001001110111001 `
b101010100101001001011 X
b1011010110000001110010 P
b1101001101 E
b100000100000 D
b110001001011 C
b1101000001 B
b11000011000 A
b101001111001 @
b11010001011 ?
b110111110010 >
b110111010010101011011110011101010000001010111100 <
b11001011011011001110101110001010000110111101011 =
b111000001110001101000010000101111010010111111100001010001111110100101111111010011010000111010 p
b1101110001011100000001111001100011001100101011011010001100011110111000100101111111110110011100 #
b1101110001011100000001111001100011001100101011011010001100011110111000100101111111110110011100 *
b1101110001011100000001111001100011001100101011011010001100011110111000100101111111110110011100 o
b1101001101100000100000110001001011001101000001 N
b11000011000101001111001011010001011110111110010 M
b1111100111000110000101110101111001101000001011 I
b110111010010101011011110011101010000001010111100 H
b100111010111001100011010010111111100111000110 G
b11001011011011001110101110001010000110111101011 F
b111000001001000111000 m
b11010000000010100101100 e
b10100110101111110000 ]
b10001111100011001011000 U
b1110101110110011001100 k
b110110100101101000001110 c
b101011110000001011000 [
b100101101010101000011100 S
b1111101001100000101100 i
b111001111111001011111110 a
b101110011110100011000 Y
b101000000000101111111100 Q
b1000111010101110000010 g
b100001000010110110011101 _
b11010011111000100100 W
b10110110011010000111010 O
1)
#65250
b101 3
b10010111101100101111000110110011001101111110001 ,
b10101010100111101000010111100100100000110000101 +
b10010111101100101111000110110011001101111110001 %
b10010111101100101111000110110011001101111110001 0
b10010111101100101111000110110011001101111110001 :
b10010110001010110111111001000110011001001111110 &
b10010110001010110111111001000110011001001111110 /
b10010110001010110111111001000110011001001111110 9
b1100110011101010011101110011000110000000111011 '
b1100110011101010011101110011000110000000111011 .
b1100110011101010011101110011000110000000111011 8
b10101010100111101000010111100100100000110000101 (
b10101010100111101000010111100100100000110000101 -
b10101010100111101000010111100100100000110000101 7
b1000 5
0)
#67500
b10101111101010110100110 n
b10110010011110011111010 f
b101010100010100110100000 ^
b110000000101100111000110 V
b10001010001000011101010 l
b10001100010101101110110 d
b100001011100110101100000 \
b100101110011111111001010 T
b1011100111100101110000 j
b1011110011011110010000 b
b10110100000100100000000 Z
b11001011100011001110000 R
b100010110000011010100 h
b100011010011111101100 `
b1000011010101011000000 X
b1001100000111010010100 P
b110111010010 E
b101011011110 D
b11101010000 C
b1010111100 B
b11001011011 A
b11001110101 @
b110001010000 ?
b110111101011 >
b10010111101100101111000110110011001101111110001 <
b10101010100111101000010111100100100000110000101 =
b101000010001001111001111110111111100001110100000011110010110010111101101100000111000001110010 p
b111000001110001101000010000101111010010111111100001010001111110100101111111010011010000111010 #
b111000001110001101000010000101111010010111111100001010001111110100101111111010011010000111010 *
b111000001110001101000010000101111010010111111100001010001111110100101111111010011010000111010 o
b110111010010101011011110011101010000001010111100 N
b11001011011011001110101110001010000110111101011 M
b10010111101100101111000110110011001101111110001 I
b10010110001010110111111001000110011001001111110 H
b1100110011101010011101110011000110000000111011 G
b10101010100111101000010111100100100000110000101 F
b101000001110100111000 m
b1000101001000101100101 e
b101011001100011001111 ]
b1011100000011111001010 U
b1100011000001100000000 k
b10101010001011100100000 c
b1101010010100101100000 [
b11100010100111001000000 S
b10010101110100100001000 i
b100000001011110101110011 a
b10100000110111010111001 Y
b101010110110110111100110 Q
b100111101010000011000 g
b1000100001001110111001 _
b101010100101001001011 W
b1011010110000001110010 O
1)
#69750
b110 3
b11000001011011101111100011011011010100111111000 ,
b11110110100110000110001001000110000011101100010 +
b101000101110011001111110001000101011010011111 %
b101000101110011001111110001000101011010011111 0
b101000101110011001111110001000101011010011111 :
b11000001011011101111100011011011010100111111000 &
b11000001011011101111100011011011010100111111000 /
b11000001011011101111100011011011010100111111000 9
b1000011000111101001111101000010101010110011111 '
b1000011000111101001111101000010101010110011111 .
b1000011000111101001111101000010101010110011111 8
b11110110100110000110001001000110000011101100010 (
b11110110100110000110001001000110000011101100010 -
b11110110100110000110001001000110000011101100010 7
b1001 5
0)
#72000
b110010011111100000100 n
b10010000100101110111010 f
b10001111011110110010100 ^
b1110011001100110001 V
b1100100111001101100000 l
b100100000111100011110000 d
b100011110101110011100000 \
b11100110001101011000 T
b10010000111001100110100 j
b110011110111100001110010 b
b110011011110000010000100 Z
b101001010100101111101 R
b1111111010000000010100 h
b101101100011001100100010 `
b101101001100110011100100 X
b100100010010100110101 P
b10010111101 E
b100101111000 D
b110110011001 C
b101111110001 B
b10101010100 A
b111101000010 @
b111100100100 ?
b110000101 >
b11000001011011101111100011011011010100111111000 <
b11110110100110000110001001000110000011101100010 =
b10101111101111110001011111111010010011011110010111110111001100100101101001110010000111010010100 p
b101000010001001111001111110111111100001110100000011110010110010111101101100000111000001110010 #
b101000010001001111001111110111111100001110100000011110010110010111101101100000111000001110010 *
b101000010001001111001111110111111100001110100000011110010110010111101101100000111000001110010 o
b10010111101100101111000110110011001101111110001 N
b10101010100111101000010111100100100000110000101 M
b101000101110011001111110001000101011010011111 I
b11000001011011101111100011011011010100111111000 H
b1000011000111101001111101000010101010110011111 G
b11110110100110000110001001000110000011101100010 F
b10101111101010110100110 m
b10110010011110011111010 e
b101010100010100110100000 ]
b110000000101100111000110 U
b10001010001000011101010 k
b10001100010101101110110 c
b100001011100110101100000 [
b100101110011111111001010 S
b1011100111100101110000 i
b1011110011011110010000 a
b10110100000100100000000 Y
b11001011100011001110000 Q
b100010110000011010100 g
b100011010011111101100 _
b1000011010101011000000 W
b1001100000111010010100 O
1)
#74250
b111 3
b111111000101000111101011111111101100000011010111 ,
b1111101101000010100100101011100011001001001001 +
b11111110000110001001011001000010010111110010110 %
b11111110000110001001011001000010010111110010110 0
b11111110000110001001011001000010010111110010110 :
b111111000101000111101011111111101100000011010111 &
b111111000101000111101011111111101100000011010111 /
b111111000101000111101011111111101100000011010111 9
b1111101101000010100100101011100011001001001001 '
b1111101101000010100100101011100011001001001001 .
b1111101101000010100100101011100011001001001001 8
b1101111000100110101101110010111100000001011011 (
b1101111000100110101101110010111100000001011011 -
b1101111000100110101101110010111100000001011011 7
b1010 5
0)
#76500
b1011101000110010111100 n
b10010011010110000011011 f
b11010011100000010000 ^
b1011001001110100110110 V
b1110011010011100110000 l
b10110110011111010111100 d
b100000101111101000000 \
b1101110100000101111000 T
b1101001100011101001000 j
b10100111000011110111010 b
b11101111110011100000 Z
b1100101001010101110100 R
b10011001100101001100000 h
b11110011000100001111000 `
b101011100111010000000 X
b10010011001100011110000 P
b11000001011 E
b11101111100 D
b11011011010 C
b100111111000 B
b11110110100 A
b110000110001 @
b1000110000 ?
b11101100010 >
b111111000101000111101011111111101100000011010111 <
b1111101101000010100100101011100011001001001001 =
b110010100011010110001000100100110010000010100000110111111001110010101011110000011010100110101 p
b10101111101111110001011111111010010011011110010111110111001100100101101001110010000111010010100 #
b10101111101111110001011111111010010011011110010111110111001100100101101001110010000111010010100 *
b10101111101111110001011111111010010011011110010111110111001100100101101001110010000111010010100 o
b11000001011011101111100011011011010100111111000 N
b11110110100110000110001001000110000011101100010 M
b11111110000110001001011001000010010111110010110 I
b111111000101000111101011111111101100000011010111 H
b1111101101000010100100101011100011001001001001 G
b1101111000100110101101110010111100000001011011 F
b110010011111100000100 m
b10010000100101110111010 e
b10001111011110110010100 ]
b1110011001100110001 U
b1100100111001101100000 k
b100100000111100011110000 c
b100011110101110011100000 [
b11100110001101011000 S
b10010000111001100110100 i
b110011110111100001110010 a
b110011011110000010000100 Y
b101001010100101111101 Q
b1111111010000000010100 g
b101101100011001100100010 _
b101101001100110011100100 W
b100100010010100110101 O
1)
#78750
b1000 3
b11001110011100100110110111001011000000101101101 ,
b11011011100100011100001001011001100111011000010 +
b11001110011100100110110111001011000000101101101 %
b11001110011100100110110111001011000000101101101 0
b11001110011100100110110111001011000000101101101 :
b111111000001001000011001101101100010010 &
b111111000001001000011001101101100010010 /
b111111000001001000011001101101100010010 9
b11011010011110110111011100000100101101001110111 '
b11011010011110110111011100000100101101001110111 .
b11011010011110110111011100000100101101001110111 8
b11011011100100011100001001011001100111011000010 (
b11011011100100011100001001011001100111011000010 -
b11011011100100011100001001011001100111011000010 7
b1011 5
0)
#81000
b1111011110100001100001 n
b10100001101000110100 f
b101010111010110110101111 ^
b1001000000100100101101 V
b1111000011110001111 l
b10011101010001100 d
b101001110000101100001 \
b1000110001000000011 T
b1111101000000101111100 j
b10100011001100110000 b
b101011010101011001000100 Z
b1001000110001001001100 R
b110100110000001011 h
b1000100110111100 `
b10010010010010100101 X
b11110101101001111 P
b111111000101 E
b111101011 D
b111111101100 C
b11010111 B
b1111101101 A
b10100100 @
b101011100011 ?
b1001001001 >
b11001110011100100110110111001011000000101101101 <
b11011011100100011100001001011001100111011000010 =
b1011101001010011110001110100011111101111101001101010001100101101010110100010001101100011110000 p
b110010100011010110001000100100110010000010100000110111111001110010101011110000011010100110101 #
b110010100011010110001000100100110010000010100000110111111001110010101011110000011010100110101 *
b110010100011010110001000100100110010000010100000110111111001110010101011110000011010100110101 o
b111111000101000111101011111111101100000011010111 N
b1111101101000010100100101011100011001001001001 M
b11001110011100100110110111001011000000101101101 I
b111111000001001000011001101101100010010 H
b11011010011110110111011100000100101101001110111 G
b11011011100100011100001001011001100111011000010 F
b1011101000110010111100 m
b10010011010110000011011 e
b11010011100000010000 ]
b1011001001110100110110 U
b1110011010011100110000 k
b10110110011111010111100 c
b100000101111101000000 [
b1101110100000101111000 S
b1101001100011101001000 i
b10100111000011110111010 a
b11101111110011100000 Y
b1100101001010101110100 Q
b10011001100101001100000 g
b11110011000100001111000 _
b101011100111010000000 W
b10010011001100011110000 O
1)
#83250
b1001 3
b10010110100100100101101110110100101100101011011 ,
b11101101101001100001111110100101000111100011111 +
b1011110010101010011111111100101010111000111111 %
b1011110010101010011111111100101010111000111111 0
b1011110010101010011111111100101010111000111111 :
b10010110100100100101101110110100101100101011011 &
b10010110100100100101101110110100101100101011011 /
b10010110100100100101101110110100101100101011011 9
b10000111100001000010110110010010111110000101 '
b10000111100001000010110110010010111110000101 .
b10000111100001000010110110010010111110000101 8
b11101101101001100001111110100101000111100011111 (
b11101101101001100001111110100101000111100011111 -
b11101101101001100001111110100101000111100011111 7
b1100 5
0)
