Lab/Lab08/02_REPORT/WAVEFORM.vcd
$date
	Fri Aug 23 15:01:20 2024
$end
$version
	Icarus Verilog
$end
$timescale
	1ps
$end
$scope module TESTBED $end
$var wire 1 ! rst_n $end
$var wire 27 " out_value [26:0] $end
$var wire 1 # out_valid $end
$var wire 2 $ mode [1:0] $end
$var wire 1 % in_valid $end
$var wire 6 & in_4 [5:0] $end
$var wire 6 ' in_3 [5:0] $end
$var wire 6 ( in_2 [5:0] $end
$var wire 6 ) in_1 [5:0] $end
$var wire 1 * clk $end
$scope module I_PATTERN $end
$var wire 27 + out_value [26:0] $end
$var wire 1 # out_valid $end
$var reg 1 * clk $end
$var reg 27 , golden_ans [26:0] $end
$var reg 6 - in_1 [5:0] $end
$var reg 6 . in_2 [5:0] $end
$var reg 6 / in_3 [5:0] $end
$var reg 6 0 in_4 [5:0] $end
$var reg 1 % in_valid $end
$var reg 6 1 mode [5:0] $end
$var reg 1 ! rst_n $end
$var real 1 2 CYCLE $end
$var integer 32 3 PATNUM [31:0] $end
$var integer 32 4 a [31:0] $end
$var integer 32 5 f_ans [31:0] $end
$var integer 32 6 f_in [31:0] $end
$var integer 32 7 input_gap [31:0] $end
$var integer 32 8 latency [31:0] $end
$var integer 32 9 patcount [31:0] $end
$var integer 32 : total_latency [31:0] $end
$scope task YOU_PASS_task $end
$upscope $end
$scope task check_ans $end
$upscope $end
$scope task delay_task $end
$upscope $end
$scope task fail $end
$upscope $end
$scope task input_task $end
$upscope $end
$scope task pass_ans $end
$upscope $end
$scope task reset_task $end
$upscope $end
$upscope $end
$scope module I_design $end
$var wire 1 * clk $end
$var wire 6 ; in_1 [5:0] $end
$var wire 6 < in_2 [5:0] $end
$var wire 6 = in_3 [5:0] $end
$var wire 6 > in_4 [5:0] $end
$var wire 1 % in_valid $end
$var wire 2 ? mode [1:0] $end
$var wire 1 ! rst_n $end
$var reg 6 @ in_1_reg_1 [5:0] $end
$var reg 6 A in_2_reg_1 [5:0] $end
$var reg 6 B in_3_reg_1 [5:0] $end
$var reg 6 C in_3_reg_2 [5:0] $end
$var reg 6 D in_4_reg_1 [5:0] $end
$var reg 6 E in_4_reg_2 [5:0] $end
$var reg 1 F in_valid_reg_1 $end
$var reg 1 G in_valid_reg_2 $end
$var reg 1 H in_valid_reg_3 $end
$var reg 2 I mode_reg_1 [1:0] $end
$var reg 2 J mode_reg_2 [1:0] $end
$var reg 2 K mode_reg_3 [1:0] $end
$var reg 12 L out_1_1 [11:0] $end
$var reg 12 M out_1_2 [11:0] $end
$var reg 12 N out_1_comb_1 [11:0] $end
$var reg 12 O out_1_comb_2 [11:0] $end
$var reg 12 P out_2_1 [11:0] $end
$var reg 12 Q out_2_comb_1 [11:0] $end
$var reg 24 R out_3_comb_1 [23:0] $end
$var reg 1 # out_valid $end
$var reg 27 S out_value [26:0] $end
$scope begin stage_1_comb $end
$upscope $end
$scope begin stage_2_comb $end
$upscope $end
$scope begin stage_3_comb $end
$upscope $end
$upscope $end
$upscope $end
$enddefinitions $end
$comment Show the parameter values. $end
$dumpall
$end
#0
$dumpvars
bx S
bx R
b1 Q
bx P
bx O
bx N
bx M
bx L
bx K
bx J
bx I
xH
xG
xF
bx E
bx D
bx C
bx B
bx A
bx @
bx ?
bx >
bx =
bx <
bx ;
b0 :
bx 9
b0 8
bx 7
b10000000000000000000000000000011 6
b10000000000000000000000000000100 5
b1 4
b1001110001000 3
r4 2
bx 1
bx 0
bx /
bx .
bx -
bx ,
bx +
0*
bx )
bx (
bx '
bx &
0%
bx $
x#
bx "
1!
$end
#500
b0 N
b0 O
b0 R
b0 D
b0 B
b0 A
b0 @
b0 I
0F
b0 L
b0 E
b0 C
b0 J
0G
b0 P
b0 M
b0 K
0H
b0 "
b0 +
b0 S
0#
0!
#2000
0*
#3500
1!
#6500
b11 7
0*
#8000
bx N
b1 P
bx D
bx B
bx A
bx @
bx I
1*
#10000
0*
#12000
bx O
bx L
bx E
bx C
bx J
bx K
1*
#14000
0*
#16000
bx R
bx M
1*
#18000
b1 7
0*
#20000
b0xxxxxxxxxxxxxxxxxxxxxxxx "
b0xxxxxxxxxxxxxxxxxxxxxxxx +
b0xxxxxxxxxxxxxxxxxxxxxxxx S
1*
#22000
b0 9
0*
#24000
1*
#26000
b0 $
b0 ?
b1 9
b1 :
b1 8
b0 1
b10111 &
b10111 0
b10111 >
b111001 '
b111001 /
b111001 =
b1100 (
b1100 .
b1100 <
b110100 )
b110100 -
b110100 ;
1%
0*
#28000
b1001110000 N
b10111 D
b111001 B
b1100 A
b110100 @
b0 I
1F
1*
#30000
b10 9
b10 :
b10 8
b110101 '
b110101 /
b110101 =
b110000 (
b110000 .
b110000 <
b11111 )
b11111 -
b11111 ;
0*
#32000
b1001110000 O
b10111010000 N
b0 K
b1001110000 L
b10111 E
b111001 C
b0 J
1G
b110101 B
b110000 A
b11111 @
1*
#34000
b1 $
b1 ?
b11 9
b11 :
b11 8
b1 1
b111011 &
b111011 0
b111011 >
b10011 '
b10011 /
b10011 =
b10111 (
b10111 .
b10111 <
b10111 )
b10111 -
b10111 ;
0*
#36000
b1001110 N
b10111010000 O
b1001110000 R
b111011 D
b10011 B
b10111 A
b10111 @
b1 I
b10111010000 L
b110101 C
b1001110000 M
1H
1*
#38000
b100 9
b100 :
b100 8
b101111 &
b101111 0
b101111 >
b10100 '
b10100 /
b10100 =
b11011 (
b11011 .
b11011 <
b100010 )
b100010 -
b100010 ;
0*
#40000
b10111010000 R
b1001110 O
b1000011 N
b1001110000 "
b1001110000 +
b1001110000 S
1#
b10111010000 M
b1 K
b1001110 L
b111011 E
b10011 C
b1 J
b101111 D
b10100 B
b11011 A
b100010 @
1*
#42000
b10 $
b10 ?
b101 9
b101 :
b1001110000 ,
b10 1
b110100 &
b110100 0
b110100 >
b101100 '
b101100 /
b101100 =
b111001 (
b111001 .
b111001 <
b110110 )
b110110 -
b110110 ;
0*
#44000
b110000000110 N
b1000011 O
b1001110 R
b110100 D
b101100 B
b111001 A
b110110 @
b10 I
b1000011 L
b101111 E
b10100 C
b1001110 M
b10111010000 "
b10111010000 +
b10111010000 S
1*
#46000
b110 9
b110 :
b10111010000 ,
b100011 &
b100011 0
b100011 >
b11111 '
b11111 /
b11111 =
b101010 (
b101010 .
b101010 <
b111100 )
b111100 -
b111100 ;
0*
#48000
b1000011 R
b100011110000 Q
b110000000110 O
b100111011000 N
b1001110 "
b1001110 +
b1001110 S
b1000011 M
b10 K
b110000000110 L
b110100 E
b101100 C
b10 J
b100011 D
b11111 B
b101010 A
b111100 @
1*
#50000
b1 $
b1 ?
b111 9
b111 :
b1001110 ,
b1 1
b10010 &
b10010 0
b10010 >
b1110 '
b1110 /
b1110 =
b11100 (
b11100 .
b11100 <
b110011 )
b110011 -
b110011 ;
0*
#52000
b100000 N
b10000111101 Q
b100111011000 O
b11010110111010110100000 R
b10010 D
b1110 B
b11100 A
b110011 @
b1 I
b100111011000 L
b100011 E
b11111 C
b100011110000 P
b110000000110 M
b1000011 "
b1000011 +
b1000011 S
1*
#54000
b1000 9
b1000 :
b1000011 ,
b11011 &
b11011 0
b11011 >
b110010 '
b110010 /
b110010 =
b11111 (
b11111 .
b11111 <
b101000 )
b101000 -
b101000 ;
0*
#56000
b1010011011100001111000 R
b1 Q
b100000 O
b1001101 N
b11010110111010110100000 "
b11010110111010110100000 +
b11010110111010110100000 S
b10000111101 P
b100111011000 M
b1 K
b100000 L
b10010 E
b1110 C
b1 J
b11011 D
b110010 B
b11111 A
b101000 @
1*
#58000
b0 $
b0 ?
b1001 9
b1001 :
b11010110111010110100000 ,
b0 1
b101001 &
b101001 0
b101001 >
b100000 '
b100000 /
b100000 =
b111110 (
b111110 .
b111110 <
b100110 )
b100110 -
b100110 ;
0*
#60000
b100100110100 N
b1001101 O
b100000 R
b101001 D
b100000 B
b111110 A
b100110 @
b0 I
b1001101 L
b11011 E
b110010 C
b1 P
b100000 M
b1010011011100001111000 "
b1010011011100001111000 +
b1010011011100001111000 S
1*
#62000
b1 $
b1 ?
b1010 9
b1010 :
b1010011011100001111000 ,
b1 1
b100110 &
b100110 0
b100110 >
b110011 '
b110011 /
b110011 =
b111001 (
b111001 .
b111001 <
b111010 )
b111010 -
b111010 ;
0*
#64000
b1001101 R
b100100110100 O
b1011001 N
b100000 "
b100000 +
b100000 S
b1001101 M
b0 K
b100100110100 L
b101001 E
b100000 C
b0 J
b100110 D
b110011 B
b111001 A
b111010 @
b1 I
1*
#66000
b0 $
b0 ?
b1011 9
b1011 :
b100000 ,
b0 1
b110001 &
b110001 0
b110001 >
b11010 '
b11010 /
b11010 =
b101100 (
b101100 .
b101100 <
b111100 )
b111100 -
b111100 ;
0*
#68000
b101001010000 N
b1011001 O
b100100110100 R
b110001 D
b11010 B
b101100 A
b111100 @
b0 I
b1011001 L
b100110 E
b110011 C
b1 J
b100100110100 M
b1 K
b1001101 "
b1001101 +
b1001101 S
1*
#70000
b10 $
b10 ?
b1100 9
b1100 :
b1001101 ,
b10 1
b110110 &
b110110 0
b110110 >
b110000 '
b110000 /
b110000 =
b10010 (
b10010 .
b10010 <
b110111 )
b110111 -
b110111 ;
0*
#72000
b1011001 R
b101001010000 O
b1111011110 N
b100100110100 "
b100100110100 +
b100100110100 S
b1011001 M
b0 K
b101001010000 L
b110001 E
b11010 C
b0 J
b110110 D
b110000 B
b10010 A
b110111 @
b10 I
1*
#74000
b1101 9
b1101 :
b100100110100 ,
b10000 &
b10000 0
b10000 >
b10010 '
b10010 /
b10010 =
b101011 (
b101011 .
b101011 <
b100010 )
b100010 -
b100010 ;
0*
#76000
b10110110110 N
b101000100000 Q
b1111011110 O
b101001010000 R
b10000 D
b10010 B
b101011 A
b100010 @
b1111011110 L
b110110 E
b110000 C
b10 J
b101001010000 M
b10 K
b1011001 "
b1011001 +
b1011001 S
1*
#78000
b0 $
b0 ?
b1110 9
b1110 :
b1011001 ,
b0 1
b110001 &
b110001 0
b110001 >
b111011 '
b111011 /
b111011 =
b10100 (
b10100 .
b10100 <
b101011 )
b101011 -
b101011 ;
0*
#80000
b1001110010011111000000 R
b100100000 Q
b10110110110 O
b1101011100 N
b101001010000 "
b101001010000 +
b101001010000 S
b101000100000 P
b1111011110 M
b10110110110 L
b10000 E
b10010 C
b110001 D
b111011 B
b10100 A
b101011 @
b0 I
1*
#82000
b10 $
b10 ?
b1111 9
b1111 :
b101001010000 ,
b10 1
b111111 &
b111111 0
b111111 >
b100100 '
b100100 /
b100100 =
b100100 (
b100100 .
b100100 <
b10100 )
b10100 -
b10100 ;
0*
#84000
b1011010000 N
b1 Q
b1101011100 O
b1100110110011000000 R
b111111 D
b100100 B
b100100 A
b10100 @
b10 I
b1101011100 L
b110001 E
b111011 C
b0 J
b100100000 P
b10110110110 M
b0 K
b1001110010011111000000 "
b1001110010011111000000 +
b1001110010011111000000 S
1*
#86000
b0 $
b0 ?
b10000 9
b10000 :
b1001110010011111000000 ,
b0 1
b111110 &
b111110 0
b111110 >
b11110 '
b11110 /
b11110 =
b11111 (
b11111 .
b11111 <
b110101 )
b110101 -
b110101 ;
0*
#88000
b1101011100 R
b100011011100 Q
b1011010000 O
b11001101011 N
b1100110110011000000 "
b1100110110011000000 +
b1100110110011000000 S
b1 P
b1101011100 M
b10 K
b1011010000 L
b111111 E
b100100 C
b10 J
b111110 D
b11110 B
b11111 A
b110101 @
b0 I
1*
#90000
b10 $
b10 ?
b10001 9
b10001 :
b1100110110011000000 ,
b10 1
b11110 &
b11110 0
b11110 >
b100001 '
b100001 /
b100001 =
b10100 (
b10100 .
b10100 <
b111111 )
b111111 -
b111111 ;
0*
#92000
b10011101100 N
b1 Q
b11001101011 O
b110001110101011000000 R
b11110 D
b100001 B
b10100 A
b111111 @
b10 I
b11001101011 L
b111110 E
b11110 C
b0 J
b100011011100 P
b1011010000 M
b0 K
b1101011100 "
b1101011100 +
b1101011100 S
1*
#94000
b1 $
b1 ?
b10010 9
b10010 :
b1101011100 ,
b1 1
b111110 &
b111110 0
b111110 >
b101101 '
b101101 /
b101101 =
b11000 (
b11000 .
b11000 <
b100111 )
b100111 -
b100111 ;
0*
#96000
b11001101011 R
b1111011110 Q
b10011101100 O
b1101011 N
b110001110101011000000 "
b110001110101011000000 +
b110001110101011000000 S
b1 P
b11001101011 M
b10 K
b10011101100 L
b11110 E
b100001 C
b10 J
b111110 D
b101101 B
b11000 A
b100111 @
b1 I
1*
#98000
b10 $
b10 ?
b10011 9
b10011 :
b110001110101011000000 ,
b10 1
b101101 &
b101101 0
b101101 >
b111011 '
b111011 /
b111011 =
b101110 (
b101110 .
b101110 <
b1100 )
b1100 -
b1100 ;
0*
#100000
b1000101000 N
b1 Q
b1101011 O
b100110000100010101000 R
b101101 D
b111011 B
b101110 A
b1100 @
b10 I
b1101011 L
b111110 E
b101101 C
b1 J
b1111011110 P
b10011101100 M
b1 K
b11001101011 "
b11001101011 +
b11001101011 S
1*
#102000
b10100 9
b10100 :
b11001101011 ,
b110101 &
b110101 0
b110101 >
b101110 '
b101110 /
b101110 =
b111111 (
b111111 .
b111111 <
b111100 )
b111100 -
b111100 ;
0*
#104000
b1101011 R
b101001011111 Q
b1000101000 O
b111011000100 N
b100110000100010101000 "
b100110000100010101000 +
b100110000100010101000 S
b1 P
b1101011 M
b10 K
b1000101000 L
b101101 E
b111011 C
b10 J
b110101 D
b101110 B
b111111 A
b111100 @
1*
#106000
b1 $
b1 ?
b10101 9
b10101 :
b100110000100010101000 ,
b1 1
b111000 &
b111000 0
b111000 >
b11000 '
b11000 /
b11000 =
b11000 (
b11000 .
b11000 <
b101111 )
b101111 -
b101111 ;
0*
#108000
b1010000 N
b100110000110 Q
b111011000100 O
b101100101110011011000 R
b111000 D
b11000 B
b11000 A
b101111 @
b1 I
b111011000100 L
b110101 E
b101110 C
b101001011111 P
b1000101000 M
b1101011 "
b1101011 +
b1101011 S
1*
#110000
b0 $
b0 ?
b10110 9
b10110 :
b1101011 ,
b0 1
b101110 &
b101110 0
b101110 >
b110110 '
b110110 /
b110110 =
b11111 (
b11111 .
b11111 <
b110011 )
b110011 -
b110011 ;
0*
#112000
b100011001001111010011000 R
b1 Q
b1010000 O
b11000101101 N
b101100101110011011000 "
b101100101110011011000 +
b101100101110011011000 S
b100110000110 P
b111011000100 M
b1 K
b1010000 L
b111000 E
b11000 C
b1 J
b101110 D
b110110 B
b11111 A
b110011 @
b0 I
1*
#114000
b10 $
b10 ?
b10111 9
b10111 :
b101100101110011011000 ,
b10 1
b101101 &
b101101 0
b101101 >
b10101 '
b10101 /
b10101 =
b11100 (
b11100 .
b11100 <
b101101 )
b101101 -
b101101 ;
0*
#116000
b10011101100 N
b11000101101 O
b1010000 R
b101101 D
b10101 B
b11100 A
b101101 @
b10 I
b11000101101 L
b101110 E
b110110 C
b0 J
b1 P
b1010000 M
b0 K
b100011001001111010011000 "
b100011001001111010011000 +
b100011001001111010011000 S
1*
#118000
b11000 9
b11000 :
b100011001001111010011000 ,
b1100 &
b1100 0
b1100 >
b110110 '
b110110 /
b110110 =
b101101 (
b101101 .
b101101 <
b110100 )
b110100 -
b110100 ;
0*
#120000
b11000101101 R
b1110110001 Q
b10011101100 O
b100100100100 N
b1010000 "
b1010000 +
b1010000 S
b11000101101 M
b10 K
b10011101100 L
b101101 E
b10101 C
b10 J
b1100 D
b110110 B
b101101 A
b110100 @
1*
#122000
b11001 9
b11001 :
b1010000 ,
b110000 &
b110000 0
b110000 >
b11011 '
b11011 /
b11011 =
b100010 (
b100010 .
b100010 <
b1101 )
b1101 -
b1101 ;
0*
#124000
b110111010 N
b1010001000 Q
b100100100100 O
b100100010101100101100 R
b110000 D
b11011 B
b100010 A
b1101 @
b100100100100 L
b1100 E
b110110 C
b1110110001 P
b10011101100 M
b11000101101 "
b11000101101 +
b11000101101 S
1*
#126000
b0 $
b0 ?
b11010 9
b11010 :
b11000101101 ,
b0 1
b100010 &
b100010 0
b100010 >
b100010 '
b100010 /
b100010 =
b110010 (
b110010 .
b110010 <
b111110 )
b111110 -
b111110 ;
0*
#128000
b101110010001100100000 R
b10100010000 Q
b110111010 O
b110000011100 N
b100100010101100101100 "
b100100010101100101100 +
b100100010101100101100 S
b1010001000 P
b100100100100 M
b110111010 L
b110000 E
b11011 C
b100010 D
b100010 B
b110010 A
b111110 @
b0 I
1*
#130000
b10 $
b10 ?
b11011 9
b11011 :
b100100010101100101100 ,
b10 1
b100001 &
b100001 0
b100001 >
b11101 '
b11101 /
b11101 =
b111001 (
b111001 .
b111001 <
b111000 )
b111000 -
b111000 ;
0*
#132000
b110001111000 N
b1 Q
b110000011100 O
b10001011110110100000 R
b100001 D
b11101 B
b111001 A
b111000 @
b10 I
b110000011100 L
b100010 E
b100010 C
b0 J
b10100010000 P
b110111010 M
b0 K
b101110010001100100000 "
b101110010001100100000 +
b101110010001100100000 S
1*
#134000
b11100 9
b11100 :
b101110010001100100000 ,
b110100 &
b110100 0
b110100 >
b10001 '
b10001 /
b10001 =
b101010 (
b101010 .
b101010 <
b110101 )
b110101 -
b110101 ;
0*
#136000
b110000011100 R
b1110111101 Q
b110001111000 O
b100010110010 N
b10001011110110100000 "
b10001011110110100000 +
b10001011110110100000 S
b1 P
b110000011100 M
b10 K
b110001111000 L
b100001 E
b11101 C
b10 J
b110100 D
b10001 B
b101010 A
b110101 @
1*
#138000
b0 $
b0 ?
b11101 9
b11101 :
b10001011110110100000 ,
b0 1
b100110 &
b100110 0
b100110 >
b111001 '
b111001 /
b111001 =
b101110 (
b101110 .
b101110 <
b100110 )
b100110 -
b100110 ;
0*
#140000
b11011010100 N
b1101110100 Q
b100010110010 O
b1011101001110010011000 R
b100110 D
b111001 B
b101110 A
b100110 @
b0 I
b100010110010 L
b110100 E
b10001 C
b1110111101 P
b110001111000 M
b110000011100 "
b110000011100 +
b110000011100 S
1*
#142000
b10 $
b10 ?
b11110 9
b11110 :
b110000011100 ,
b10 1
b110010 &
b110010 0
b110010 >
b101110 '
b101110 /
b101110 =
b110100 (
b110100 .
b110100 <
b11110 )
b11110 -
b11110 ;
0*
#144000
b111100000011010101000 R
b1 Q
b11011010100 O
b11000011000 N
b1011101001110010011000 "
b1011101001110010011000 +
b1011101001110010011000 S
b1101110100 P
b100010110010 M
b0 K
b11011010100 L
b100110 E
b111001 C
b0 J
b110010 D
b101110 B
b110100 A
b11110 @
b10 I
1*
#146000
b0 $
b0 ?
b11111 9
b11111 :
b1011101001110010011000 ,
b0 1
b111011 &
b111011 0
b111011 >
b11011 '
b11011 /
b11011 =
b110101 (
b110101 .
b110101 <
b110010 )
b110010 -
b110010 ;
0*
#148000
b101001011010 N
b100011111100 Q
b11000011000 O
b11011010100 R
b111011 D
b11011 B
b110101 A
b110010 @
b0 I
b11000011000 L
b110010 E
b101110 C
b10 J
b1 P
b11011010100 M
b10 K
b111100000011010101000 "
b111100000011010101000 +
b111100000011010101000 S
1*
#150000
b1 $
b1 ?
b100000 9
b100000 :
b111100000011010101000 ,
b1 1
b110101 &
b110101 0
b110101 >
b11001 '
b11001 /
b11001 =
b100111 (
b100111 .
b100111 <
b11010 )
b11010 -
b11010 ;
0*
#152000
b1101101011111110100000 R
b1 Q
b101001011010 O
b1001110 N
b11011010100 "
b11011010100 +
b11011010100 S
b100011111100 P
b11000011000 M
b0 K
b101001011010 L
b111011 E
b11011 C
b0 J
b110101 D
b11001 B
b100111 A
b11010 @
b1 I
1*
#154000
b0 $
b0 ?
b100001 9
b100001 :
b11011010100 ,
b0 1
b101101 &
b101101 0
b101101 >
b110000 '
b110000 /
b110000 =
b10001 (
b10001 .
b10001 <
0*
#156000
b110111010 N
b1001110 O
b101001011010 R
b101101 D
b110000 B
b10001 A
b0 I
b1001110 L
b110101 E
b11001 C
b1 J
b1 P
b101001011010 M
b1 K
b1101101011111110100000 "
b1101101011111110100000 +
b1101101011111110100000 S
1*
#158000
b10 $
b10 ?
b100010 9
b100010 :
b1101101011111110100000 ,
b10 1
b110100 &
b110100 0
b110100 >
b111000 '
b111000 /
b111000 =
b110011 (
b110011 .
b110011 <
b100110 )
b100110 -
b100110 ;
0*
#160000
b1001110 R
b110111010 O
b11110010010 N
b101001011010 "
b101001011010 +
b101001011010 S
b1001110 M
b0 K
b110111010 L
b101101 E
b110000 C
b0 J
b110100 D
b111000 B
b110011 A
b100110 @
b10 I
1*
#162000
b0 $
b0 ?
b100011 9
b100011 :
b101001011010 ,
b0 1
b110110 &
b110110 0
b110110 >
b111010 '
b111010 /
b111010 =
b111110 (
b111110 .
b111110 <
b100000 )
b100000 -
b100000 ;
0*
#164000
b11111000000 N
b101101100000 Q
b11110010010 O
b110111010 R
b110110 D
b111010 B
b111110 A
b100000 @
b0 I
b11110010010 L
b110100 E
b111000 C
b10 J
b110111010 M
b10 K
b1001110 "
b1001110 +
b1001110 S
1*
#166000
b100100 9
b100100 :
b1001110 ,
b1100 &
b1100 0
b1100 >
b101110 '
b101110 /
b101110 =
b111111 (
b111111 .
b111111 <
b111010 )
b111010 -
b111010 ;
0*
#168000
b10101100001110011000000 R
b1 Q
b11111000000 O
b111001000110 N
b110111010 "
b110111010 +
b110111010 S
b101101100000 P
b11110010010 M
b0 K
b11111000000 L
b110110 E
b111010 C
b0 J
b1100 D
b101110 B
b111111 A
b111010 @
1*
#170000
b10 $
b10 ?
b100101 9
b100101 :
b110111010 ,
b10 1
b10001 &
b10001 0
b10001 >
b101001 '
b101001 /
b101001 =
b100111 (
b100111 .
b100111 <
b1100 )
b1100 -
b1100 ;
0*
#172000
b111010100 N
b111001000110 O
b11111000000 R
b10001 D
b101001 B
b100111 A
b1100 @
b10 I
b111001000110 L
b1100 E
b101110 C
b1 P
b11111000000 M
b10101100001110011000000 "
b10101100001110011000000 +
b10101100001110011000000 S
1*
#174000
b0 $
b0 ?
b100110 9
b100110 :
b10101100001110011000000 ,
b0 1
b110110 &
b110110 0
b110110 >
b100011 '
b100011 /
b100011 =
b101010 (
b101010 .
b101010 <
b1110 )
b1110 -
b1110 ;
0*
#176000
b111001000110 R
b1010111001 Q
b111010100 O
b1001001100 N
b11111000000 "
b11111000000 +
b11111000000 S
b111001000110 M
b10 K
b111010100 L
b10001 E
b101001 C
b10 J
b110110 D
b100011 B
b101010 A
b1110 @
b0 I
1*
#178000
b1 $
b1 ?
b100111 9
b100111 :
b11111000000 ,
b1 1
b1110 &
b1110 0
b1110 >
b111100 '
b111100 /
b111100 =
b101111 (
b101111 .
b101111 <
b11010 )
b11010 -
b11010 ;
0*
#180000
b1001010 N
b1 Q
b1001001100 O
b1001111101000110100 R
b1110 D
b111100 B
b101111 A
b11010 @
b1 I
b1001001100 L
b110110 E
b100011 C
b0 J
b1010111001 P
b111010100 M
b0 K
b111001000110 "
b111001000110 +
b111001000110 S
1*
#182000
b0 $
b0 ?
b101000 9
b101000 :
b111001000110 ,
b0 1
b111110 &
b111110 0
b111110 >
b11001 '
b11001 /
b11001 =
b110000 (
b110000 .
b110000 <
b11100 )
b11100 -
b11100 ;
0*
#184000
b1001001100 R
b1001010 O
b10101000000 N
b1001111101000110100 "
b1001111101000110100 +
b1001111101000110100 S
b1 P
b1001001100 M
b1 K
b1001010 L
b1110 E
b111100 C
b1 J
b111110 D
b11001 B
b110000 A
b11100 @
b0 I
1*
#186000
b10 $
b10 ?
b101001 9
b101001 :
b1001111101000110100 ,
b10 1
b10011 &
b10011 0
b10011 >
b111000 '
b111000 /
b111000 =
b100001 (
b100001 .
b100001 <
b100001 )
b100001 -
b100001 ;
0*
#188000
b10001000001 N
b10101000000 O
b1001010 R
b10011 D
b111000 B
b100001 A
b100001 @
b10 I
b10101000000 L
b111110 E
b11001 C
b0 J
b1001010 M
b0 K
b1001001100 "
b1001001100 +
b1001001100 S
1*
#190000
b1 $
b1 ?
b101010 9
b101010 :
b1001001100 ,
b1 1
b111100 &
b111100 0
b111100 >
b100010 '
b100010 /
b100010 =
b1100 (
b1100 .
b1100 <
b11100 )
b11100 -
b11100 ;
0*
#192000
b10101000000 R
b10000101000 Q
b10001000001 O
b1011110 N
b1001010 "
b1001010 +
b1001010 S
b10101000000 M
b10 K
b10001000001 L
b10011 E
b111000 C
b10 J
b111100 D
b100010 B
b1100 A
b11100 @
b1 I
1*
#194000
b101011 9
b101011 :
b1001010 ,
b1011 &
b1011 0
b1011 >
b10000 '
b10000 /
b10000 =
b11011 (
b11011 .
b11011 <
b111101 )
b111101 -
b111101 ;
0*
#196000
b11011 N
b1 Q
b1011110 O
b100011010111000101000 R
b1011 D
b10000 B
b11011 A
b111101 @
b1011110 L
b111100 E
b100010 C
b1 J
b10000101000 P
b10001000001 M
b1 K
b10101000000 "
b10101000000 +
b10101000000 S
1*
#198000
b0 $
b0 ?
b101100 9
b101100 :
b10101000000 ,
b0 1
b100010 &
b100010 0
b100010 >
b11010 '
b11010 /
b11010 =
b110010 (
b110010 .
b110010 <
b11010 )
b11010 -
b11010 ;
0*
#200000
b1011110 R
b11011 O
b10100010100 N
b100011010111000101000 "
b100011010111000101000 +
b100011010111000101000 S
b1 P
b1011110 M
b11011 L
b1011 E
b10000 C
b100010 D
b11010 B
b110010 A
b11010 @
b0 I
1*
#202000
b101101 9
b101101 :
b100011010111000101000 ,
b111011 &
b111011 0
b111011 >
b10010 '
b10010 /
b10010 =
b10001 (
b10001 .
b10001 <
b10001 )
b10001 -
b10001 ;
0*
#204000
b100100001 N
b10100010100 O
b11011 R
b111011 D
b10010 B
b10001 A
b10001 @
b10100010100 L
b100010 E
b11010 C
b0 J
b11011 M
b0 K
b1011110 "
b1011110 +
b1011110 S
1*
#206000
b10 $
b10 ?
b101110 9
b101110 :
b1011110 ,
b10 1
b110101 &
b110101 0
b110101 >
b101111 '
b101111 /
b101111 =
b110101 (
b110101 .
b110101 <
b101011 )
b101011 -
b101011 ;
0*
#208000
b10100010100 R
b100100001 O
b100011100111 N
b11011 "
b11011 +
b11011 S
b10100010100 M
b100100001 L
b111011 E
b10010 C
b110101 D
b101111 B
b110101 A
b101011 @
b10 I
1*
#210000
b0 $
b0 ?
b101111 9
b101111 :
b11011 ,
b0 1
b10000 &
b10000 0
b10000 >
b101101 '
b101101 /
b101101 =
b111111 (
b111111 .
b111111 <
b111100 )
b111100 -
b111100 ;
0*
#212000
b111011000100 N
b100110111011 Q
b100011100111 O
b100100001 R
b10000 D
b101101 B
b111111 A
b111100 @
b0 I
b100011100111 L
b110101 E
b101111 C
b10 J
b100100001 M
b10 K
b10100010100 "
b10100010100 +
b10100010100 S
1*
#214000
b110000 9
b110000 :
b10100010100 ,
b101110 &
b101110 0
b101110 >
b1100 '
b1100 /
b1100 =
b101110 (
b101110 .
b101110 <
b110111 )
b110111 -
b110111 ;
0*
#216000
b10101101001111110111101 R
b1 Q
b111011000100 O
b100111100010 N
b100100001 "
b100100001 +
b100100001 S
b100110111011 P
b100011100111 M
b0 K
b111011000100 L
b10000 E
b101101 C
b0 J
b101110 D
b1100 B
b101110 A
b110111 @
1*
#218000
b110001 9
b110001 :
b100100001 ,
b111110 &
b111110 0
b111110 >
b1110 '
b1110 /
b1110 =
b10100 (
b10100 .
b10100 <
b11110 )
b11110 -
b11110 ;
0*
#220000
b1001011000 N
b100111100010 O
b111011000100 R
b111110 D
b1110 B
b10100 A
b11110 @
b100111100010 L
b101110 E
b1100 C
b1 P
b111011000100 M
b10101101001111110111101 "
b10101101001111110111101 +
b10101101001111110111101 S
1*
#222000
b110010 9
b110010 :
b10101101001111110111101 ,
b100101 &
b100101 0
b100101 >
b110010 '
b110010 /
b110010 =
b10000 (
b10000 .
b10000 <
b100111 )
b100111 -
b100111 ;
0*
#224000
b100111100010 R
b1001011000 O
b1001110000 N
b111011000100 "
b111011000100 +
b111011000100 S
b100111100010 M
b1001011000 L
b111110 E
b1110 C
b100101 D
b110010 B
b10000 A
b100111 @
1*
#226000
b110011 9
b110011 :
b111011000100 ,
b11001 &
b11001 0
b11001 >
b1010 '
b1010 /
b1010 =
b111101 (
b111101 .
b111101 <
b101001 )
b101001 -
b101001 ;
0*
#228000
b100111000101 N
b1001110000 O
b1001011000 R
b11001 D
b1010 B
b111101 A
b101001 @
b1001110000 L
b100101 E
b110010 C
b1001011000 M
b100111100010 "
b100111100010 +
b100111100010 S
1*
#230000
b110100 9
b110100 :
b100111100010 ,
b110100 &
b110100 0
b110100 >
b111001 '
b111001 /
b111001 =
b1101 (
b1101 .
b1101 <
b100001 )
b100001 -
b100001 ;
0*
#232000
b1001110000 R
b100111000101 O
b110101101 N
b1001011000 "
b1001011000 +
b1001011000 S
b1001110000 M
b100111000101 L
b11001 E
b1010 C
b110100 D
b111001 B
b1101 A
b100001 @
1*
#234000
b1 $
b1 ?
b110101 9
b110101 :
b1001011000 ,
b1 1
b11000 &
b11000 0
b11000 >
b10011 (
b10011 .
b10011 <
b10100 )
b10100 -
b10100 ;
0*
#236000
b1010001 N
b110101101 O
b100111000101 R
b11000 D
b10011 A
b10100 @
b1 I
b110101101 L
b110100 E
b111001 C
b100111000101 M
b1001110000 "
b1001110000 +
b1001110000 S
1*
#238000
b0 $
b0 ?
b110110 9
b110110 :
b1001110000 ,
b0 1
b1101 &
b1101 0
b1101 >
b101100 '
b101100 /
b101100 =
b111011 (
b111011 .
b111011 <
b101011 )
b101011 -
b101011 ;
0*
#240000
b110101101 R
b1010001 O
b100111101001 N
b100111000101 "
b100111000101 +
b100111000101 S
b110101101 M
b1 K
b1010001 L
b11000 E
b1 J
b1101 D
b101100 B
b111011 A
b101011 @
b0 I
1*
